EESchema Schematic File Version 4
LIBS:umidade-cache
EELAYER 30 0
EELAYER END
$Descr A4 11693 8268
encoding utf-8
Sheet 2 3
Title ""
Date ""
Rev ""
Comp ""
Comment1 ""
Comment2 ""
Comment3 ""
Comment4 ""
$EndDescr
$Comp
L umidade-rescue:C_POL C3
U 1 1 5BD9A8A2
P 4950 4250
F 0 "C3" H 4900 4400 60  0000 C CNN
F 1 "22μF" H 4950 4100 60  0000 C CNN
F 2 "Capacitors_Tantalum_SMD:CP_Tantalum_Case-A_EIA-3216-18_Reflow" H 4950 4250 60  0001 C CNN
F 3 "" H 4950 4250 60  0001 C CNN
	1    4950 4250
	0    1    1    0   
$EndComp
$Comp
L umidade-rescue:C_POL C5
U 1 1 5BD9A8A9
P 7050 4250
F 0 "C5" H 7000 4400 60  0000 C CNN
F 1 "22μF" H 7050 4100 60  0000 C CNN
F 2 "Capacitors_Tantalum_SMD:CP_Tantalum_Case-A_EIA-3216-18_Reflow" H 7050 4250 60  0001 C CNN
F 3 "" H 7050 4250 60  0001 C CNN
	1    7050 4250
	0    1    1    0   
$EndComp
$Comp
L umidade-rescue:AMS1117 U3
U 1 1 5BD9A8B7
P 6000 4050
F 0 "U3" H 6000 3950 50  0000 C CNN
F 1 "AMS1117" H 6000 4150 50  0000 C CNN
F 2 "TO_SOT_Packages_SMD:SOT-223" H 6000 4050 60  0001 C CNN
F 3 "" H 6000 4050 60  0000 C CNN
	1    6000 4050
	1    0    0    -1  
$EndComp
$Comp
L umidade-rescue:AMS1117 U2
U 1 1 5BD9A8BE
P 6000 2900
F 0 "U2" H 6000 2800 50  0000 C CNN
F 1 "AMS1117" H 6000 3000 50  0000 C CNN
F 2 "TO_SOT_Packages_SMD:SOT-223" H 6000 2900 60  0001 C CNN
F 3 "" H 6000 2900 60  0000 C CNN
	1    6000 2900
	1    0    0    -1  
$EndComp
$Comp
L umidade-rescue:C_POL C2
U 1 1 5BD9A8C5
P 4950 3100
F 0 "C2" H 4900 3250 60  0000 C CNN
F 1 "22μF" H 4950 2950 60  0000 C CNN
F 2 "Capacitors_Tantalum_SMD:CP_Tantalum_Case-A_EIA-3216-18_Reflow" H 4950 3100 60  0001 C CNN
F 3 "" H 4950 3100 60  0001 C CNN
	1    4950 3100
	0    1    1    0   
$EndComp
$Comp
L umidade-rescue:C_POL C4
U 1 1 5BD9A8CC
P 7050 3100
F 0 "C4" H 7000 3250 60  0000 C CNN
F 1 "22μF" H 7050 2950 60  0000 C CNN
F 2 "Capacitors_Tantalum_SMD:CP_Tantalum_Case-A_EIA-3216-18_Reflow" H 7050 3100 60  0001 C CNN
F 3 "" H 7050 3100 60  0001 C CNN
	1    7050 3100
	0    1    1    0   
$EndComp
$Comp
L power:+5V #PWR014
U 1 1 5BD9A8DC
P 7450 2850
F 0 "#PWR014" H 7450 2700 50  0001 C CNN
F 1 "+5V" H 7450 2990 50  0000 C CNN
F 2 "" H 7450 2850 50  0000 C CNN
F 3 "" H 7450 2850 50  0000 C CNN
	1    7450 2850
	1    0    0    -1  
$EndComp
$Comp
L power:+3.3V #PWR015
U 1 1 5BD9A8E2
P 7450 4000
F 0 "#PWR015" H 7450 3850 50  0001 C CNN
F 1 "+3.3V" H 7450 4140 50  0000 C CNN
F 2 "" H 7450 4000 50  0000 C CNN
F 3 "" H 7450 4000 50  0000 C CNN
	1    7450 4000
	1    0    0    -1  
$EndComp
$Comp
L power:PWR_FLAG #FLG016
U 1 1 5BD9A913
P 7800 4000
F 0 "#FLG016" H 7800 4095 50  0001 C CNN
F 1 "PWR_FLAG" H 7800 4180 50  0000 C CNN
F 2 "" H 7800 4000 50  0000 C CNN
F 3 "" H 7800 4000 50  0000 C CNN
	1    7800 4000
	1    0    0    -1  
$EndComp
$Comp
L power:PWR_FLAG #FLG017
U 1 1 5BD9A919
P 7750 2850
F 0 "#FLG017" H 7750 2945 50  0001 C CNN
F 1 "PWR_FLAG" H 7750 3030 50  0000 C CNN
F 2 "" H 7750 2850 50  0000 C CNN
F 3 "" H 7750 2850 50  0000 C CNN
	1    7750 2850
	1    0    0    -1  
$EndComp
$Comp
L power:PWR_FLAG #FLG018
U 1 1 5BD9A91F
P 4000 3050
F 0 "#FLG018" H 4000 3145 50  0001 C CNN
F 1 "PWR_FLAG" H 4000 3230 50  0000 C CNN
F 2 "" H 4000 3050 50  0000 C CNN
F 3 "" H 4000 3050 50  0000 C CNN
	1    4000 3050
	-1   0    0    1   
$EndComp
$Comp
L umidade-rescue:CONN_01X02 P1
U 1 1 5BD9A943
P 3400 2950
F 0 "P1" H 3400 3100 50  0000 C CNN
F 1 "PWR" V 3500 2950 50  0000 C CNN
F 2 "TerminalBlock_Phoenix:TerminalBlock_Phoenix_PT-3.5mm_2pol" H 3400 2950 50  0001 C CNN
F 3 "" H 3400 2950 50  0000 C CNN
	1    3400 2950
	-1   0    0    1   
$EndComp
$Comp
L power:GND #PWR019
U 1 1 5BD9ADE8
P 3700 3050
F 0 "#PWR019" H 3700 2800 50  0001 C CNN
F 1 "GND" H 3700 2900 50  0000 C CNN
F 2 "" H 3700 3050 50  0001 C CNN
F 3 "" H 3700 3050 50  0001 C CNN
	1    3700 3050
	1    0    0    -1  
$EndComp
$Comp
L power:GND #PWR020
U 1 1 5BD9AE26
P 4950 3300
F 0 "#PWR020" H 4950 3050 50  0001 C CNN
F 1 "GND" H 4950 3150 50  0000 C CNN
F 2 "" H 4950 3300 50  0001 C CNN
F 3 "" H 4950 3300 50  0001 C CNN
	1    4950 3300
	1    0    0    -1  
$EndComp
$Comp
L power:GND #PWR021
U 1 1 5BD9AE48
P 6000 3450
F 0 "#PWR021" H 6000 3200 50  0001 C CNN
F 1 "GND" H 6000 3300 50  0000 C CNN
F 2 "" H 6000 3450 50  0001 C CNN
F 3 "" H 6000 3450 50  0001 C CNN
	1    6000 3450
	1    0    0    -1  
$EndComp
$Comp
L power:GND #PWR022
U 1 1 5BD9AE6A
P 7050 3300
F 0 "#PWR022" H 7050 3050 50  0001 C CNN
F 1 "GND" H 7050 3150 50  0000 C CNN
F 2 "" H 7050 3300 50  0001 C CNN
F 3 "" H 7050 3300 50  0001 C CNN
	1    7050 3300
	1    0    0    -1  
$EndComp
$Comp
L power:GND #PWR023
U 1 1 5BD9AEB6
P 4950 4450
F 0 "#PWR023" H 4950 4200 50  0001 C CNN
F 1 "GND" H 4950 4300 50  0000 C CNN
F 2 "" H 4950 4450 50  0001 C CNN
F 3 "" H 4950 4450 50  0001 C CNN
	1    4950 4450
	1    0    0    -1  
$EndComp
$Comp
L power:GND #PWR024
U 1 1 5BD9AED8
P 6000 4600
F 0 "#PWR024" H 6000 4350 50  0001 C CNN
F 1 "GND" H 6000 4450 50  0000 C CNN
F 2 "" H 6000 4600 50  0001 C CNN
F 3 "" H 6000 4600 50  0001 C CNN
	1    6000 4600
	1    0    0    -1  
$EndComp
$Comp
L power:GND #PWR025
U 1 1 5BD9AEFA
P 7050 4450
F 0 "#PWR025" H 7050 4200 50  0001 C CNN
F 1 "GND" H 7050 4300 50  0000 C CNN
F 2 "" H 7050 4450 50  0001 C CNN
F 3 "" H 7050 4450 50  0001 C CNN
	1    7050 4450
	1    0    0    -1  
$EndComp
Wire Wire Line
	3600 3000 4000 3000
Wire Wire Line
	3700 3000 3700 3050
Wire Wire Line
	4000 3000 4000 3050
Connection ~ 3700 3000
Wire Wire Line
	4950 3300 4950 3200
Wire Wire Line
	4950 3000 4950 2900
Wire Wire Line
	3600 2900 5200 2900
Wire Wire Line
	6000 3400 6000 3450
Wire Wire Line
	6800 2900 7750 2900
Wire Wire Line
	7050 2900 7050 3000
Wire Wire Line
	7450 2900 7450 2850
Connection ~ 7050 2900
Wire Wire Line
	7750 2900 7750 2850
Connection ~ 7450 2900
Wire Wire Line
	7050 3200 7050 3300
Wire Wire Line
	4950 4350 4950 4450
Wire Wire Line
	4400 4050 5200 4050
Wire Wire Line
	4950 4050 4950 4150
Wire Wire Line
	6000 4600 6000 4550
Wire Wire Line
	6800 4050 7800 4050
Wire Wire Line
	7050 4050 7050 4150
Wire Wire Line
	7050 4350 7050 4450
Wire Wire Line
	7450 4050 7450 4000
Connection ~ 7050 4050
Wire Wire Line
	7800 4050 7800 4000
Connection ~ 7450 4050
Connection ~ 4950 2900
Wire Wire Line
	4400 2800 4400 4050
Connection ~ 4950 4050
Connection ~ 4400 2900
$Comp
L power:PWR_FLAG #FLG026
U 1 1 5BD9B7CD
P 4400 2800
F 0 "#FLG026" H 4400 2875 50  0001 C CNN
F 1 "PWR_FLAG" H 4400 2950 50  0000 C CNN
F 2 "" H 4400 2800 50  0001 C CNN
F 3 "" H 4400 2800 50  0001 C CNN
	1    4400 2800
	1    0    0    -1  
$EndComp
$EndSCHEMATC
