EESchema Schematic File Version 4
LIBS:umidade-cache
EELAYER 30 0
EELAYER END
$Descr A4 11693 8268
encoding utf-8
Sheet 3 3
Title ""
Date ""
Rev ""
Comp ""
Comment1 ""
Comment2 ""
Comment3 ""
Comment4 ""
$EndDescr
Text GLabel 3100 2650 2    60   Input ~ 0
ESP_TXD
Text GLabel 3100 2750 2    60   Input ~ 0
ESP_RXD
$Comp
L umidade-rescue:CONN_01X04 P2
U 1 1 5BD9C950
P 2900 2800
F 0 "P2" H 2900 3050 50  0000 C CNN
F 1 "FTDI" V 3000 2800 50  0000 C CNN
F 2 "Pin_Headers:Pin_Header_Straight_1x04_Pitch2.54mm" H 2900 2800 50  0001 C CNN
F 3 "" H 2900 2800 50  0000 C CNN
	1    2900 2800
	-1   0    0    1   
$EndComp
Text Notes 2550 3000 0    60   ~ 0
RX\nTX\nVCC\nGND
Text GLabel 3050 4150 2    60   Input ~ 0
ESP_TXD
Text GLabel 3050 3750 2    60   Input ~ 0
ESP_RXD
Text Notes 3550 3800 0    60   ~ 0
TX
Text Notes 3550 4200 0    60   ~ 0
RX
$Comp
L umidade-rescue:Conn_01x02 J2
U 1 1 5BD9CF27
P 2850 4150
F 0 "J2" H 2850 4250 50  0000 C CNN
F 1 "Conn_01x02" H 2850 3950 50  0000 C CNN
F 2 "TerminalBlock_Phoenix:TerminalBlock_Phoenix_MPT-2.54mm_2pol" H 2850 4150 50  0001 C CNN
F 3 "" H 2850 4150 50  0001 C CNN
	1    2850 4150
	-1   0    0    -1  
$EndComp
Text Notes 2800 3400 0    60   ~ 0
IHM
$Comp
L umidade-rescue:Conn_01x01 J8
U 1 1 5BD9CF2F
P 5250 2950
F 0 "J8" H 5250 3050 50  0000 C CNN
F 1 "Conn_01x01" H 5250 2850 50  0000 C CNN
F 2 "MPPT_Library:padhole" H 5250 2950 50  0001 C CNN
F 3 "" H 5250 2950 50  0001 C CNN
	1    5250 2950
	1    0    0    -1  
$EndComp
$Comp
L umidade-rescue:Conn_01x01 J9
U 1 1 5BD9CF36
P 5250 3300
F 0 "J9" H 5250 3400 50  0000 C CNN
F 1 "Conn_01x01" H 5250 3200 50  0000 C CNN
F 2 "MPPT_Library:padhole" H 5250 3300 50  0001 C CNN
F 3 "" H 5250 3300 50  0001 C CNN
	1    5250 3300
	1    0    0    -1  
$EndComp
$Comp
L umidade-rescue:Conn_01x01 J10
U 1 1 5BD9CF3D
P 5250 3650
F 0 "J10" H 5250 3750 50  0000 C CNN
F 1 "Conn_01x01" H 5250 3550 50  0000 C CNN
F 2 "MPPT_Library:padhole" H 5250 3650 50  0001 C CNN
F 3 "" H 5250 3650 50  0001 C CNN
	1    5250 3650
	1    0    0    -1  
$EndComp
$Comp
L umidade-rescue:Conn_01x01 J11
U 1 1 5BD9CF44
P 5250 4000
F 0 "J11" H 5250 4100 50  0000 C CNN
F 1 "Conn_01x01" H 5250 3900 50  0000 C CNN
F 2 "MPPT_Library:padhole" H 5250 4000 50  0001 C CNN
F 3 "" H 5250 4000 50  0001 C CNN
	1    5250 4000
	1    0    0    -1  
$EndComp
Wire Wire Line
	4950 4050 4950 4000
Wire Wire Line
	4950 4000 5050 4000
NoConn ~ 5050 3650
NoConn ~ 5050 3300
NoConn ~ 5050 2950
Text Notes 4950 2750 0    60   ~ 0
Suporte IHM
$Comp
L umidade-rescue:Conn_01x01 J4
U 1 1 5BD9CF57
P 4600 2950
F 0 "J4" H 4600 3050 50  0000 C CNN
F 1 "Conn_01x01" H 4600 2850 50  0000 C CNN
F 2 "MPPT_Library:padhole" H 4600 2950 50  0001 C CNN
F 3 "" H 4600 2950 50  0001 C CNN
	1    4600 2950
	1    0    0    -1  
$EndComp
$Comp
L umidade-rescue:Conn_01x01 J5
U 1 1 5BD9CF5E
P 4600 3300
F 0 "J5" H 4600 3400 50  0000 C CNN
F 1 "Conn_01x01" H 4600 3200 50  0000 C CNN
F 2 "MPPT_Library:padhole" H 4600 3300 50  0001 C CNN
F 3 "" H 4600 3300 50  0001 C CNN
	1    4600 3300
	1    0    0    -1  
$EndComp
$Comp
L umidade-rescue:Conn_01x01 J6
U 1 1 5BD9CF65
P 4600 3650
F 0 "J6" H 4600 3750 50  0000 C CNN
F 1 "Conn_01x01" H 4600 3550 50  0000 C CNN
F 2 "MPPT_Library:padhole" H 4600 3650 50  0001 C CNN
F 3 "" H 4600 3650 50  0001 C CNN
	1    4600 3650
	1    0    0    -1  
$EndComp
$Comp
L umidade-rescue:Conn_01x01 J7
U 1 1 5BD9CF6C
P 4600 4000
F 0 "J7" H 4600 4100 50  0000 C CNN
F 1 "Conn_01x01" H 4600 3900 50  0000 C CNN
F 2 "MPPT_Library:padhole" H 4600 4000 50  0001 C CNN
F 3 "" H 4600 4000 50  0001 C CNN
	1    4600 4000
	1    0    0    -1  
$EndComp
Text Notes 4250 2750 0    60   ~ 0
Suporte placa
NoConn ~ 4400 2950
NoConn ~ 4400 3300
NoConn ~ 4400 3650
$Comp
L umidade-rescue:Conn_01x02 J1
U 1 1 5BD9CF7F
P 2850 3650
F 0 "J1" H 2850 3750 50  0000 C CNN
F 1 "Conn_01x02" H 2850 3450 50  0000 C CNN
F 2 "TerminalBlock_Phoenix:TerminalBlock_Phoenix_MPT-2.54mm_2pol" H 2850 3650 50  0001 C CNN
F 3 "" H 2850 3650 50  0001 C CNN
	1    2850 3650
	-1   0    0    -1  
$EndComp
$Comp
L umidade-rescue:DIODE-RESCUE-umidade D5
U 1 1 5BD9DCDC
P 7350 3500
F 0 "D5" H 7350 3600 40  0000 C CNN
F 1 "DIODE" H 7350 3400 40  0000 C CNN
F 2 "Diodes_SMD:D_SOD-123" H 7350 3500 60  0001 C CNN
F 3 "" H 7350 3500 60  0000 C CNN
	1    7350 3500
	-1   0    0    1   
$EndComp
$Comp
L umidade-rescue:DIODE-RESCUE-umidade D4
U 1 1 5BD9DCE3
P 7350 3050
F 0 "D4" H 7350 3150 40  0000 C CNN
F 1 "DIODE" H 7350 2950 40  0000 C CNN
F 2 "Diodes_SMD:D_SOD-123" H 7350 3050 60  0001 C CNN
F 3 "" H 7350 3050 60  0000 C CNN
	1    7350 3050
	-1   0    0    1   
$EndComp
$Comp
L umidade-rescue:HEADER_2 J12
U 1 1 5BD9DCEA
P 6700 3300
F 0 "J12" H 6700 3450 60  0000 C CNN
F 1 "SENSOR1" H 6700 3150 60  0000 C CNN
F 2 "TerminalBlock_Phoenix:TerminalBlock_Phoenix_MPT-2.54mm_2pol" H 6700 3300 60  0001 C CNN
F 3 "" H 6700 3300 60  0000 C CNN
	1    6700 3300
	1    0    0    -1  
$EndComp
$Comp
L umidade-rescue:R R9
U 1 1 5BD9DCF1
P 6600 2850
F 0 "R9" V 6680 2850 50  0000 C CNN
F 1 "1.5K" V 6600 2850 50  0000 C CNN
F 2 "Resistors_SMD:R_0805" V 6530 2850 50  0001 C CNN
F 3 "" H 6600 2850 50  0000 C CNN
	1    6600 2850
	0    1    1    0   
$EndComp
$Comp
L umidade-rescue:R R10
U 1 1 5BD9DCF8
P 6600 3700
F 0 "R10" V 6680 3700 50  0000 C CNN
F 1 "1.5K" V 6600 3700 50  0000 C CNN
F 2 "Resistors_SMD:R_0805" V 6530 3700 50  0001 C CNN
F 3 "" H 6600 3700 50  0000 C CNN
	1    6600 3700
	0    1    1    0   
$EndComp
$Comp
L umidade-rescue:DIODE-RESCUE-umidade D2
U 1 1 5BD9DCFF
P 7300 4150
F 0 "D2" H 7300 4250 40  0000 C CNN
F 1 "DIODE" H 7300 4050 40  0000 C CNN
F 2 "Diodes_SMD:D_SOD-123" H 7300 4150 60  0001 C CNN
F 3 "" H 7300 4150 60  0000 C CNN
	1    7300 4150
	-1   0    0    1   
$EndComp
$Comp
L umidade-rescue:DIODE-RESCUE-umidade D3
U 1 1 5BD9DD06
P 7300 4450
F 0 "D3" H 7300 4550 40  0000 C CNN
F 1 "DIODE" H 7300 4350 40  0000 C CNN
F 2 "Diodes_SMD:D_SOD-123" H 7300 4450 60  0001 C CNN
F 3 "" H 7300 4450 60  0000 C CNN
	1    7300 4450
	-1   0    0    1   
$EndComp
$Comp
L umidade-rescue:HEADER_2 J13
U 1 1 5BD9DD0D
P 6700 4300
F 0 "J13" H 6700 4450 60  0000 C CNN
F 1 "SENSOR2" H 6700 4150 60  0000 C CNN
F 2 "TerminalBlock_Phoenix:TerminalBlock_Phoenix_MPT-2.54mm_2pol" H 6700 4300 60  0001 C CNN
F 3 "" H 6700 4300 60  0000 C CNN
	1    6700 4300
	1    0    0    -1  
$EndComp
$Comp
L umidade-rescue:R R12
U 1 1 5BD9DD14
P 6600 4650
F 0 "R12" V 6680 4650 50  0000 C CNN
F 1 "1.5K" V 6600 4650 50  0000 C CNN
F 2 "Resistors_SMD:R_0805" V 6530 4650 50  0001 C CNN
F 3 "" H 6600 4650 50  0000 C CNN
	1    6600 4650
	0    1    1    0   
$EndComp
$Comp
L umidade-rescue:R R11
U 1 1 5BD9DD1B
P 6600 3950
F 0 "R11" V 6680 3950 50  0000 C CNN
F 1 "1.5K" V 6600 3950 50  0000 C CNN
F 2 "Resistors_SMD:R_0805" V 6530 3950 50  0001 C CNN
F 3 "" H 6600 3950 50  0000 C CNN
	1    6600 3950
	0    1    1    0   
$EndComp
$Comp
L umidade-rescue:HEADER_3 J3
U 1 1 5BD9DD22
P 2850 5100
F 0 "J3" H 2850 5300 60  0000 C CNN
F 1 "TEMP" H 2850 4900 60  0000 C CNN
F 2 "TerminalBlock_Phoenix:TerminalBlock_Phoenix_MPT-2.54mm_3pol" H 2850 5100 60  0001 C CNN
F 3 "" H 2850 5100 60  0000 C CNN
	1    2850 5100
	-1   0    0    1   
$EndComp
$Comp
L umidade-rescue:R R8
U 1 1 5BD9DD29
P 3750 4900
F 0 "R8" V 3830 4900 50  0000 C CNN
F 1 "4.7K" V 3750 4900 50  0000 C CNN
F 2 "Resistors_SMD:R_0805" V 3680 4900 50  0001 C CNN
F 3 "" H 3750 4900 50  0000 C CNN
	1    3750 4900
	1    0    0    -1  
$EndComp
Text GLabel 7500 4150 2    60   Input ~ 0
GPIO25
Text GLabel 7500 4450 2    60   Input ~ 0
GPIO26
Text GLabel 7550 3950 2    60   Input ~ 0
ADC1_CH6
Text GLabel 7550 4650 2    60   Input ~ 0
ADC1_CH7
Text GLabel 7550 2850 2    60   Input ~ 0
ADC1_CH0
Text GLabel 7550 3700 2    60   Input ~ 0
ADC1_CH3
Text GLabel 7550 3050 2    60   Input ~ 0
GPIO32
Text GLabel 7550 3500 2    60   Input ~ 0
GPIO33
Text GLabel 3850 5100 2    60   Input ~ 0
GPIO19
Text Notes 6800 2600 0    60   ~ 0
Sensores de umidade
Text Notes 3550 4750 2    60   ~ 0
Sensor de Temperatura
$Comp
L power:+5V #PWR027
U 1 1 5BD9DD3B
P 3750 4700
F 0 "#PWR027" H 3750 4550 50  0001 C CNN
F 1 "+5V" H 3750 4840 50  0000 C CNN
F 2 "" H 3750 4700 50  0000 C CNN
F 3 "" H 3750 4700 50  0000 C CNN
	1    3750 4700
	1    0    0    -1  
$EndComp
Wire Wire Line
	7050 4150 7100 4150
Wire Wire Line
	7050 3950 7050 4150
Wire Wire Line
	7050 4350 7050 4450
Wire Wire Line
	7050 4450 7100 4450
Wire Wire Line
	7050 4250 6850 4250
Connection ~ 7050 4150
Wire Wire Line
	7050 4350 6850 4350
Connection ~ 7050 4450
Connection ~ 7050 3950
Connection ~ 7050 4650
Wire Wire Line
	7550 4650 7050 4650
Wire Wire Line
	7550 3950 7050 3950
Wire Wire Line
	6450 3950 6400 3950
Wire Wire Line
	6400 3950 6400 4300
Wire Wire Line
	6400 4650 6450 4650
Wire Wire Line
	6400 2850 6400 3300
Wire Wire Line
	6400 2850 6450 2850
Wire Wire Line
	7550 2850 7050 2850
Wire Wire Line
	7050 2850 7050 3050
Wire Wire Line
	7050 3250 6850 3250
Wire Wire Line
	6400 3700 6450 3700
Wire Wire Line
	7550 3700 7050 3700
Wire Wire Line
	7050 3700 7050 3500
Wire Wire Line
	7050 3350 6850 3350
Connection ~ 7050 3700
Connection ~ 7050 2850
Wire Wire Line
	7150 3500 7050 3500
Connection ~ 7050 3500
Wire Wire Line
	7150 3050 7050 3050
Connection ~ 7050 3050
Wire Wire Line
	6600 3250 6600 3150
Wire Wire Line
	6600 3150 6850 3150
Wire Wire Line
	6850 3150 6850 3250
Wire Wire Line
	6600 3350 6600 3450
Wire Wire Line
	6600 3450 6850 3450
Wire Wire Line
	6850 3450 6850 3350
Wire Wire Line
	6600 4350 6600 4450
Wire Wire Line
	6600 4450 6850 4450
Wire Wire Line
	6850 4450 6850 4350
Wire Wire Line
	6600 4250 6600 4150
Wire Wire Line
	6600 4150 6850 4150
Wire Wire Line
	6850 4150 6850 4250
$Comp
L power:GND #PWR028
U 1 1 5BD9EA3C
P 3200 3000
F 0 "#PWR028" H 3200 2750 50  0001 C CNN
F 1 "GND" H 3200 2850 50  0000 C CNN
F 2 "" H 3200 3000 50  0001 C CNN
F 3 "" H 3200 3000 50  0001 C CNN
	1    3200 3000
	1    0    0    -1  
$EndComp
$Comp
L power:+3.3V #PWR029
U 1 1 5BD9EA7E
P 3700 2800
F 0 "#PWR029" H 3700 2650 50  0001 C CNN
F 1 "+3.3V" H 3700 2940 50  0000 C CNN
F 2 "" H 3700 2800 50  0001 C CNN
F 3 "" H 3700 2800 50  0001 C CNN
	1    3700 2800
	1    0    0    -1  
$EndComp
Wire Wire Line
	3100 2950 3200 2950
Wire Wire Line
	3200 2950 3200 3000
Wire Wire Line
	3100 2850 3700 2850
Wire Wire Line
	3700 2850 3700 2800
$Comp
L power:+5V #PWR030
U 1 1 5BD9EF51
P 3150 3600
F 0 "#PWR030" H 3150 3450 50  0001 C CNN
F 1 "+5V" H 3150 3740 50  0000 C CNN
F 2 "" H 3150 3600 50  0001 C CNN
F 3 "" H 3150 3600 50  0001 C CNN
	1    3150 3600
	1    0    0    -1  
$EndComp
$Comp
L power:GND #PWR031
U 1 1 5BD9EFF2
P 3200 4300
F 0 "#PWR031" H 3200 4050 50  0001 C CNN
F 1 "GND" H 3200 4150 50  0000 C CNN
F 2 "" H 3200 4300 50  0001 C CNN
F 3 "" H 3200 4300 50  0001 C CNN
	1    3200 4300
	1    0    0    -1  
$EndComp
Wire Wire Line
	3050 4250 3200 4250
Wire Wire Line
	3200 4250 3200 4300
Wire Wire Line
	3050 3650 3150 3650
Wire Wire Line
	3150 3650 3150 3600
$Comp
L power:GND #PWR032
U 1 1 5BD9F61D
P 4950 4050
F 0 "#PWR032" H 4950 3800 50  0001 C CNN
F 1 "GND" H 4950 3900 50  0000 C CNN
F 2 "" H 4950 4050 50  0001 C CNN
F 3 "" H 4950 4050 50  0001 C CNN
	1    4950 4050
	1    0    0    -1  
$EndComp
$Comp
L power:GND #PWR033
U 1 1 5BD9F65F
P 4300 4050
F 0 "#PWR033" H 4300 3800 50  0001 C CNN
F 1 "GND" H 4300 3900 50  0000 C CNN
F 2 "" H 4300 4050 50  0001 C CNN
F 3 "" H 4300 4050 50  0001 C CNN
	1    4300 4050
	1    0    0    -1  
$EndComp
Wire Wire Line
	4400 4000 4300 4000
Wire Wire Line
	4300 4000 4300 4050
$Comp
L power:GND #PWR034
U 1 1 5BD9FD5B
P 3050 5250
F 0 "#PWR034" H 3050 5000 50  0001 C CNN
F 1 "GND" H 3050 5100 50  0000 C CNN
F 2 "" H 3050 5250 50  0001 C CNN
F 3 "" H 3050 5250 50  0001 C CNN
	1    3050 5250
	1    0    0    -1  
$EndComp
$Comp
L power:+5V #PWR035
U 1 1 5BD9FF2A
P 3050 4950
F 0 "#PWR035" H 3050 4800 50  0001 C CNN
F 1 "+5V" H 3050 5090 50  0000 C CNN
F 2 "" H 3050 4950 50  0001 C CNN
F 3 "" H 3050 4950 50  0001 C CNN
	1    3050 4950
	1    0    0    -1  
$EndComp
Wire Wire Line
	2950 5100 3750 5100
Wire Wire Line
	3750 4700 3750 4750
Wire Wire Line
	3750 5050 3750 5100
Connection ~ 3750 5100
Wire Wire Line
	3050 4950 3050 5000
Wire Wire Line
	3050 5000 2950 5000
Wire Wire Line
	3050 5250 3050 5200
Wire Wire Line
	3050 5200 2950 5200
$Comp
L power:GND #PWR036
U 1 1 5BDA042E
P 6150 3350
F 0 "#PWR036" H 6150 3100 50  0001 C CNN
F 1 "GND" H 6150 3200 50  0000 C CNN
F 2 "" H 6150 3350 50  0001 C CNN
F 3 "" H 6150 3350 50  0001 C CNN
	1    6150 3350
	1    0    0    -1  
$EndComp
Wire Wire Line
	6150 3350 6150 3300
Wire Wire Line
	6150 3300 6400 3300
Connection ~ 6400 3300
$Comp
L power:GND #PWR037
U 1 1 5BDA04C9
P 6150 4350
F 0 "#PWR037" H 6150 4100 50  0001 C CNN
F 1 "GND" H 6150 4200 50  0000 C CNN
F 2 "" H 6150 4350 50  0001 C CNN
F 3 "" H 6150 4350 50  0001 C CNN
	1    6150 4350
	1    0    0    -1  
$EndComp
Wire Wire Line
	6150 4350 6150 4300
Wire Wire Line
	6150 4300 6400 4300
Connection ~ 6400 4300
Wire Wire Line
	7050 4150 7050 4250
Wire Wire Line
	7050 4450 7050 4650
Wire Wire Line
	7050 3950 6750 3950
Wire Wire Line
	7050 4650 6750 4650
Wire Wire Line
	7050 3700 6750 3700
Wire Wire Line
	7050 2850 6750 2850
Wire Wire Line
	7050 3500 7050 3350
Wire Wire Line
	7050 3050 7050 3250
Wire Wire Line
	3750 5100 3850 5100
Wire Wire Line
	6400 3300 6400 3700
Wire Wire Line
	6400 4300 6400 4650
$EndSCHEMATC
