EESchema Schematic File Version 4
LIBS:umidade-cache
EELAYER 30 0
EELAYER END
$Descr A4 11693 8268
encoding utf-8
Sheet 1 3
Title "Circuito para Sensores de Umidade e Temperatura"
Date "2017-11-27"
Rev "0.8"
Comp ""
Comment1 ""
Comment2 ""
Comment3 ""
Comment4 ""
$EndDescr
$Comp
L umidade-rescue:LED-RESCUE-umidade D1
U 1 1 5980EE40
P 5000 4700
F 0 "D1" H 5000 4800 50  0000 C CNN
F 1 "LED" H 5000 4600 50  0000 C CNN
F 2 "LEDs:LED_0805" H 5000 4700 50  0001 C CNN
F 3 "" H 5000 4700 50  0000 C CNN
	1    5000 4700
	-1   0    0    1   
$EndComp
$Comp
L umidade-rescue:R R2
U 1 1 5980EF3F
P 4800 4500
F 0 "R2" V 4880 4500 50  0000 C CNN
F 1 "1k" V 4800 4500 50  0000 C CNN
F 2 "Resistors_SMD:R_0805" V 4730 4500 50  0001 C CNN
F 3 "" H 4800 4500 50  0000 C CNN
	1    4800 4500
	-1   0    0    1   
$EndComp
$Comp
L umidade-rescue:SW_PUSH SW1
U 1 1 598150FE
P 4200 4300
F 0 "SW1" H 4350 4410 50  0000 C CNN
F 1 "SW_PUSH" H 4200 4220 50  0000 C CNN
F 2 "Buttons_Switches_THT:SW_PUSH_6mm_h4.3mm" H 4200 4300 50  0001 C CNN
F 3 "" H 4200 4300 50  0000 C CNN
	1    4200 4300
	0    1    1    0   
$EndComp
$Comp
L umidade-rescue:R R1
U 1 1 59815749
P 4350 3750
F 0 "R1" V 4430 3750 50  0000 C CNN
F 1 "10K" V 4350 3750 50  0000 C CNN
F 2 "Resistors_SMD:R_0805" V 4280 3750 50  0001 C CNN
F 3 "" H 4350 3750 50  0000 C CNN
	1    4350 3750
	0    1    1    0   
$EndComp
$Comp
L umidade-rescue:R R5
U 1 1 59815E94
P 6800 5600
F 0 "R5" V 6880 5600 50  0000 C CNN
F 1 "10K" V 6800 5600 50  0000 C CNN
F 2 "Resistors_SMD:R_0805" V 6730 5600 50  0001 C CNN
F 3 "" H 6800 5600 50  0000 C CNN
	1    6800 5600
	1    0    0    -1  
$EndComp
$Comp
L umidade-rescue:R R7
U 1 1 59816FA5
P 7950 4650
F 0 "R7" V 8030 4650 50  0000 C CNN
F 1 "10K" V 7950 4650 50  0000 C CNN
F 2 "Resistors_SMD:R_0805" V 7880 4650 50  0001 C CNN
F 3 "" H 7950 4650 50  0000 C CNN
	1    7950 4650
	1    0    0    -1  
$EndComp
$Comp
L umidade-rescue:R R6
U 1 1 5981722C
P 7500 4500
F 0 "R6" V 7580 4500 50  0000 C CNN
F 1 "10K" V 7500 4500 50  0000 C CNN
F 2 "Resistors_SMD:R_0805" V 7430 4500 50  0001 C CNN
F 3 "" H 7500 4500 50  0000 C CNN
	1    7500 4500
	0    -1   -1   0   
$EndComp
Text GLabel 7250 3900 2    60   Input ~ 0
ESP_TXD
Text GLabel 7250 4000 2    60   Input ~ 0
ESP_RXD
$Comp
L umidade-rescue:C C1
U 1 1 5A01184E
P 4600 4300
F 0 "C1" H 4625 4400 50  0000 L CNN
F 1 "100nF" H 4625 4200 50  0000 L CNN
F 2 "Capacitors_SMD:C_0805" H 4638 4150 50  0001 C CNN
F 3 "" H 4600 4300 50  0000 C CNN
	1    4600 4300
	-1   0    0    1   
$EndComp
Text Notes 6100 2800 0    60   ~ 0
Módulo ESP
$Comp
L umidade-rescue:SPDT SW2
U 1 1 5AD549C9
P 8000 4900
F 0 "SW2" H 8220 5000 40  0000 C CNN
F 1 "SPDT" H 8280 4830 40  0000 C CNN
F 2 "Buttons_Switches_ThroughHole:SW_Micro_SPST" H 8380 4900 60  0001 C CNN
F 3 "" H 8380 4900 60  0000 C CNN
	1    8000 4900
	1    0    0    -1  
$EndComp
NoConn ~ 8650 4800
$Comp
L umidade-rescue:R R4
U 1 1 5AD55456
P 6700 5600
F 0 "R4" V 6780 5600 50  0000 C CNN
F 1 "10K" V 6700 5600 50  0000 C CNN
F 2 "Resistors_SMD:R_0805" V 6630 5600 50  0001 C CNN
F 3 "" H 6700 5600 50  0000 C CNN
	1    6700 5600
	-1   0    0    1   
$EndComp
$Comp
L umidade-rescue:R R3
U 1 1 5AD55832
P 5150 4850
F 0 "R3" V 5230 4850 50  0000 C CNN
F 1 "10K" V 5150 4850 50  0000 C CNN
F 2 "Resistors_SMD:R_0805" V 5080 4850 50  0001 C CNN
F 3 "" H 5150 4850 50  0000 C CNN
	1    5150 4850
	0    1    1    0   
$EndComp
Wire Wire Line
	4200 4600 4200 4700
Wire Wire Line
	4200 3950 4600 3950
Wire Wire Line
	4600 3750 4600 3950
Wire Wire Line
	4600 4450 4600 4700
Wire Wire Line
	7250 4900 7950 4900
Wire Wire Line
	5400 4850 5300 4850
Wire Wire Line
	5000 4850 4900 4850
Wire Wire Line
	4900 4850 4900 4900
Wire Wire Line
	7250 4500 7350 4500
Wire Wire Line
	7250 3600 7500 3600
Wire Wire Line
	7250 3500 7500 3500
Text GLabel 5400 3850 0    60   Input ~ 0
ADC1_CH0
Text GLabel 5400 3950 0    60   Input ~ 0
ADC1_CH3
Text GLabel 5400 4050 0    60   Input ~ 0
ADC1_CH6
Text GLabel 5400 4150 0    60   Input ~ 0
ADC1_CH7
Text GLabel 5400 4250 0    60   Input ~ 0
GPIO32
Text GLabel 5400 4350 0    60   Input ~ 0
GPIO33
Text GLabel 5400 4450 0    60   Input ~ 0
GPIO25
Text GLabel 5400 4550 0    60   Input ~ 0
GPIO26
Text GLabel 7250 4300 2    60   Input ~ 0
GPIO19
NoConn ~ 7250 3700
NoConn ~ 7250 4400
NoConn ~ 7250 4600
NoConn ~ 7250 4700
NoConn ~ 7250 4800
NoConn ~ 6100 5300
NoConn ~ 6200 5300
$Comp
L umidade-rescue:ESP-32S U1
U 1 1 5AD51897
P 6350 4250
F 0 "U1" H 5650 5500 60  0000 C CNN
F 1 "ESP-32S" H 6850 5500 60  0000 C CNN
F 2 "MPPT_Library:ESP32-WROOM_4pads" H 6700 5600 60  0001 C CNN
F 3 "" H 5900 4700 60  0001 C CNN
	1    6350 4250
	1    0    0    -1  
$EndComp
NoConn ~ 6300 5300
NoConn ~ 6400 5300
NoConn ~ 6500 5300
NoConn ~ 6600 5300
NoConn ~ 5400 4750
NoConn ~ 7250 3800
NoConn ~ 7250 4100
$Sheet
S 1650 1400 1650 1900
U 5BD9A60A
F0 "Alimentacao" 60
F1 "Alimentacao.sch" 60
$EndSheet
$Sheet
S 1700 4050 1550 1350
U 5BD9C71E
F0 "Conectores" 60
F1 "Conectores.sch" 60
$EndSheet
$Comp
L power:GND #PWR01
U 1 1 5BDA0949
P 5200 3450
F 0 "#PWR01" H 5200 3200 50  0001 C CNN
F 1 "GND" H 5200 3300 50  0000 C CNN
F 2 "" H 5200 3450 50  0001 C CNN
F 3 "" H 5200 3450 50  0001 C CNN
	1    5200 3450
	1    0    0    -1  
$EndComp
$Comp
L power:+3.3V #PWR02
U 1 1 5BDA09F9
P 5000 3600
F 0 "#PWR02" H 5000 3450 50  0001 C CNN
F 1 "+3.3V" H 5000 3740 50  0000 C CNN
F 2 "" H 5000 3600 50  0001 C CNN
F 3 "" H 5000 3600 50  0001 C CNN
	1    5000 3600
	1    0    0    -1  
$EndComp
Wire Wire Line
	5400 3650 5000 3650
Wire Wire Line
	5000 3650 5000 3600
Wire Wire Line
	5400 3550 5300 3550
Wire Wire Line
	5300 3550 5300 3450
Wire Wire Line
	5300 3450 5200 3450
Wire Wire Line
	4200 4000 4200 3950
Wire Wire Line
	4200 4700 4600 4700
Connection ~ 4600 3950
Wire Wire Line
	4500 3750 4600 3750
Connection ~ 4600 3750
$Comp
L power:+3.3V #PWR03
U 1 1 5BDA0EB7
P 4100 3700
F 0 "#PWR03" H 4100 3550 50  0001 C CNN
F 1 "+3.3V" H 4100 3840 50  0000 C CNN
F 2 "" H 4100 3700 50  0001 C CNN
F 3 "" H 4100 3700 50  0001 C CNN
	1    4100 3700
	1    0    0    -1  
$EndComp
Wire Wire Line
	4200 3750 4100 3750
Wire Wire Line
	4100 3750 4100 3700
$Comp
L power:GND #PWR04
U 1 1 5BDA0F1F
P 4600 4900
F 0 "#PWR04" H 4600 4650 50  0001 C CNN
F 1 "GND" H 4600 4750 50  0000 C CNN
F 2 "" H 4600 4900 50  0001 C CNN
F 3 "" H 4600 4900 50  0001 C CNN
	1    4600 4900
	1    0    0    -1  
$EndComp
Connection ~ 4600 4700
$Comp
L power:GND #PWR05
U 1 1 5BDA103F
P 4900 4900
F 0 "#PWR05" H 4900 4650 50  0001 C CNN
F 1 "GND" H 4900 4750 50  0000 C CNN
F 2 "" H 4900 4900 50  0001 C CNN
F 3 "" H 4900 4900 50  0001 C CNN
	1    4900 4900
	1    0    0    -1  
$EndComp
Wire Wire Line
	6800 5300 6800 5450
Wire Wire Line
	6700 5300 6700 5450
$Comp
L power:+3.3V #PWR06
U 1 1 5BDA1298
P 6450 5600
F 0 "#PWR06" H 6450 5450 50  0001 C CNN
F 1 "+3.3V" H 6450 5740 50  0000 C CNN
F 2 "" H 6450 5600 50  0001 C CNN
F 3 "" H 6450 5600 50  0001 C CNN
	1    6450 5600
	1    0    0    -1  
$EndComp
$Comp
L power:GND #PWR07
U 1 1 5BDA12C4
P 6800 5850
F 0 "#PWR07" H 6800 5600 50  0001 C CNN
F 1 "GND" H 6800 5700 50  0000 C CNN
F 2 "" H 6800 5850 50  0001 C CNN
F 3 "" H 6800 5850 50  0001 C CNN
	1    6800 5850
	1    0    0    -1  
$EndComp
Wire Wire Line
	6800 5750 6800 5850
Wire Wire Line
	6700 5750 6700 5850
Wire Wire Line
	6700 5850 6450 5850
Wire Wire Line
	6450 5850 6450 5600
$Comp
L power:+3.3V #PWR08
U 1 1 5BDA13E8
P 7750 4400
F 0 "#PWR08" H 7750 4250 50  0001 C CNN
F 1 "+3.3V" H 7750 4540 50  0000 C CNN
F 2 "" H 7750 4400 50  0001 C CNN
F 3 "" H 7750 4400 50  0001 C CNN
	1    7750 4400
	1    0    0    -1  
$EndComp
Wire Wire Line
	7650 4500 7750 4500
Wire Wire Line
	7750 4500 7750 4400
$Comp
L power:+3.3V #PWR09
U 1 1 5BDA15A3
P 7950 4450
F 0 "#PWR09" H 7950 4300 50  0001 C CNN
F 1 "+3.3V" H 7950 4590 50  0000 C CNN
F 2 "" H 7950 4450 50  0001 C CNN
F 3 "" H 7950 4450 50  0001 C CNN
	1    7950 4450
	1    0    0    -1  
$EndComp
Wire Wire Line
	7950 4450 7950 4500
Wire Wire Line
	7950 4800 7950 4900
Connection ~ 7950 4900
$Comp
L power:+3.3V #PWR010
U 1 1 5BDA1863
P 4800 4300
F 0 "#PWR010" H 4800 4150 50  0001 C CNN
F 1 "+3.3V" H 4800 4440 50  0000 C CNN
F 2 "" H 4800 4300 50  0001 C CNN
F 3 "" H 4800 4300 50  0001 C CNN
	1    4800 4300
	1    0    0    -1  
$EndComp
Wire Wire Line
	5200 4700 5300 4700
Wire Wire Line
	5300 4700 5300 4650
Wire Wire Line
	5300 4650 5400 4650
Wire Wire Line
	4800 4700 4800 4650
Wire Wire Line
	4800 4350 4800 4300
$Comp
L power:GND #PWR011
U 1 1 5BDA19E2
P 5900 5400
F 0 "#PWR011" H 5900 5150 50  0001 C CNN
F 1 "GND" H 5900 5250 50  0000 C CNN
F 2 "" H 5900 5400 50  0001 C CNN
F 3 "" H 5900 5400 50  0001 C CNN
	1    5900 5400
	1    0    0    -1  
$EndComp
Wire Wire Line
	5900 5300 5900 5400
$Comp
L power:GND #PWR012
U 1 1 5BDA1AA8
P 8750 5050
F 0 "#PWR012" H 8750 4800 50  0001 C CNN
F 1 "GND" H 8750 4900 50  0000 C CNN
F 2 "" H 8750 5050 50  0001 C CNN
F 3 "" H 8750 5050 50  0001 C CNN
	1    8750 5050
	1    0    0    -1  
$EndComp
Wire Wire Line
	8650 5000 8750 5000
Wire Wire Line
	8750 5000 8750 5050
$Comp
L power:GND #PWR013
U 1 1 5BDA1B55
P 7500 3650
F 0 "#PWR013" H 7500 3400 50  0001 C CNN
F 1 "GND" H 7500 3500 50  0000 C CNN
F 2 "" H 7500 3650 50  0001 C CNN
F 3 "" H 7500 3650 50  0001 C CNN
	1    7500 3650
	1    0    0    -1  
$EndComp
Wire Wire Line
	7500 3500 7500 3600
Connection ~ 7500 3600
NoConn ~ 6000 5300
Wire Wire Line
	4600 3950 4600 4150
Wire Wire Line
	4600 3750 5400 3750
Wire Wire Line
	4600 4700 4600 4900
Wire Wire Line
	7950 4900 8000 4900
Wire Wire Line
	7500 3600 7500 3650
$EndSCHEMATC
