EESchema Schematic File Version 4
LIBS:umidade-cache
EELAYER 30 0
EELAYER END
$Descr A4 11693 8268
encoding utf-8
Sheet 2 2
Title ""
Date ""
Rev ""
Comp ""
Comment1 ""
Comment2 ""
Comment3 ""
Comment4 ""
$EndDescr
$Comp
L Connector:Conn_01x02_Female J?
U 1 1 5D11149B
P 1600 1400
AR Path="/5D11149B" Ref="J?"  Part="1" 
AR Path="/5D111456/5D11149B" Ref="J?"  Part="1" 
AR Path="/5D88F93D/5D11149B" Ref="J8"  Part="1" 
F 0 "J8" H 1494 1075 50  0000 C CNN
F 1 "Power IN" H 1494 1166 50  0000 C CNN
F 2 "TerminalBlock_Phoenix:TerminalBlock_Phoenix_PT-3.5mm_2pol" H 1600 1400 50  0001 C CNN
F 3 "~" H 1600 1400 50  0001 C CNN
	1    1600 1400
	-1   0    0    1   
$EndComp
$Comp
L power:GND #PWR0111
U 1 1 5D1114EE
P 2100 1500
F 0 "#PWR0111" H 2100 1250 50  0001 C CNN
F 1 "GND" H 2105 1327 50  0000 C CNN
F 2 "" H 2100 1500 50  0001 C CNN
F 3 "" H 2100 1500 50  0001 C CNN
	1    2100 1500
	1    0    0    -1  
$EndComp
$Comp
L power:PWR_FLAG #FLG0101
U 1 1 5D11154A
P 2400 1500
F 0 "#FLG0101" H 2400 1575 50  0001 C CNN
F 1 "PWR_FLAG" H 2400 1673 50  0000 C CNN
F 2 "" H 2400 1500 50  0001 C CNN
F 3 "~" H 2400 1500 50  0001 C CNN
	1    2400 1500
	-1   0    0    1   
$EndComp
Wire Wire Line
	1800 1400 2100 1400
Wire Wire Line
	2400 1400 2400 1500
Wire Wire Line
	2100 1500 2100 1400
Connection ~ 2100 1400
Wire Wire Line
	2100 1400 2400 1400
$Comp
L Regulator_Linear:AP1117-15 U2
U 1 1 5D1116CB
P 8800 2450
F 0 "U2" H 8800 2692 50  0000 C CNN
F 1 "LDL1117" H 8800 2601 50  0000 C CNN
F 2 "TO_SOT_Packages_SMD:SOT-223-3_TabPin2" H 8800 2650 50  0001 C CNN
F 3 "http://www.diodes.com/datasheets/AP1117.pdf" H 8900 2200 50  0001 C CNN
	1    8800 2450
	1    0    0    -1  
$EndComp
Wire Wire Line
	8500 2450 8150 2450
$Comp
L Device:C C8
U 1 1 5D111855
P 8150 2700
F 0 "C8" H 8265 2746 50  0000 L CNN
F 1 "1uF" H 8265 2655 50  0000 L CNN
F 2 "Capacitors_SMD:C_0402" H 8188 2550 50  0001 C CNN
F 3 "~" H 8150 2700 50  0001 C CNN
	1    8150 2700
	1    0    0    -1  
$EndComp
$Comp
L Device:C C9
U 1 1 5D11188F
P 9400 2700
F 0 "C9" H 9515 2746 50  0000 L CNN
F 1 "4.7uF" H 9515 2655 50  0000 L CNN
F 2 "Capacitors_SMD:C_0402" H 9438 2550 50  0001 C CNN
F 3 "~" H 9400 2700 50  0001 C CNN
	1    9400 2700
	1    0    0    -1  
$EndComp
Wire Wire Line
	8150 2550 8150 2450
Wire Wire Line
	9100 2450 9400 2450
$Comp
L power:GND #PWR0112
U 1 1 5D111D2E
P 8150 2950
F 0 "#PWR0112" H 8150 2700 50  0001 C CNN
F 1 "GND" H 8155 2777 50  0000 C CNN
F 2 "" H 8150 2950 50  0001 C CNN
F 3 "" H 8150 2950 50  0001 C CNN
	1    8150 2950
	1    0    0    -1  
$EndComp
$Comp
L power:GND #PWR0113
U 1 1 5D111D65
P 9400 2950
F 0 "#PWR0113" H 9400 2700 50  0001 C CNN
F 1 "GND" H 9405 2777 50  0000 C CNN
F 2 "" H 9400 2950 50  0001 C CNN
F 3 "" H 9400 2950 50  0001 C CNN
	1    9400 2950
	1    0    0    -1  
$EndComp
Wire Wire Line
	8150 2950 8150 2850
$Comp
L power:GND #PWR0114
U 1 1 5D112225
P 8800 2800
F 0 "#PWR0114" H 8800 2550 50  0001 C CNN
F 1 "GND" H 8805 2627 50  0000 C CNN
F 2 "" H 8800 2800 50  0001 C CNN
F 3 "" H 8800 2800 50  0001 C CNN
	1    8800 2800
	1    0    0    -1  
$EndComp
Wire Wire Line
	8800 2800 8800 2750
$Comp
L power:+5V #PWR0115
U 1 1 5D1127F0
P 9800 2400
F 0 "#PWR0115" H 9800 2250 50  0001 C CNN
F 1 "+5V" H 9815 2573 50  0000 C CNN
F 2 "" H 9800 2400 50  0001 C CNN
F 3 "" H 9800 2400 50  0001 C CNN
	1    9800 2400
	1    0    0    -1  
$EndComp
Wire Wire Line
	9800 2400 9800 2450
Wire Wire Line
	9800 2450 9400 2450
Connection ~ 9400 2450
Wire Wire Line
	9400 2450 9400 2550
Wire Wire Line
	9400 2850 9400 2950
$Comp
L LTC4162-L:LTC4162-L U1
U 1 1 5D37CC79
P 3650 4050
F 0 "U1" H 3700 4300 50  0000 C CNN
F 1 "LTC4162-L" H 3700 4200 50  0000 C CNN
F 2 "lora_station:LTC4162-L" H 4750 3650 50  0001 C CNN
F 3 "" H 4750 3650 50  0001 C CNN
	1    3650 4050
	1    0    0    -1  
$EndComp
Text GLabel 2750 3750 0    50   Input ~ 0
SCL
Text GLabel 2750 3850 0    50   Input ~ 0
SDA
Text GLabel 2750 3550 0    50   Input ~ 0
INT_BM
$Comp
L power:+5V #PWR0116
U 1 1 5D37E6E7
P 2200 3600
F 0 "#PWR0116" H 2200 3450 50  0001 C CNN
F 1 "+5V" H 2215 3773 50  0000 C CNN
F 2 "" H 2200 3600 50  0001 C CNN
F 3 "" H 2200 3600 50  0001 C CNN
	1    2200 3600
	1    0    0    -1  
$EndComp
Wire Wire Line
	2750 3650 2200 3650
Wire Wire Line
	2200 3650 2200 3600
Wire Wire Line
	2300 4000 2600 4000
Wire Wire Line
	2600 4000 2600 4050
Wire Wire Line
	2600 4050 2750 4050
Wire Wire Line
	2750 4150 2600 4150
Wire Wire Line
	2600 4150 2600 4200
Wire Wire Line
	2750 4250 2600 4250
Wire Wire Line
	2600 4250 2600 4400
$Comp
L power:GND #PWR0117
U 1 1 5D3822EF
P 1700 4050
F 0 "#PWR0117" H 1700 3800 50  0001 C CNN
F 1 "GND" H 1705 3877 50  0000 C CNN
F 2 "" H 1700 4050 50  0001 C CNN
F 3 "" H 1700 4050 50  0001 C CNN
	1    1700 4050
	1    0    0    -1  
$EndComp
$Comp
L power:GND #PWR0118
U 1 1 5D382371
P 2800 5600
F 0 "#PWR0118" H 2800 5350 50  0001 C CNN
F 1 "GND" H 2805 5427 50  0000 C CNN
F 2 "" H 2800 5600 50  0001 C CNN
F 3 "" H 2800 5600 50  0001 C CNN
	1    2800 5600
	1    0    0    -1  
$EndComp
$Comp
L power:GND #PWR0119
U 1 1 5D3823C3
P 3250 5600
F 0 "#PWR0119" H 3250 5350 50  0001 C CNN
F 1 "GND" H 3255 5427 50  0000 C CNN
F 2 "" H 3250 5600 50  0001 C CNN
F 3 "" H 3250 5600 50  0001 C CNN
	1    3250 5600
	1    0    0    -1  
$EndComp
$Comp
L power:GND #PWR0120
U 1 1 5D382425
P 3550 5600
F 0 "#PWR0120" H 3550 5350 50  0001 C CNN
F 1 "GND" H 3555 5427 50  0000 C CNN
F 2 "" H 3550 5600 50  0001 C CNN
F 3 "" H 3550 5600 50  0001 C CNN
	1    3550 5600
	1    0    0    -1  
$EndComp
$Comp
L power:GND #PWR0121
U 1 1 5D382477
P 4050 5600
F 0 "#PWR0121" H 4050 5350 50  0001 C CNN
F 1 "GND" H 4055 5427 50  0000 C CNN
F 2 "" H 4050 5600 50  0001 C CNN
F 3 "" H 4050 5600 50  0001 C CNN
	1    4050 5600
	1    0    0    -1  
$EndComp
Wire Wire Line
	3850 5100 3850 5450
Wire Wire Line
	3850 5450 3950 5450
Wire Wire Line
	4050 5450 4050 5600
Wire Wire Line
	4250 5100 4250 5450
Wire Wire Line
	4250 5450 4050 5450
Connection ~ 4050 5450
Wire Wire Line
	3950 5100 3950 5450
Connection ~ 3950 5450
Wire Wire Line
	3950 5450 4050 5450
Wire Wire Line
	2000 4000 1700 4000
Wire Wire Line
	1700 4000 1700 4050
Text GLabel 2650 5150 0    50   Input ~ 0
INTVCC
Text GLabel 3100 5250 3    50   Input ~ 0
VCC2P5
Wire Wire Line
	3050 5100 3050 5150
Wire Wire Line
	3050 5150 2800 5150
Wire Wire Line
	3100 5250 3100 5150
Wire Wire Line
	3100 5150 3250 5150
Wire Wire Line
	3300 5150 3300 5100
Connection ~ 3250 5150
Wire Wire Line
	3250 5150 3300 5150
Wire Wire Line
	2650 5150 2800 5150
Connection ~ 2800 5150
Wire Wire Line
	1850 4200 1850 4550
Wire Wire Line
	1850 4550 1700 4550
Wire Wire Line
	1700 4650 1850 4650
Wire Wire Line
	1850 4650 1850 4550
Connection ~ 1850 4550
Wire Wire Line
	1700 4750 1850 4750
Wire Wire Line
	1850 4750 1850 4650
Connection ~ 1850 4650
$Comp
L power:GND #PWR0122
U 1 1 5D39937A
P 1250 4800
F 0 "#PWR0122" H 1250 4550 50  0001 C CNN
F 1 "GND" H 1255 4627 50  0000 C CNN
F 2 "" H 1250 4800 50  0001 C CNN
F 3 "" H 1250 4800 50  0001 C CNN
	1    1250 4800
	1    0    0    -1  
$EndComp
Wire Wire Line
	1950 5300 1700 5300
Wire Wire Line
	1700 5200 1950 5200
Connection ~ 1950 5200
Wire Wire Line
	1950 5200 1950 5300
Wire Wire Line
	1700 5100 1950 5100
Wire Wire Line
	1950 4400 1950 5100
Connection ~ 1950 5100
Wire Wire Line
	1950 5100 1950 5200
$Comp
L power:GND #PWR0123
U 1 1 5D39E9F7
P 1250 5400
F 0 "#PWR0123" H 1250 5150 50  0001 C CNN
F 1 "GND" H 1255 5227 50  0000 C CNN
F 2 "" H 1250 5400 50  0001 C CNN
F 3 "" H 1250 5400 50  0001 C CNN
	1    1250 5400
	1    0    0    -1  
$EndComp
Wire Wire Line
	1400 5300 1250 5300
Wire Wire Line
	1400 4750 1250 4750
Wire Wire Line
	1250 4750 1250 4800
Wire Wire Line
	1250 5400 1250 5300
Text GLabel 1400 4550 0    50   Input ~ 0
INTVCC
Text GLabel 1400 4650 0    50   Input ~ 0
VCC2P5
Text GLabel 1400 5100 0    50   Input ~ 0
INTVCC
Text GLabel 1400 5200 0    50   Input ~ 0
VCC2P5
Text GLabel 2250 1300 2    50   Input ~ 0
POWER_IN
$Comp
L power:PWR_FLAG #FLG0102
U 1 1 5D3AB12D
P 2100 1200
F 0 "#FLG0102" H 2100 1275 50  0001 C CNN
F 1 "PWR_FLAG" H 2100 1374 50  0000 C CNN
F 2 "" H 2100 1200 50  0001 C CNN
F 3 "~" H 2100 1200 50  0001 C CNN
	1    2100 1200
	1    0    0    -1  
$EndComp
Wire Wire Line
	1800 1300 2100 1300
Wire Wire Line
	2100 1200 2100 1300
Connection ~ 2100 1300
Wire Wire Line
	2100 1300 2250 1300
Text GLabel 7950 2450 0    50   Input ~ 0
POWER_OUT
Wire Wire Line
	7950 2450 8150 2450
Connection ~ 8150 2450
Wire Wire Line
	1850 4200 2600 4200
Wire Wire Line
	1950 4400 2600 4400
$Comp
L Device:R R18
U 1 1 5D3A59CC
P 4300 1350
F 0 "R18" V 4093 1350 50  0000 C CNN
F 1 "NF" V 4184 1350 50  0000 C CNN
F 2 "Resistors_SMD:R_0805" V 4230 1350 50  0001 C CNN
F 3 "~" H 4300 1350 50  0001 C CNN
	1    4300 1350
	0    1    1    0   
$EndComp
Text GLabel 4050 1350 0    50   Input ~ 0
POWER_IN
Text GLabel 4550 1350 2    50   Input ~ 0
POWER_OUT
Wire Wire Line
	4050 1350 4150 1350
Wire Wire Line
	4450 1350 4550 1350
Wire Notes Line
	3500 950  3500 1600
Wire Notes Line
	3500 1600 5200 1600
Wire Notes Line
	5200 1600 5200 950 
Wire Notes Line
	5200 950  3500 950 
Text Notes 3600 1050 0    50   ~ 0
Solder if not using the battery manager
$Comp
L pspice:INDUCTOR L1
U 1 1 5D3ABEC1
P 5150 3950
F 0 "L1" H 5150 4050 50  0000 C CNN
F 1 "XAL5030-472MEC" H 5100 3900 50  0000 C CNN
F 2 "lora_station:XAL50xx" H 5150 3950 50  0001 C CNN
F 3 "~" H 5150 3950 50  0001 C CNN
	1    5150 3950
	1    0    0    -1  
$EndComp
$Comp
L Device:Q_NMOS_SGD Q1
U 1 1 5D3AC18E
P 3250 2600
F 0 "Q1" V 3593 2600 50  0000 C CNN
F 1 "FDMC8327L" V 3502 2600 50  0000 C CNN
F 2 "lora_station:FDMC8327L" H 3450 2700 50  0001 C CNN
F 3 "~" H 3250 2600 50  0001 C CNN
	1    3250 2600
	0    1    -1   0   
$EndComp
$Comp
L Device:Q_NMOS_SGD Q2
U 1 1 5D3AC63F
P 5400 3550
F 0 "Q2" H 5605 3596 50  0000 L CNN
F 1 "2N7002" H 5605 3505 50  0000 L CNN
F 2 "lora_station:2N7002" H 5600 3650 50  0001 C CNN
F 3 "~" H 5400 3550 50  0001 C CNN
	1    5400 3550
	1    0    0    -1  
$EndComp
$Comp
L Device:C_Small C7
U 1 1 5D3AC8AE
P 5900 2700
F 0 "C7" H 5992 2746 50  0000 L CNN
F 1 "10u" H 5992 2655 50  0000 L CNN
F 2 "Capacitors_SMD:C_0805" H 5900 2700 50  0001 C CNN
F 3 "~" H 5900 2700 50  0001 C CNN
	1    5900 2700
	1    0    0    -1  
$EndComp
$Comp
L Device:C_Small C5
U 1 1 5D3ACA42
P 4700 3750
F 0 "C5" H 4792 3796 50  0000 L CNN
F 1 "22n" H 4792 3705 50  0000 L CNN
F 2 "Capacitors_SMD:C_0402" H 4700 3750 50  0001 C CNN
F 3 "~" H 4700 3750 50  0001 C CNN
	1    4700 3750
	1    0    0    -1  
$EndComp
$Comp
L Device:C_Small C6
U 1 1 5D3ACB92
P 5500 4600
F 0 "C6" H 5592 4646 50  0000 L CNN
F 1 "10u" H 5592 4555 50  0000 L CNN
F 2 "Capacitors_SMD:C_0402" H 5500 4600 50  0001 C CNN
F 3 "~" H 5500 4600 50  0001 C CNN
	1    5500 4600
	1    0    0    -1  
$EndComp
$Comp
L Device:C_Small C3
U 1 1 5D3ACC4F
P 2800 5350
F 0 "C3" H 2892 5396 50  0000 L CNN
F 1 "4.7uF" H 2892 5305 50  0000 L CNN
F 2 "Capacitors_SMD:C_0402" H 2800 5350 50  0001 C CNN
F 3 "~" H 2800 5350 50  0001 C CNN
	1    2800 5350
	1    0    0    -1  
$EndComp
$Comp
L Device:C_Small C4
U 1 1 5D3ACCF0
P 3250 5350
F 0 "C4" H 3342 5396 50  0000 L CNN
F 1 "1uF" H 3342 5305 50  0000 L CNN
F 2 "Capacitors_SMD:C_0402" H 3250 5350 50  0001 C CNN
F 3 "~" H 3250 5350 50  0001 C CNN
	1    3250 5350
	1    0    0    -1  
$EndComp
$Comp
L Device:C_Small C2
U 1 1 5D3ACE27
P 2600 2650
F 0 "C2" H 2692 2696 50  0000 L CNN
F 1 "0.1u" H 2692 2605 50  0000 L CNN
F 2 "Capacitors_SMD:C_0402" H 2600 2650 50  0001 C CNN
F 3 "~" H 2600 2650 50  0001 C CNN
	1    2600 2650
	1    0    0    -1  
$EndComp
Wire Wire Line
	2800 5150 2800 5250
Wire Wire Line
	2800 5450 2800 5600
Wire Wire Line
	3250 5450 3250 5600
Wire Wire Line
	3250 5150 3250 5250
$Comp
L Device:R_Small R14
U 1 1 5D3B57BC
P 1800 2650
F 0 "R14" H 1859 2696 50  0000 L CNN
F 1 "2.5" H 1859 2605 50  0000 L CNN
F 2 "Resistors_SMD:R_0402" H 1800 2650 50  0001 C CNN
F 3 "~" H 1800 2650 50  0001 C CNN
	1    1800 2650
	1    0    0    -1  
$EndComp
$Comp
L Device:R_Small R17
U 1 1 5D3B5894
P 3650 2500
F 0 "R17" V 3454 2500 50  0000 C CNN
F 1 "16m" V 3545 2500 50  0000 C CNN
F 2 "Resistors_SMD:R_0805" H 3650 2500 50  0001 C CNN
F 3 "~" H 3650 2500 50  0001 C CNN
	1    3650 2500
	0    1    1    0   
$EndComp
$Comp
L Device:R_Small R20
U 1 1 5D3B59B0
P 5500 4150
F 0 "R20" H 5559 4196 50  0000 L CNN
F 1 "10m" H 5559 4105 50  0000 L CNN
F 2 "Resistors_SMD:R_0805" H 5500 4150 50  0001 C CNN
F 3 "~" H 5500 4150 50  0001 C CNN
	1    5500 4150
	1    0    0    -1  
$EndComp
$Comp
L Device:R_Small R19
U 1 1 5D3B5A4F
P 4800 4550
F 0 "R19" H 4650 4500 50  0000 C CNN
F 1 "10K 1%" H 4600 4600 50  0000 C CNN
F 2 "Resistors_SMD:R_0402" H 4800 4550 50  0001 C CNN
F 3 "~" H 4800 4550 50  0001 C CNN
	1    4800 4550
	-1   0    0    1   
$EndComp
$Comp
L Device:R_Small R16
U 1 1 5D3B5B4F
P 3550 5350
F 0 "R16" H 3609 5396 50  0000 L CNN
F 1 "63.4K" H 3609 5305 50  0000 L CNN
F 2 "Resistors_SMD:R_0402" H 3550 5350 50  0001 C CNN
F 3 "~" H 3550 5350 50  0001 C CNN
	1    3550 5350
	1    0    0    -1  
$EndComp
$Comp
L Device:R R9
U 1 1 5D38F10A
P 1550 5100
F 0 "R9" V 1550 5050 50  0000 C CNN
F 1 "100K" V 1450 5100 50  0000 C CNN
F 2 "Resistors_SMD:R_0402" V 1480 5100 50  0001 C CNN
F 3 "~" H 1550 5100 50  0001 C CNN
	1    1550 5100
	0    1    1    0   
$EndComp
$Comp
L Device:R R15
U 1 1 5D37F880
P 2150 4000
F 0 "R15" V 2050 3900 50  0000 C CNN
F 1 "10K" V 2050 4100 50  0000 C CNN
F 2 "Resistors_SMD:R_0402" V 2080 4000 50  0001 C CNN
F 3 "~" H 2150 4000 50  0001 C CNN
	1    2150 4000
	0    1    1    0   
$EndComp
Wire Wire Line
	3550 5100 3550 5250
Wire Wire Line
	3550 5450 3550 5600
$Comp
L Device:CP1_Small C1
U 1 1 5D3BA3E3
P 1800 2950
F 0 "C1" H 1891 2996 50  0000 L CNN
F 1 "150u" H 1891 2905 50  0000 L CNN
F 2 "Capacitors_SMD:CP_Elec_6.3x7.7" H 1800 2950 50  0001 C CNN
F 3 "~" H 1800 2950 50  0001 C CNN
	1    1800 2950
	1    0    0    -1  
$EndComp
$Comp
L power:GND #PWR0124
U 1 1 5D3BA48C
P 1800 3100
F 0 "#PWR0124" H 1800 2850 50  0001 C CNN
F 1 "GND" H 1805 2927 50  0000 C CNN
F 2 "" H 1800 3100 50  0001 C CNN
F 3 "" H 1800 3100 50  0001 C CNN
	1    1800 3100
	1    0    0    -1  
$EndComp
Wire Wire Line
	1800 3100 1800 3050
Wire Wire Line
	1800 2850 1800 2750
Text GLabel 1650 2500 0    50   Input ~ 0
POWER_IN
Wire Wire Line
	1650 2500 1800 2500
Wire Wire Line
	2600 2550 2600 2500
Connection ~ 2600 2500
Wire Wire Line
	2600 2500 2950 2500
Wire Wire Line
	1800 2550 1800 2500
Connection ~ 1800 2500
Wire Wire Line
	1800 2500 2600 2500
Wire Wire Line
	3450 2500 3500 2500
Wire Wire Line
	3250 2800 3250 2950
Wire Wire Line
	3050 2950 3050 2700
Wire Wire Line
	3050 2700 2950 2700
Wire Wire Line
	2950 2700 2950 2500
Connection ~ 2950 2500
Wire Wire Line
	2950 2500 3050 2500
Wire Wire Line
	3450 2950 3450 2700
Wire Wire Line
	3450 2700 3500 2700
Wire Wire Line
	3500 2700 3500 2500
Connection ~ 3500 2500
Wire Wire Line
	3500 2500 3550 2500
$Comp
L power:GND #PWR0125
U 1 1 5D3D0817
P 2600 2800
F 0 "#PWR0125" H 2600 2550 50  0001 C CNN
F 1 "GND" H 2605 2627 50  0000 C CNN
F 2 "" H 2600 2800 50  0001 C CNN
F 3 "" H 2600 2800 50  0001 C CNN
	1    2600 2800
	1    0    0    -1  
$EndComp
Wire Wire Line
	2600 2750 2600 2800
Wire Wire Line
	3750 2500 3800 2500
Wire Wire Line
	5500 2500 5500 3350
Wire Wire Line
	5900 2600 5900 2500
Wire Wire Line
	5900 2500 5500 2500
Connection ~ 5500 2500
$Comp
L power:GND #PWR0126
U 1 1 5D3D97AB
P 5900 2900
F 0 "#PWR0126" H 5900 2650 50  0001 C CNN
F 1 "GND" H 5905 2727 50  0000 C CNN
F 2 "" H 5900 2900 50  0001 C CNN
F 3 "" H 5900 2900 50  0001 C CNN
	1    5900 2900
	1    0    0    -1  
$EndComp
Wire Wire Line
	5900 2800 5900 2900
Wire Wire Line
	3650 2950 3650 2700
Wire Wire Line
	3650 2700 3800 2700
Wire Wire Line
	3800 2700 3800 2500
Connection ~ 3800 2500
Wire Wire Line
	3800 2500 3900 2500
Wire Wire Line
	3850 2950 3850 2700
Wire Wire Line
	3850 2700 3900 2700
Wire Wire Line
	3900 2700 3900 2500
Connection ~ 3900 2500
Wire Wire Line
	3900 2500 4050 2500
Wire Wire Line
	4050 2950 4050 2500
Connection ~ 4050 2500
Wire Wire Line
	4050 2500 4250 2500
Wire Wire Line
	4250 2950 4250 2500
Connection ~ 4250 2500
Wire Wire Line
	4250 2500 5500 2500
Wire Wire Line
	4550 3550 5200 3550
Wire Wire Line
	4550 3650 4700 3650
Wire Wire Line
	4550 3850 4700 3850
Wire Wire Line
	4550 3950 4700 3950
Wire Wire Line
	4700 3850 4700 3950
Connection ~ 4700 3950
Wire Wire Line
	4700 3950 4900 3950
Wire Wire Line
	5500 3750 5500 3950
Wire Wire Line
	5400 3950 5500 3950
Connection ~ 5500 3950
Wire Wire Line
	5500 3950 5500 4050
Wire Wire Line
	4550 4050 5500 4050
Wire Wire Line
	4550 4250 5500 4250
Wire Wire Line
	4550 4350 5500 4350
Wire Wire Line
	5500 4350 5500 4250
Wire Wire Line
	4550 4450 4800 4450
Wire Wire Line
	4550 4550 4700 4550
Wire Wire Line
	4700 4550 4700 4700
Wire Wire Line
	4700 4700 4800 4700
Wire Wire Line
	4800 4700 4800 4650
Wire Wire Line
	5500 4500 5500 4450
Connection ~ 5500 4350
Connection ~ 5500 4450
Wire Wire Line
	5500 4450 5500 4350
$Comp
L power:GND #PWR0127
U 1 1 5D42E35C
P 5500 4850
F 0 "#PWR0127" H 5500 4600 50  0001 C CNN
F 1 "GND" H 5505 4677 50  0000 C CNN
F 2 "" H 5500 4850 50  0001 C CNN
F 3 "" H 5500 4850 50  0001 C CNN
	1    5500 4850
	1    0    0    -1  
$EndComp
Wire Wire Line
	5500 4700 5500 4850
Text GLabel 6400 4450 2    50   Input ~ 0
POWER_OUT
Text Label 4700 2500 0    50   ~ 0
VOUT
Text Label 5500 3900 0    50   ~ 0
SW
$Comp
L Connector:Conn_01x02_Female J10
U 1 1 5D69F35C
P 6100 5350
F 0 "J10" H 5992 5025 50  0000 C CNN
F 1 "Battery" H 5992 5116 50  0000 C CNN
F 2 "TerminalBlock_Phoenix:TerminalBlock_Phoenix_MPT-2.54mm_2pol" H 6100 5350 50  0001 C CNN
F 3 "~" H 6100 5350 50  0001 C CNN
	1    6100 5350
	1    0    0    1   
$EndComp
Connection ~ 5800 4450
Wire Wire Line
	5800 4450 6400 4450
Wire Wire Line
	5800 4450 5500 4450
Wire Wire Line
	5800 5350 5800 5500
Wire Wire Line
	5900 5350 5800 5350
Wire Wire Line
	5800 4450 5800 5250
Wire Wire Line
	5800 5250 5900 5250
$Comp
L power:GND #PWR0128
U 1 1 5D41F24E
P 5800 5500
F 0 "#PWR0128" H 5800 5250 50  0001 C CNN
F 1 "GND" H 5805 5327 50  0000 C CNN
F 2 "" H 5800 5500 50  0001 C CNN
F 3 "" H 5800 5500 50  0001 C CNN
	1    5800 5500
	1    0    0    -1  
$EndComp
$Comp
L Connector:Conn_01x02_Female J9
U 1 1 5D6AA946
P 5100 5350
F 0 "J9" H 4992 5025 50  0000 C CNN
F 1 "BAT_NTC" H 4992 5116 50  0000 C CNN
F 2 "TerminalBlock_Phoenix:TerminalBlock_Phoenix_MPT-2.54mm_2pol" H 5100 5350 50  0001 C CNN
F 3 "~" H 5100 5350 50  0001 C CNN
	1    5100 5350
	1    0    0    1   
$EndComp
Wire Wire Line
	4900 5250 4800 5250
Wire Wire Line
	4800 5250 4800 4700
Connection ~ 4800 4700
Wire Wire Line
	4800 5350 4800 5500
Wire Wire Line
	4900 5350 4800 5350
$Comp
L power:GND #PWR0129
U 1 1 5D6B0CBA
P 4800 5500
F 0 "#PWR0129" H 4800 5250 50  0001 C CNN
F 1 "GND" H 4805 5327 50  0000 C CNN
F 2 "" H 4800 5500 50  0001 C CNN
F 3 "" H 4800 5500 50  0001 C CNN
	1    4800 5500
	1    0    0    -1  
$EndComp
$Comp
L Device:R R5
U 1 1 5D38EEDE
P 1550 4650
F 0 "R5" V 1550 4600 50  0000 C CNN
F 1 "NF" V 1550 4700 50  0000 C CNN
F 2 "Resistors_SMD:R_0402" V 1480 4650 50  0001 C CNN
F 3 "~" H 1550 4650 50  0001 C CNN
	1    1550 4650
	0    1    1    0   
$EndComp
$Comp
L Device:R R7
U 1 1 5D38F089
P 1550 4750
F 0 "R7" V 1550 4700 50  0000 C CNN
F 1 "NF" V 1550 4800 50  0000 C CNN
F 2 "Resistors_SMD:R_0402" V 1480 4750 50  0001 C CNN
F 3 "~" H 1550 4750 50  0001 C CNN
	1    1550 4750
	0    1    1    0   
$EndComp
$Comp
L Device:R R4
U 1 1 5D38EDC7
P 1550 4550
F 0 "R4" V 1550 4500 50  0000 C CNN
F 1 "100K" V 1450 4550 50  0000 C CNN
F 2 "Resistors_SMD:R_0402" V 1480 4550 50  0001 C CNN
F 3 "~" H 1550 4550 50  0001 C CNN
	1    1550 4550
	0    1    1    0   
$EndComp
$Comp
L Device:R R12
U 1 1 5D38F191
P 1550 5200
F 0 "R12" V 1550 5150 50  0000 C CNN
F 1 "NF" V 1550 5250 50  0000 C CNN
F 2 "Resistors_SMD:R_0402" V 1480 5200 50  0001 C CNN
F 3 "~" H 1550 5200 50  0001 C CNN
	1    1550 5200
	0    1    1    0   
$EndComp
Connection ~ 4700 3850
Connection ~ 5500 4050
Connection ~ 5500 4250
$Comp
L Device:R R13
U 1 1 5D38F224
P 1550 5300
F 0 "R13" V 1550 5250 50  0000 C CNN
F 1 "NF" V 1550 5350 50  0000 C CNN
F 2 "Resistors_SMD:R_0402" V 1480 5300 50  0001 C CNN
F 3 "~" H 1550 5300 50  0001 C CNN
	1    1550 5300
	0    1    1    0   
$EndComp
$Comp
L power:PWR_FLAG #FLG0103
U 1 1 5D8C4812
P 8150 2300
F 0 "#FLG0103" H 8150 2375 50  0001 C CNN
F 1 "PWR_FLAG" H 8150 2473 50  0000 C CNN
F 2 "" H 8150 2300 50  0001 C CNN
F 3 "~" H 8150 2300 50  0001 C CNN
	1    8150 2300
	1    0    0    -1  
$EndComp
Wire Wire Line
	8150 2300 8150 2450
$EndSCHEMATC
