EESchema Schematic File Version 4
LIBS:umidade-cache
EELAYER 30 0
EELAYER END
$Descr A4 11693 8268
encoding utf-8
Sheet 1 2
Title "Circuito para Sensores de Umidade e Temperatura"
Date "2017-11-27"
Rev "0.8"
Comp ""
Comment1 ""
Comment2 ""
Comment3 ""
Comment4 ""
$EndDescr
$Comp
L umidade-rescue:DIODE-RESCUE-umidade D4
U 1 1 5980FAB9
P 9150 3350
F 0 "D4" H 9150 3450 40  0000 C CNN
F 1 "DIODE" H 9150 3250 40  0000 C CNN
F 2 "Diodes_SMD:D_SOD-123" H 9150 3350 60  0001 C CNN
F 3 "" H 9150 3350 60  0000 C CNN
	1    9150 3350
	0    1    1    0   
$EndComp
$Comp
L umidade-rescue:DIODE-RESCUE-umidade D3
U 1 1 5980FB95
P 8700 3350
F 0 "D3" H 8700 3450 40  0000 C CNN
F 1 "DIODE" H 8700 3250 40  0000 C CNN
F 2 "Diodes_SMD:D_SOD-123" H 8700 3350 60  0001 C CNN
F 3 "" H 8700 3350 60  0000 C CNN
	1    8700 3350
	0    1    1    0   
$EndComp
$Comp
L umidade-rescue:R R6
U 1 1 5981082D
P 8500 4100
F 0 "R6" V 8580 4100 50  0000 C CNN
F 1 "1.5K" V 8500 4100 50  0000 C CNN
F 2 "Resistors_SMD:R_0402" V 8430 4100 50  0001 C CNN
F 3 "" H 8500 4100 50  0000 C CNN
	1    8500 4100
	1    0    0    -1  
$EndComp
$Comp
L umidade-rescue:R R8
U 1 1 59810AE1
P 9350 4100
F 0 "R8" V 9430 4100 50  0000 C CNN
F 1 "1.5K" V 9350 4100 50  0000 C CNN
F 2 "Resistors_SMD:R_0402" V 9280 4100 50  0001 C CNN
F 3 "" H 9350 4100 50  0000 C CNN
	1    9350 4100
	1    0    0    -1  
$EndComp
$Comp
L umidade-rescue:DIODE-RESCUE-umidade D5
U 1 1 598113DB
P 9800 3400
F 0 "D5" H 9800 3500 40  0000 C CNN
F 1 "DIODE" H 9800 3300 40  0000 C CNN
F 2 "Diodes_SMD:D_SOD-123" H 9800 3400 60  0001 C CNN
F 3 "" H 9800 3400 60  0000 C CNN
	1    9800 3400
	0    1    1    0   
$EndComp
$Comp
L umidade-rescue:DIODE-RESCUE-umidade D6
U 1 1 5981158E
P 10100 3400
F 0 "D6" H 10100 3500 40  0000 C CNN
F 1 "DIODE" H 10100 3300 40  0000 C CNN
F 2 "Diodes_SMD:D_SOD-123" H 10100 3400 60  0001 C CNN
F 3 "" H 10100 3400 60  0000 C CNN
	1    10100 3400
	0    1    1    0   
$EndComp
$Comp
L umidade-rescue:R R11
U 1 1 59811A74
P 10300 4100
F 0 "R11" V 10380 4100 50  0000 C CNN
F 1 "1.5K" V 10300 4100 50  0000 C CNN
F 2 "Resistors_SMD:R_0402" V 10230 4100 50  0001 C CNN
F 3 "" H 10300 4100 50  0000 C CNN
	1    10300 4100
	1    0    0    -1  
$EndComp
$Comp
L umidade-rescue:R R10
U 1 1 59811BD4
P 9600 4100
F 0 "R10" V 9680 4100 50  0000 C CNN
F 1 "1.5K" V 9600 4100 50  0000 C CNN
F 2 "Resistors_SMD:R_0402" V 9530 4100 50  0001 C CNN
F 3 "" H 9600 4100 50  0000 C CNN
	1    9600 4100
	1    0    0    -1  
$EndComp
Text GLabel 9800 3200 1    60   Input ~ 0
GPIO12
Text GLabel 10100 3200 1    60   Input ~ 0
GPIO13
Text GLabel 9600 3150 1    60   Input ~ 0
ADC1_CH2
Text GLabel 10300 3150 1    60   Input ~ 0
ADC1_CH3
Text GLabel 8500 3150 1    60   Input ~ 0
ADC1_CH0
Text GLabel 9350 3150 1    60   Input ~ 0
ADC1_CH1
Text GLabel 8700 3150 1    60   Input ~ 0
GPIO35
Text GLabel 9150 3150 1    60   Input ~ 0
GPIO32
Text Notes 8700 2550 0    60   ~ 0
Sensores de umidade do solo
Text Notes 6150 1950 0    60   ~ 0
WiFi LoRa 32 V2
Wire Wire Line
	9800 3650 9800 3600
Wire Wire Line
	9600 3650 9800 3650
Wire Wire Line
	10000 3650 10100 3650
Wire Wire Line
	10100 3650 10100 3600
Wire Wire Line
	9900 3650 9900 3850
Connection ~ 9800 3650
Wire Wire Line
	10000 3650 10000 3850
Connection ~ 10100 3650
Connection ~ 9600 3650
Connection ~ 10300 3650
Wire Wire Line
	10300 3150 10300 3650
Wire Wire Line
	9600 3150 9600 3650
Wire Wire Line
	9600 4250 9600 4300
Wire Wire Line
	10300 4300 10300 4250
Wire Wire Line
	8500 4300 8500 4250
Wire Wire Line
	8500 3150 8500 3650
Wire Wire Line
	8500 3650 8700 3650
Wire Wire Line
	8900 3650 8900 3850
Wire Wire Line
	9350 4300 9350 4250
Wire Wire Line
	9350 3150 9350 3650
Wire Wire Line
	9350 3650 9150 3650
Wire Wire Line
	9000 3650 9000 3850
Connection ~ 9350 3650
Connection ~ 8500 3650
Wire Wire Line
	9150 3550 9150 3650
Connection ~ 9150 3650
Wire Wire Line
	8700 3550 8700 3650
Connection ~ 8700 3650
Text GLabel 7350 2450 2    60   Input ~ 0
ADC1_CH0
Text GLabel 7350 2550 2    60   Input ~ 0
ADC1_CH1
Text GLabel 7350 2650 2    60   Input ~ 0
ADC1_CH2
Text GLabel 7350 2750 2    60   Input ~ 0
ADC1_CH3
Text GLabel 7350 2950 2    60   Input ~ 0
GPIO35
Text GLabel 7350 3050 2    60   Input ~ 0
GPIO32
Text GLabel 7350 3650 2    60   Input ~ 0
GPIO12
Text GLabel 7350 3750 2    60   Input ~ 0
GPIO13
Text GLabel 7350 2850 2    60   Input ~ 0
GPIO34
Wire Wire Line
	8900 4100 8800 4100
Wire Wire Line
	8800 4100 8800 3850
Wire Wire Line
	8800 3850 8900 3850
Wire Wire Line
	9000 4100 9100 4100
Wire Wire Line
	9100 4100 9100 3850
Wire Wire Line
	9100 3850 9000 3850
Wire Wire Line
	10000 4100 10100 4100
Wire Wire Line
	10100 4100 10100 3850
Wire Wire Line
	10100 3850 10000 3850
Wire Wire Line
	9900 4100 9800 4100
Wire Wire Line
	9800 4100 9800 3850
Wire Wire Line
	9800 3850 9900 3850
Text GLabel 5600 2650 0    60   Input ~ 0
ESP_TXD
Text GLabel 5600 2550 0    60   Input ~ 0
ESP_RXD
Text GLabel 9400 1350 0    60   Input ~ 0
ESP_RXD
Text GLabel 9400 1650 0    60   Input ~ 0
ESP_TXD
Wire Wire Line
	9800 3650 9900 3650
Wire Wire Line
	10100 3650 10300 3650
Wire Wire Line
	9600 3650 9600 3950
Wire Wire Line
	10300 3650 10300 3950
Wire Wire Line
	9350 3650 9350 3950
Wire Wire Line
	8500 3650 8500 3950
Wire Wire Line
	9150 3650 9000 3650
Wire Wire Line
	8700 3650 8900 3650
$Comp
L Connector:Conn_01x18_Female J1
U 1 1 5D8A521F
P 5800 2950
F 0 "J1" H 5850 2950 50  0000 L CNN
F 1 "Conn_01x18_Female" H 5350 1950 50  0000 L CNN
F 2 "Pin_Headers:Pin_Header_Straight_1x18_Pitch2.54mm" H 5800 2950 50  0001 C CNN
F 3 "~" H 5800 2950 50  0001 C CNN
	1    5800 2950
	1    0    0    -1  
$EndComp
$Comp
L Connector:Conn_01x18_Female J2
U 1 1 5D8A7B6C
P 7150 2950
F 0 "J2" H 7250 2950 50  0000 C CNN
F 1 "Conn_01x18_Female" H 7050 1950 50  0000 C CNN
F 2 "Pin_Headers:Pin_Header_Straight_1x18_Pitch2.54mm" H 7150 2950 50  0001 C CNN
F 3 "~" H 7150 2950 50  0001 C CNN
	1    7150 2950
	-1   0    0    -1  
$EndComp
$Comp
L power:+5V #PWR0101
U 1 1 5D8ABC13
P 5250 2200
F 0 "#PWR0101" H 5250 2050 50  0001 C CNN
F 1 "+5V" H 5100 2250 50  0000 C CNN
F 2 "" H 5250 2200 50  0001 C CNN
F 3 "" H 5250 2200 50  0001 C CNN
	1    5250 2200
	1    0    0    -1  
$EndComp
Wire Wire Line
	5250 2250 5250 2200
Wire Wire Line
	5250 2250 5600 2250
$Comp
L power:GND #PWR0102
U 1 1 5D8AE819
P 4950 2150
F 0 "#PWR0102" H 4950 1900 50  0001 C CNN
F 1 "GND" H 4955 1977 50  0000 C CNN
F 2 "" H 4950 2150 50  0001 C CNN
F 3 "" H 4950 2150 50  0001 C CNN
	1    4950 2150
	1    0    0    -1  
$EndComp
Wire Wire Line
	5600 2150 5350 2150
Wire Wire Line
	5350 2150 5350 2050
Wire Wire Line
	5350 2050 4950 2050
Wire Wire Line
	4950 2050 4950 2150
$Comp
L power:GND #PWR0103
U 1 1 5D8B02F8
P 7650 2200
F 0 "#PWR0103" H 7650 1950 50  0001 C CNN
F 1 "GND" H 7800 2150 50  0000 C CNN
F 2 "" H 7650 2200 50  0001 C CNN
F 3 "" H 7650 2200 50  0001 C CNN
	1    7650 2200
	1    0    0    -1  
$EndComp
Wire Wire Line
	7350 2150 7650 2150
Wire Wire Line
	7650 2150 7650 2200
NoConn ~ 5600 2350
NoConn ~ 5600 2450
NoConn ~ 5600 2750
NoConn ~ 5600 2850
NoConn ~ 5600 2950
NoConn ~ 5600 3250
NoConn ~ 5600 3550
NoConn ~ 5600 3850
NoConn ~ 7350 2250
NoConn ~ 7350 2350
NoConn ~ 7350 3150
NoConn ~ 7350 3250
NoConn ~ 7350 3350
NoConn ~ 7350 3550
NoConn ~ 7350 3850
$Comp
L power:GND #PWR0104
U 1 1 5D8D1064
P 9100 1850
F 0 "#PWR0104" H 9100 1600 50  0001 C CNN
F 1 "GND" H 9105 1677 50  0000 C CNN
F 2 "" H 9100 1850 50  0001 C CNN
F 3 "" H 9100 1850 50  0001 C CNN
	1    9100 1850
	1    0    0    -1  
$EndComp
$Comp
L power:+5V #PWR0105
U 1 1 5D8D166E
P 9100 1100
F 0 "#PWR0105" H 9100 950 50  0001 C CNN
F 1 "+5V" H 9115 1273 50  0000 C CNN
F 2 "" H 9100 1100 50  0001 C CNN
F 3 "" H 9100 1100 50  0001 C CNN
	1    9100 1100
	1    0    0    -1  
$EndComp
Wire Wire Line
	9400 1250 9100 1250
Wire Wire Line
	9100 1250 9100 1100
Wire Wire Line
	9400 1750 9100 1750
Wire Wire Line
	9100 1750 9100 1850
Wire Wire Line
	8500 4300 8950 4300
Wire Wire Line
	9600 4300 9950 4300
$Comp
L power:GND #PWR0106
U 1 1 5D8D7C41
P 8950 4400
F 0 "#PWR0106" H 8950 4150 50  0001 C CNN
F 1 "GND" H 8955 4227 50  0000 C CNN
F 2 "" H 8950 4400 50  0001 C CNN
F 3 "" H 8950 4400 50  0001 C CNN
	1    8950 4400
	1    0    0    -1  
$EndComp
$Comp
L power:GND #PWR0107
U 1 1 5D8D8195
P 9950 4400
F 0 "#PWR0107" H 9950 4150 50  0001 C CNN
F 1 "GND" H 9955 4227 50  0000 C CNN
F 2 "" H 9950 4400 50  0001 C CNN
F 3 "" H 9950 4400 50  0001 C CNN
	1    9950 4400
	1    0    0    -1  
$EndComp
Wire Wire Line
	9950 4400 9950 4300
Connection ~ 9950 4300
Wire Wire Line
	9950 4300 10300 4300
Wire Wire Line
	8950 4400 8950 4300
Connection ~ 8950 4300
Wire Wire Line
	8950 4300 9350 4300
Wire Notes Line
	4850 1750 4850 4050
Wire Notes Line
	4850 4050 7950 4050
Wire Notes Line
	7950 4050 7950 1750
Wire Notes Line
	7950 1750 4850 1750
Text Notes 9000 850  0    50   ~ 0
Tela touchscreen
$Comp
L Connector:Conn_01x02_Female J3
U 1 1 5D8DDD7E
P 7450 1100
F 0 "J3" H 7478 1076 50  0000 L CNN
F 1 "Conn_01x02_Female" H 7478 985 50  0000 L CNN
F 2 "Connectors_JST:JST_PH_S2B-PH-K_02x2.00mm_Angled" H 7450 1100 50  0001 C CNN
F 3 "~" H 7450 1100 50  0001 C CNN
	1    7450 1100
	1    0    0    -1  
$EndComp
$Comp
L Connector:Conn_01x02_Female J5
U 1 1 5D8DEA75
P 9600 1250
F 0 "J5" H 9628 1226 50  0000 L CNN
F 1 "Conn_01x02_Female" H 9628 1135 50  0000 L CNN
F 2 "TerminalBlock_Phoenix:TerminalBlock_Phoenix_MPT-2.54mm_2pol" H 9600 1250 50  0001 C CNN
F 3 "~" H 9600 1250 50  0001 C CNN
	1    9600 1250
	1    0    0    -1  
$EndComp
$Comp
L Connector:Conn_01x02_Female J6
U 1 1 5D8DF42B
P 9600 1650
F 0 "J6" H 9628 1626 50  0000 L CNN
F 1 "Conn_01x02_Female" H 9628 1535 50  0000 L CNN
F 2 "TerminalBlock_Phoenix:TerminalBlock_Phoenix_MPT-2.54mm_2pol" H 9600 1650 50  0001 C CNN
F 3 "~" H 9600 1650 50  0001 C CNN
	1    9600 1650
	1    0    0    -1  
$EndComp
$Comp
L Connector:Conn_01x02_Female J4
U 1 1 5D8DFA5E
P 8900 3900
F 0 "J4" V 8838 3712 50  0000 R CNN
F 1 "Sensor1" V 8650 4000 50  0000 R CNN
F 2 "TerminalBlock_Phoenix:TerminalBlock_Phoenix_MPT-2.54mm_2pol" H 8900 3900 50  0001 C CNN
F 3 "~" H 8900 3900 50  0001 C CNN
	1    8900 3900
	0    -1   -1   0   
$EndComp
$Comp
L Connector:Conn_01x02_Female J7
U 1 1 5D8E0602
P 9900 3900
F 0 "J7" V 9838 3712 50  0000 R CNN
F 1 "Sensor2" V 9650 4000 50  0000 R CNN
F 2 "TerminalBlock_Phoenix:TerminalBlock_Phoenix_MPT-2.54mm_2pol" H 9900 3900 50  0001 C CNN
F 3 "~" H 9900 3900 50  0001 C CNN
	1    9900 3900
	0    -1   -1   0   
$EndComp
$Comp
L power:+5V #PWR0108
U 1 1 5D8E1658
P 7050 1050
F 0 "#PWR0108" H 7050 900 50  0001 C CNN
F 1 "+5V" H 7065 1223 50  0000 C CNN
F 2 "" H 7050 1050 50  0001 C CNN
F 3 "" H 7050 1050 50  0001 C CNN
	1    7050 1050
	1    0    0    -1  
$EndComp
$Comp
L power:GND #PWR0109
U 1 1 5D8E1EE5
P 7050 1450
F 0 "#PWR0109" H 7050 1200 50  0001 C CNN
F 1 "GND" H 7055 1277 50  0000 C CNN
F 2 "" H 7050 1450 50  0001 C CNN
F 3 "" H 7050 1450 50  0001 C CNN
	1    7050 1450
	1    0    0    -1  
$EndComp
$Comp
L Device:R_Small R3
U 1 1 5D8E2A23
P 7050 1300
F 0 "R3" H 6991 1254 50  0000 R CNN
F 1 "4.7K" H 6991 1345 50  0000 R CNN
F 2 "Resistors_SMD:R_0402" H 7050 1300 50  0001 C CNN
F 3 "~" H 7050 1300 50  0001 C CNN
	1    7050 1300
	-1   0    0    1   
$EndComp
Wire Wire Line
	7250 1100 7050 1100
Wire Wire Line
	7050 1100 7050 1050
Wire Wire Line
	7250 1200 7050 1200
Wire Wire Line
	7050 1450 7050 1400
Text GLabel 6950 1200 0    50   Input ~ 0
GPIO34
Wire Wire Line
	6950 1200 7050 1200
Connection ~ 7050 1200
$Sheet
S 1450 1750 2000 2200
U 5D88F93D
F0 "Power" 50
F1 "file5D88F93C.sch" 50
$EndSheet
Text GLabel 5600 3650 0    50   Input ~ 0
SDA
Text GLabel 5600 3450 0    50   Input ~ 0
SCL
Text GLabel 5600 3750 0    50   Input ~ 0
INT_BM
Text GLabel 4800 1100 0    50   Input ~ 0
SDA
Text GLabel 4800 1400 0    50   Input ~ 0
SCL
$Comp
L Device:R_Small R1
U 1 1 5D8BA6C0
P 5000 1100
F 0 "R1" V 5196 1100 50  0000 C CNN
F 1 "10K" V 5105 1100 50  0000 C CNN
F 2 "Resistors_SMD:R_0402" H 5000 1100 50  0001 C CNN
F 3 "~" H 5000 1100 50  0001 C CNN
	1    5000 1100
	0    -1   -1   0   
$EndComp
$Comp
L Device:R_Small R2
U 1 1 5D8BADBC
P 5000 1400
F 0 "R2" V 4804 1400 50  0000 C CNN
F 1 "10K" V 4895 1400 50  0000 C CNN
F 2 "Resistors_SMD:R_0402" H 5000 1400 50  0001 C CNN
F 3 "~" H 5000 1400 50  0001 C CNN
	1    5000 1400
	0    1    1    0   
$EndComp
$Comp
L power:+5V #PWR0110
U 1 1 5D8BCBB5
P 5400 1000
F 0 "#PWR0110" H 5400 850 50  0001 C CNN
F 1 "+5V" H 5415 1173 50  0000 C CNN
F 2 "" H 5400 1000 50  0001 C CNN
F 3 "" H 5400 1000 50  0001 C CNN
	1    5400 1000
	1    0    0    -1  
$EndComp
Wire Wire Line
	4800 1100 4900 1100
Wire Wire Line
	4800 1400 4900 1400
Wire Wire Line
	5100 1400 5400 1400
Wire Wire Line
	5400 1400 5400 1100
Wire Wire Line
	5100 1100 5400 1100
Connection ~ 5400 1100
Wire Wire Line
	5400 1100 5400 1000
$Comp
L Connector:Conn_01x08_Female J11
U 1 1 5D8BD889
P 5600 4850
F 0 "J11" H 5492 4225 50  0000 C CNN
F 1 "Conn_01x08_Female" H 5492 4316 50  0000 C CNN
F 2 "Pin_Headers:Pin_Header_Straight_1x08_Pitch2.54mm" H 5600 4850 50  0001 C CNN
F 3 "~" H 5600 4850 50  0001 C CNN
	1    5600 4850
	-1   0    0    1   
$EndComp
$Comp
L power:+5V #PWR0130
U 1 1 5D8BFC60
P 6200 4350
F 0 "#PWR0130" H 6200 4200 50  0001 C CNN
F 1 "+5V" H 6215 4523 50  0000 C CNN
F 2 "" H 6200 4350 50  0001 C CNN
F 3 "" H 6200 4350 50  0001 C CNN
	1    6200 4350
	1    0    0    -1  
$EndComp
$Comp
L power:GND #PWR0131
U 1 1 5D8C0516
P 6200 4650
F 0 "#PWR0131" H 6200 4400 50  0001 C CNN
F 1 "GND" H 6205 4477 50  0000 C CNN
F 2 "" H 6200 4650 50  0001 C CNN
F 3 "" H 6200 4650 50  0001 C CNN
	1    6200 4650
	1    0    0    -1  
$EndComp
Wire Wire Line
	5800 4450 6200 4450
Wire Wire Line
	6200 4450 6200 4350
Wire Wire Line
	5800 4550 6200 4550
Wire Wire Line
	6200 4550 6200 4650
Text GLabel 5800 4650 2    50   Input ~ 0
SDA
Text GLabel 5800 4750 2    50   Input ~ 0
SCL
Text GLabel 5800 4850 2    50   Input ~ 0
SCK
Text GLabel 5800 4950 2    50   Input ~ 0
MISO
Text GLabel 5800 5050 2    50   Input ~ 0
MOSI
Text GLabel 5800 5150 2    50   Input ~ 0
CS_SD
Text GLabel 5600 3350 0    50   Input ~ 0
SCK
Text GLabel 7350 3450 2    50   Input ~ 0
MOSI
Text GLabel 5600 3050 0    50   Input ~ 0
MISO
Text GLabel 5600 3150 0    50   Input ~ 0
CS_SD
$EndSCHEMATC
