G04 #@! TF.FileFunction,Soldermask,Top*
%FSLAX46Y46*%
G04 Gerber Fmt 4.6, Leading zero omitted, Abs format (unit mm)*
G04 Created by KiCad (PCBNEW 4.0.7-e2-6376~58~ubuntu16.04.1) date Fri Aug 24 11:55:05 2018*
%MOMM*%
%LPD*%
G01*
G04 APERTURE LIST*
%ADD10C,0.100000*%
%ADD11O,2.398980X2.398980*%
%ADD12R,2.398980X2.398980*%
%ADD13C,1.500000*%
%ADD14R,3.400000X2.000000*%
%ADD15C,2.800000*%
%ADD16R,2.800000X2.800000*%
%ADD17R,2.400000X4.200000*%
%ADD18R,2.400000X1.900000*%
%ADD19R,1.600000X1.300000*%
%ADD20R,1.600000X1.600000*%
%ADD21R,1.300000X1.600000*%
%ADD22R,1.700000X1.100000*%
%ADD23R,1.100000X1.700000*%
%ADD24R,2.100000X2.100000*%
%ADD25O,2.100000X2.100000*%
%ADD26C,4.400000*%
G04 APERTURE END LIST*
D10*
D11*
X170750000Y-121500000D03*
D12*
X165670000Y-121500000D03*
D11*
X168210000Y-121500000D03*
D13*
X165670000Y-124040000D03*
X168210000Y-124040000D03*
X170750000Y-124040000D03*
D14*
X152950000Y-74750000D03*
X148550000Y-74750000D03*
X152950000Y-110750000D03*
X148550000Y-110750000D03*
X152950000Y-89250000D03*
X148550000Y-89250000D03*
D15*
X152250000Y-120250000D03*
D16*
X148750000Y-120250000D03*
D17*
X153650000Y-82000000D03*
D18*
X147350000Y-82000000D03*
X147350000Y-84300000D03*
X147350000Y-79700000D03*
D19*
X179250000Y-113600000D03*
X179250000Y-116900000D03*
D11*
X181750000Y-121500000D03*
D12*
X179210000Y-121500000D03*
D13*
X179210000Y-124040000D03*
X181750000Y-124040000D03*
D17*
X153650000Y-103750000D03*
D18*
X147350000Y-103750000D03*
X147350000Y-106050000D03*
X147350000Y-101450000D03*
D11*
X194250000Y-121500000D03*
D12*
X191710000Y-121500000D03*
D13*
X191710000Y-124040000D03*
X194250000Y-124040000D03*
D11*
X135000000Y-85460000D03*
D12*
X135000000Y-88000000D03*
D13*
X132460000Y-88000000D03*
X132460000Y-85460000D03*
D20*
X212750000Y-94350000D03*
X212750000Y-92150000D03*
D14*
X152950000Y-96500000D03*
X148550000Y-96500000D03*
D11*
X135000000Y-78960000D03*
D12*
X135000000Y-81500000D03*
D13*
X132460000Y-81500000D03*
X132460000Y-78960000D03*
D19*
X181750000Y-113600000D03*
X181750000Y-116900000D03*
D21*
X188450000Y-115750000D03*
X191750000Y-115750000D03*
X197550000Y-115750000D03*
X194250000Y-115750000D03*
D22*
X212750000Y-98050000D03*
X212750000Y-99950000D03*
D23*
X168800000Y-115500000D03*
X170700000Y-115500000D03*
D24*
X164000000Y-110220000D03*
D25*
X164000000Y-107680000D03*
X164000000Y-105140000D03*
X164000000Y-102600000D03*
X164000000Y-100060000D03*
X164000000Y-97520000D03*
X164000000Y-94980000D03*
X164000000Y-92440000D03*
X164000000Y-89900000D03*
X164000000Y-87360000D03*
X164000000Y-84820000D03*
X164000000Y-82280000D03*
X164000000Y-79740000D03*
X164000000Y-77200000D03*
X164000000Y-74660000D03*
X164000000Y-72120000D03*
X164000000Y-69580000D03*
X164000000Y-67040000D03*
X164000000Y-64500000D03*
D24*
X189400000Y-64500000D03*
D25*
X189400000Y-67040000D03*
X189400000Y-69580000D03*
X189400000Y-72120000D03*
X189400000Y-74660000D03*
X189400000Y-77200000D03*
X189400000Y-79740000D03*
X189400000Y-82280000D03*
X189400000Y-84820000D03*
X189400000Y-87360000D03*
X189400000Y-89900000D03*
X189400000Y-92440000D03*
X189400000Y-94980000D03*
X189400000Y-97520000D03*
X189400000Y-100060000D03*
X189400000Y-102600000D03*
X189400000Y-105140000D03*
X189400000Y-107680000D03*
X189400000Y-110220000D03*
D26*
X139100000Y-70100000D03*
X207100000Y-70100000D03*
X139100000Y-106820000D03*
X207100000Y-106820000D03*
X133500000Y-64250000D03*
X212750000Y-64250000D03*
X133500000Y-122750000D03*
X212750000Y-122750000D03*
M02*
