(module XAL50xx (layer F.Cu) (tedit 5D3F43B9)
  (fp_text reference REF** (at 0 3.58) (layer F.SilkS)
    (effects (font (size 1 1) (thickness 0.15)))
  )
  (fp_text value XAL50xx (at -0.02 -4.3) (layer F.Fab)
    (effects (font (size 1 1) (thickness 0.15)))
  )
  (fp_line (start -2.65 -2.75) (end 2.65 -2.75) (layer F.SilkS) (width 0.15))
  (fp_line (start 2.65 2.75) (end 2.65 -2.75) (layer F.SilkS) (width 0.15))
  (fp_line (start -2.65 -2.75) (end -2.65 2.75) (layer F.SilkS) (width 0.15))
  (fp_line (start -2.65 2.75) (end 2.65 2.75) (layer F.SilkS) (width 0.15))
  (pad 1 smd rect (at -1.655 0) (size 1.18 4.7) (layers F.Cu F.Paste F.Mask))
  (pad 2 smd rect (at 1.655 0) (size 1.18 4.7) (layers F.Cu F.Paste F.Mask))
)
