EESchema Schematic File Version 2
LIBS:umidade-rescue
LIBS:power
LIBS:device
LIBS:transistors
LIBS:conn
LIBS:linear
LIBS:regul
LIBS:74xx
LIBS:cmos4000
LIBS:adc-dac
LIBS:memory
LIBS:xilinx
LIBS:microcontrollers
LIBS:dsp
LIBS:microchip
LIBS:analog_switches
LIBS:motorola
LIBS:texas
LIBS:intel
LIBS:audio
LIBS:interface
LIBS:digital-audio
LIBS:philips
LIBS:display
LIBS:cypress
LIBS:siliconi
LIBS:opto
LIBS:atmel
LIBS:contrib
LIBS:valves
LIBS:74xgxx
LIBS:ac-dc
LIBS:actel
LIBS:Altera
LIBS:analog_devices
LIBS:brooktre
LIBS:cmos_ieee
LIBS:dc-dc
LIBS:diode
LIBS:elec-unifil
LIBS:ESD_Protection
LIBS:ftdi
LIBS:gennum
LIBS:hc11
LIBS:ir
LIBS:Lattice
LIBS:maxim
LIBS:microchip_dspic33dsc
LIBS:microchip_pic10mcu
LIBS:microchip_pic12mcu
LIBS:microchip_pic16mcu
LIBS:microchip_pic18mcu
LIBS:microchip_pic32mcu
LIBS:motor_drivers
LIBS:msp430
LIBS:nordicsemi
LIBS:nxp_armmcu
LIBS:onsemi
LIBS:Oscillators
LIBS:powerint
LIBS:Power_Management
LIBS:pspice
LIBS:references
LIBS:relays
LIBS:rfcom
LIBS:sensors
LIBS:silabs
LIBS:stm8
LIBS:stm32
LIBS:supertex
LIBS:switches
LIBS:transf
LIBS:ttl_ieee
LIBS:video
LIBS:Worldsemi
LIBS:Xicor
LIBS:Zilog
LIBS:umidade-cache
EELAYER 25 0
EELAYER END
$Descr A4 11693 8268
encoding utf-8
Sheet 1 1
Title "Circuito para Sensores de Umidade e Temperatura"
Date "2017-11-27"
Rev "0.8"
Comp ""
Comment1 ""
Comment2 ""
Comment3 ""
Comment4 ""
$EndDescr
$Comp
L C_POL C2
U 1 1 5980E901
P 3200 2900
F 0 "C2" H 3150 3050 60  0000 C CNN
F 1 "22μF" H 3200 2750 60  0000 C CNN
F 2 "Capacitors_SMD:CP_Elec_5x5.3" H 3200 2900 60  0001 C CNN
F 3 "" H 3200 2900 60  0001 C CNN
	1    3200 2900
	1    0    0    -1  
$EndComp
$Comp
L C_POL C1
U 1 1 5980EC90
P 1100 3100
F 0 "C1" H 1050 3250 60  0000 C CNN
F 1 "22μF" H 1100 2950 60  0000 C CNN
F 2 "Capacitors_SMD:CP_Elec_5x5.3" H 1100 3100 60  0001 C CNN
F 3 "" H 1100 3100 60  0001 C CNN
	1    1100 3100
	0    1    1    0   
$EndComp
$Comp
L LED-RESCUE-umidade D1
U 1 1 5980EE40
P 5150 4100
F 0 "D1" H 5150 4200 50  0000 C CNN
F 1 "LED" H 5150 4000 50  0000 C CNN
F 2 "LEDs:LED_0805" H 5150 4100 50  0001 C CNN
F 3 "" H 5150 4100 50  0000 C CNN
	1    5150 4100
	1    0    0    -1  
$EndComp
$Comp
L R R2
U 1 1 5980EF3F
P 5450 3950
F 0 "R2" V 5530 3950 50  0000 C CNN
F 1 "330" V 5450 3950 50  0000 C CNN
F 2 "Resistors_SMD:R_0805" V 5380 3950 50  0001 C CNN
F 3 "" H 5450 3950 50  0000 C CNN
	1    5450 3950
	-1   0    0    1   
$EndComp
$Comp
L DIODE-RESCUE-umidade D4
U 1 1 5980FAB9
P 9150 3350
F 0 "D4" H 9150 3450 40  0000 C CNN
F 1 "DIODE" H 9150 3250 40  0000 C CNN
F 2 "Diodes_SMD:D_SOD-123" H 9150 3350 60  0001 C CNN
F 3 "" H 9150 3350 60  0000 C CNN
	1    9150 3350
	0    1    1    0   
$EndComp
$Comp
L DIODE-RESCUE-umidade D3
U 1 1 5980FB95
P 8700 3350
F 0 "D3" H 8700 3450 40  0000 C CNN
F 1 "DIODE" H 8700 3250 40  0000 C CNN
F 2 "Diodes_SMD:D_SOD-123" H 8700 3350 60  0001 C CNN
F 3 "" H 8700 3350 60  0000 C CNN
	1    8700 3350
	0    1    1    0   
$EndComp
$Comp
L HEADER_2 J2
U 1 1 5981054D
P 8950 4000
F 0 "J2" H 8950 4150 60  0000 C CNN
F 1 "SENSOR1" H 8950 3850 60  0000 C CNN
F 2 "TerminalBlock_Phoenix:TerminalBlock_Phoenix_MPT-2.54mm_2pol" H 8950 4000 60  0001 C CNN
F 3 "" H 8950 4000 60  0000 C CNN
	1    8950 4000
	0    -1   -1   0   
$EndComp
$Comp
L R R6
U 1 1 5981082D
P 8500 4100
F 0 "R6" V 8580 4100 50  0000 C CNN
F 1 "1.5K" V 8500 4100 50  0000 C CNN
F 2 "Resistors_SMD:R_0805" V 8430 4100 50  0001 C CNN
F 3 "" H 8500 4100 50  0000 C CNN
	1    8500 4100
	1    0    0    -1  
$EndComp
$Comp
L R R8
U 1 1 59810AE1
P 9350 4100
F 0 "R8" V 9430 4100 50  0000 C CNN
F 1 "1.5K" V 9350 4100 50  0000 C CNN
F 2 "Resistors_SMD:R_0805" V 9280 4100 50  0001 C CNN
F 3 "" H 9350 4100 50  0000 C CNN
	1    9350 4100
	1    0    0    -1  
$EndComp
$Comp
L DIODE-RESCUE-umidade D5
U 1 1 598113DB
P 9800 3400
F 0 "D5" H 9800 3500 40  0000 C CNN
F 1 "DIODE" H 9800 3300 40  0000 C CNN
F 2 "Diodes_SMD:D_SOD-123" H 9800 3400 60  0001 C CNN
F 3 "" H 9800 3400 60  0000 C CNN
	1    9800 3400
	0    1    1    0   
$EndComp
$Comp
L DIODE-RESCUE-umidade D6
U 1 1 5981158E
P 10100 3400
F 0 "D6" H 10100 3500 40  0000 C CNN
F 1 "DIODE" H 10100 3300 40  0000 C CNN
F 2 "Diodes_SMD:D_SOD-123" H 10100 3400 60  0001 C CNN
F 3 "" H 10100 3400 60  0000 C CNN
	1    10100 3400
	0    1    1    0   
$EndComp
$Comp
L HEADER_2 J3
U 1 1 5981181A
P 9950 4000
F 0 "J3" H 9950 4150 60  0000 C CNN
F 1 "SENSOR2" H 9950 3850 60  0000 C CNN
F 2 "TerminalBlock_Phoenix:TerminalBlock_Phoenix_MPT-2.54mm_2pol" H 9950 4000 60  0001 C CNN
F 3 "" H 9950 4000 60  0000 C CNN
	1    9950 4000
	0    -1   -1   0   
$EndComp
$Comp
L R R11
U 1 1 59811A74
P 10300 4100
F 0 "R11" V 10380 4100 50  0000 C CNN
F 1 "1.5K" V 10300 4100 50  0000 C CNN
F 2 "Resistors_SMD:R_0805" V 10230 4100 50  0001 C CNN
F 3 "" H 10300 4100 50  0000 C CNN
	1    10300 4100
	1    0    0    -1  
$EndComp
$Comp
L R R10
U 1 1 59811BD4
P 9600 4100
F 0 "R10" V 9680 4100 50  0000 C CNN
F 1 "1.5K" V 9600 4100 50  0000 C CNN
F 2 "Resistors_SMD:R_0805" V 9530 4100 50  0001 C CNN
F 3 "" H 9600 4100 50  0000 C CNN
	1    9600 4100
	1    0    0    -1  
$EndComp
$Comp
L HEADER_3 J4
U 1 1 5981200B
P 9800 2100
F 0 "J4" H 9800 2300 60  0000 C CNN
F 1 "TEMP" H 9800 1900 60  0000 C CNN
F 2 "TerminalBlock_Phoenix:TerminalBlock_Phoenix_MPT-2.54mm_3pol" H 9800 2100 60  0001 C CNN
F 3 "" H 9800 2100 60  0000 C CNN
	1    9800 2100
	1    0    0    -1  
$EndComp
$Comp
L R R9
U 1 1 59812691
P 9100 2100
F 0 "R9" V 9180 2100 50  0000 C CNN
F 1 "4.7K" V 9100 2100 50  0000 C CNN
F 2 "Resistors_SMD:R_0805" V 9030 2100 50  0001 C CNN
F 3 "" H 9100 2100 50  0000 C CNN
	1    9100 2100
	0    1    1    0   
$EndComp
$Comp
L AMS1117 U1
U 1 1 5983786D
P 2200 2900
F 0 "U1" H 2200 2800 50  0000 C CNN
F 1 "AMS1117" H 2200 3000 50  0000 C CNN
F 2 "TO_SOT_Packages_SMD:SOT-223" H 2200 2900 60  0001 C CNN
F 3 "" H 2200 2900 60  0000 C CNN
	1    2200 2900
	-1   0    0    1   
$EndComp
$Comp
L AMS1117 U3
U 1 1 598CBB53
P 3900 1000
F 0 "U3" H 3900 900 50  0000 C CNN
F 1 "AMS1117" H 3900 1100 50  0000 C CNN
F 2 "TO_SOT_Packages_SMD:SOT-223" H 3900 1000 60  0001 C CNN
F 3 "" H 3900 1000 60  0000 C CNN
	1    3900 1000
	1    0    0    -1  
$EndComp
$Comp
L C_POL C5
U 1 1 598CBE28
P 2900 1000
F 0 "C5" H 2850 1150 60  0000 C CNN
F 1 "22μF" H 2900 850 60  0000 C CNN
F 2 "Capacitors_SMD:CP_Elec_5x5.3" H 2900 1000 60  0001 C CNN
F 3 "" H 2900 1000 60  0001 C CNN
	1    2900 1000
	-1   0    0    1   
$EndComp
$Comp
L C_POL C6
U 1 1 598CC314
P 4950 1200
F 0 "C6" H 4900 1350 60  0000 C CNN
F 1 "22μF" H 4950 1050 60  0000 C CNN
F 2 "Capacitors_SMD:CP_Elec_5x5.3" H 4950 1200 60  0001 C CNN
F 3 "" H 4950 1200 60  0001 C CNN
	1    4950 1200
	0    1    1    0   
$EndComp
Text GLabel 9800 3200 1    60   Input ~ 0
GPIO25
Text GLabel 10100 3200 1    60   Input ~ 0
GPIO26
Text GLabel 9600 3150 1    60   Input ~ 0
ADC1_CH6
Text GLabel 10300 3150 1    60   Input ~ 0
ADC1_CH7
Text GLabel 8500 3150 1    60   Input ~ 0
ADC1_CH0
Text GLabel 9350 3150 1    60   Input ~ 0
ADC1_CH3
Text GLabel 8700 3150 1    60   Input ~ 0
GPIO32
Text GLabel 9150 3150 1    60   Input ~ 0
GPIO33
Text GLabel 9300 1800 1    60   Input ~ 0
GPIO19
Text Notes 9550 2600 0    60   ~ 0
Sensores de umidade
Text Notes 500  650  0    60   ~ 0
Potência e Reguladores de Tensão
Text Notes 9450 1700 0    60   ~ 0
Sensor de Temperatura
Text Notes 6200 2100 0    60   ~ 0
Módulo ESP
$Comp
L +5V #PWR01
U 1 1 5A1C38C7
P 4950 1000
F 0 "#PWR01" H 4950 850 50  0001 C CNN
F 1 "+5V" H 4950 1140 50  0000 C CNN
F 2 "" H 4950 1000 50  0000 C CNN
F 3 "" H 4950 1000 50  0000 C CNN
	1    4950 1000
	1    0    0    -1  
$EndComp
$Comp
L +3.3V #PWR02
U 1 1 5A1C3CDE
P 4100 2300
F 0 "#PWR02" H 4100 2150 50  0001 C CNN
F 1 "+3.3V" H 4100 2440 50  0000 C CNN
F 2 "" H 4100 2300 50  0000 C CNN
F 3 "" H 4100 2300 50  0000 C CNN
	1    4100 2300
	0    -1   -1   0   
$EndComp
$Comp
L +3.3V #PWR03
U 1 1 5A1C44A4
P 1100 2900
F 0 "#PWR03" H 1100 2750 50  0001 C CNN
F 1 "+3.3V" H 1100 3040 50  0000 C CNN
F 2 "" H 1100 2900 50  0000 C CNN
F 3 "" H 1100 2900 50  0000 C CNN
	1    1100 2900
	1    0    0    -1  
$EndComp
$Comp
L +5V #PWR04
U 1 1 5A1C4ACE
P 8900 2200
F 0 "#PWR04" H 8900 2050 50  0001 C CNN
F 1 "+5V" H 8900 2340 50  0000 C CNN
F 2 "" H 8900 2200 50  0000 C CNN
F 3 "" H 8900 2200 50  0000 C CNN
	1    8900 2200
	0    -1   -1   0   
$EndComp
$Comp
L Earth #PWR05
U 1 1 5A1C4ED2
P 1100 3200
F 0 "#PWR05" H 1100 2950 50  0001 C CNN
F 1 "Earth" H 1100 3050 50  0001 C CNN
F 2 "" H 1100 3200 50  0000 C CNN
F 3 "" H 1100 3200 50  0000 C CNN
	1    1100 3200
	1    0    0    -1  
$EndComp
$Comp
L Earth #PWR06
U 1 1 5A1C50DA
P 3300 2900
F 0 "#PWR06" H 3300 2650 50  0001 C CNN
F 1 "Earth" H 3300 2750 50  0001 C CNN
F 2 "" H 3300 2900 50  0000 C CNN
F 3 "" H 3300 2900 50  0000 C CNN
	1    3300 2900
	0    -1   -1   0   
$EndComp
$Comp
L Earth #PWR07
U 1 1 5A1C51DD
P 2800 1000
F 0 "#PWR07" H 2800 750 50  0001 C CNN
F 1 "Earth" H 2800 850 50  0001 C CNN
F 2 "" H 2800 1000 50  0000 C CNN
F 3 "" H 2800 1000 50  0000 C CNN
	1    2800 1000
	0    1    1    0   
$EndComp
$Comp
L Earth #PWR08
U 1 1 5A1C54ED
P 3900 1500
F 0 "#PWR08" H 3900 1250 50  0001 C CNN
F 1 "Earth" H 3900 1350 50  0001 C CNN
F 2 "" H 3900 1500 50  0000 C CNN
F 3 "" H 3900 1500 50  0000 C CNN
	1    3900 1500
	1    0    0    -1  
$EndComp
$Comp
L Earth #PWR09
U 1 1 5A1C55C7
P 4950 1450
F 0 "#PWR09" H 4950 1200 50  0001 C CNN
F 1 "Earth" H 4950 1300 50  0001 C CNN
F 2 "" H 4950 1450 50  0000 C CNN
F 3 "" H 4950 1450 50  0000 C CNN
	1    4950 1450
	1    0    0    -1  
$EndComp
$Comp
L Earth #PWR010
U 1 1 5A1C6369
P 9950 4300
F 0 "#PWR010" H 9950 4050 50  0001 C CNN
F 1 "Earth" H 9950 4150 50  0001 C CNN
F 2 "" H 9950 4300 50  0000 C CNN
F 3 "" H 9950 4300 50  0000 C CNN
	1    9950 4300
	1    0    0    -1  
$EndComp
$Comp
L Earth #PWR011
U 1 1 5A1C663B
P 8950 4300
F 0 "#PWR011" H 8950 4050 50  0001 C CNN
F 1 "Earth" H 8950 4150 50  0001 C CNN
F 2 "" H 8950 4300 50  0000 C CNN
F 3 "" H 8950 4300 50  0000 C CNN
	1    8950 4300
	1    0    0    -1  
$EndComp
$Comp
L Earth #PWR012
U 1 1 5A1C6715
P 9700 2000
F 0 "#PWR012" H 9700 1750 50  0001 C CNN
F 1 "Earth" H 9700 1850 50  0001 C CNN
F 2 "" H 9700 2000 50  0000 C CNN
F 3 "" H 9700 2000 50  0000 C CNN
	1    9700 2000
	0    1    1    0   
$EndComp
$Comp
L Earth #PWR013
U 1 1 5A1C6FDB
P 4950 4200
F 0 "#PWR013" H 4950 3950 50  0001 C CNN
F 1 "Earth" H 4950 4050 50  0001 C CNN
F 2 "" H 4950 4200 50  0000 C CNN
F 3 "" H 4950 4200 50  0000 C CNN
	1    4950 4200
	1    0    0    -1  
$EndComp
$Comp
L Earth #PWR014
U 1 1 5A1C832A
P 2200 2400
F 0 "#PWR014" H 2200 2150 50  0001 C CNN
F 1 "Earth" H 2200 2250 50  0001 C CNN
F 2 "" H 2200 2400 50  0000 C CNN
F 3 "" H 2200 2400 50  0000 C CNN
	1    2200 2400
	-1   0    0    1   
$EndComp
Text Notes 500  1050 0    60   ~ 0
Circuito alimentado através de um jack 2p\nRegulador de 5v para os sensores e ATMEGA\nRegulador de 3.3v para o ESP8266
Text Notes 7650 4600 0    60   ~ 0
Os sensores serão conectados no circuito através dos headers
$Comp
L PWR_FLAG #FLG015
U 1 1 5A1CF655
P 750 2900
F 0 "#FLG015" H 750 2995 50  0001 C CNN
F 1 "PWR_FLAG" H 750 3080 50  0000 C CNN
F 2 "" H 750 2900 50  0000 C CNN
F 3 "" H 750 2900 50  0000 C CNN
	1    750  2900
	1    0    0    -1  
$EndComp
$Comp
L PWR_FLAG #FLG016
U 1 1 5A1CF98B
P 5150 950
F 0 "#FLG016" H 5150 1045 50  0001 C CNN
F 1 "PWR_FLAG" H 5150 1130 50  0000 C CNN
F 2 "" H 5150 950 50  0000 C CNN
F 3 "" H 5150 950 50  0000 C CNN
	1    5150 950 
	1    0    0    -1  
$EndComp
$Comp
L PWR_FLAG #FLG017
U 1 1 5A1D0FB3
P 5150 1350
F 0 "#FLG017" H 5150 1445 50  0001 C CNN
F 1 "PWR_FLAG" H 5150 1530 50  0000 C CNN
F 2 "" H 5150 1350 50  0000 C CNN
F 3 "" H 5150 1350 50  0000 C CNN
	1    5150 1350
	0    1    1    0   
$EndComp
$Comp
L Earth #PWR018
U 1 1 5AD58405
P 7600 2250
F 0 "#PWR018" H 7600 2000 50  0001 C CNN
F 1 "Earth" H 7600 2100 50  0001 C CNN
F 2 "" H 7600 2250 50  0000 C CNN
F 3 "" H 7600 2250 50  0000 C CNN
	1    7600 2250
	1    0    0    -1  
$EndComp
Wire Wire Line
	1750 1700 3050 1700
Wire Wire Line
	9800 3650 9800 3600
Wire Wire Line
	9600 3650 9900 3650
Wire Wire Line
	10000 3650 10300 3650
Wire Wire Line
	10100 3650 10100 3600
Wire Wire Line
	9900 3650 9900 3850
Connection ~ 9800 3650
Wire Wire Line
	10000 3650 10000 3850
Connection ~ 10100 3650
Connection ~ 9600 3650
Connection ~ 10300 3650
Wire Wire Line
	8900 2200 9700 2200
Wire Wire Line
	10300 3150 10300 3950
Wire Wire Line
	750  2900 1400 2900
Connection ~ 3050 1700
Wire Wire Line
	9600 3150 9600 3950
Wire Wire Line
	9600 4250 9600 4300
Wire Wire Line
	9600 4300 10300 4300
Wire Wire Line
	10300 4300 10300 4250
Wire Wire Line
	8500 4300 9350 4300
Wire Wire Line
	9250 2100 9700 2100
Wire Wire Line
	8900 2200 8900 2100
Wire Wire Line
	8900 2100 8950 2100
Connection ~ 1100 2900
Wire Wire Line
	4950 1100 4950 1000
Connection ~ 4950 1000
Wire Wire Line
	3050 1000 3050 2900
Wire Wire Line
	3000 2900 3100 2900
Connection ~ 3050 1000
Connection ~ 3050 2900
Wire Wire Line
	3000 1000 3100 1000
Wire Wire Line
	9300 1800 9300 2100
Connection ~ 9300 2100
Connection ~ 9950 4300
Connection ~ 8950 4300
Wire Wire Line
	1100 3000 1100 2900
Wire Wire Line
	4700 1000 5150 1000
Wire Wire Line
	5150 1000 5150 950 
Wire Wire Line
	4950 1300 4950 1450
Connection ~ 4950 1350
Wire Wire Line
	4950 1350 5150 1350
Wire Wire Line
	7400 2250 7600 2250
Wire Wire Line
	8500 4300 8500 4250
Wire Wire Line
	8500 3150 8500 3950
Wire Wire Line
	8500 3650 8900 3650
Wire Wire Line
	8900 3650 8900 3850
Wire Wire Line
	9350 4300 9350 4250
Wire Wire Line
	9350 3150 9350 3950
Wire Wire Line
	9350 3650 9000 3650
Wire Wire Line
	9000 3650 9000 3850
Connection ~ 9350 3650
Connection ~ 8500 3650
Wire Wire Line
	9150 3550 9150 3650
Connection ~ 9150 3650
Wire Wire Line
	8700 3550 8700 3650
Connection ~ 8700 3650
$Comp
L CONN_01X02 P1
U 1 1 5AD5A503
P 1550 1750
F 0 "P1" H 1550 1900 50  0000 C CNN
F 1 "PWR" V 1650 1750 50  0000 C CNN
F 2 "TerminalBlock_Phoenix:TerminalBlock_Phoenix_PT-3.5mm_2pol" H 1550 1750 50  0001 C CNN
F 3 "" H 1550 1750 50  0000 C CNN
	1    1550 1750
	-1   0    0    1   
$EndComp
$Comp
L Earth #PWR019
U 1 1 5AD5A640
P 1750 1800
F 0 "#PWR019" H 1750 1550 50  0001 C CNN
F 1 "Earth" H 1750 1650 50  0001 C CNN
F 2 "" H 1750 1800 50  0000 C CNN
F 3 "" H 1750 1800 50  0000 C CNN
	1    1750 1800
	1    0    0    -1  
$EndComp
$Comp
L Earth #PWR020
U 1 1 5AD5CCC4
P 8300 1500
F 0 "#PWR020" H 8300 1250 50  0001 C CNN
F 1 "Earth" H 8300 1350 50  0001 C CNN
F 2 "" H 8300 1500 50  0000 C CNN
F 3 "" H 8300 1500 50  0000 C CNN
	1    8300 1500
	1    0    0    -1  
$EndComp
Text GLabel 5550 2500 0    60   Input ~ 0
ADC1_CH0
Text GLabel 5550 2600 0    60   Input ~ 0
ADC1_CH3
Text GLabel 5550 2700 0    60   Input ~ 0
ADC1_CH6
Text GLabel 5550 2800 0    60   Input ~ 0
ADC1_CH7
Text GLabel 5550 2900 0    60   Input ~ 0
GPIO32
Text GLabel 5550 3000 0    60   Input ~ 0
GPIO33
Text GLabel 5550 3100 0    60   Input ~ 0
GPIO25
Text GLabel 5550 3200 0    60   Input ~ 0
GPIO26
Text GLabel 7400 2950 2    60   Input ~ 0
GPIO19
NoConn ~ 7400 2350
NoConn ~ 7400 3050
NoConn ~ 7400 3250
NoConn ~ 7400 3350
NoConn ~ 7400 3450
Wire Wire Line
	8900 4100 8800 4100
Wire Wire Line
	8800 4100 8800 3850
Wire Wire Line
	8800 3850 8900 3850
Wire Wire Line
	9000 4100 9100 4100
Wire Wire Line
	9100 4100 9100 3850
Wire Wire Line
	9100 3850 9000 3850
Wire Wire Line
	10000 4100 10100 4100
Wire Wire Line
	10100 4100 10100 3850
Wire Wire Line
	10100 3850 10000 3850
Wire Wire Line
	9900 4100 9800 4100
Wire Wire Line
	9800 4100 9800 3850
Wire Wire Line
	9800 3850 9900 3850
NoConn ~ 5550 3300
NoConn ~ 5550 3400
$Comp
L Conn_01x19 J1
U 1 1 5B61BB6F
P 5750 3200
F 0 "J1" H 5750 4200 50  0000 C CNN
F 1 "Conn_01x19" H 5750 2200 50  0000 C CNN
F 2 "Pin_Headers:Pin_Header_Straight_1x19_Pitch2.54mm" H 5750 3200 50  0001 C CNN
F 3 "" H 5750 3200 50  0001 C CNN
	1    5750 3200
	1    0    0    -1  
$EndComp
NoConn ~ 5550 3500
$Comp
L Earth #PWR021
U 1 1 5B61C2E4
P 5350 3650
F 0 "#PWR021" H 5350 3400 50  0001 C CNN
F 1 "Earth" H 5350 3500 50  0001 C CNN
F 2 "" H 5350 3650 50  0001 C CNN
F 3 "" H 5350 3650 50  0001 C CNN
	1    5350 3650
	1    0    0    -1  
$EndComp
Wire Wire Line
	5550 3600 5350 3600
Wire Wire Line
	5350 3600 5350 3650
Wire Wire Line
	5450 3800 5450 3700
Wire Wire Line
	5450 3700 5550 3700
Wire Wire Line
	5450 4100 5350 4100
Wire Wire Line
	4950 4100 4950 4200
NoConn ~ 5550 3800
NoConn ~ 5550 3900
NoConn ~ 5550 4000
NoConn ~ 5550 4100
$Comp
L Earth #PWR022
U 1 1 5B61CFA8
P 7800 2850
F 0 "#PWR022" H 7800 2600 50  0001 C CNN
F 1 "Earth" H 7800 2700 50  0001 C CNN
F 2 "" H 7800 2850 50  0001 C CNN
F 3 "" H 7800 2850 50  0001 C CNN
	1    7800 2850
	0    -1   -1   0   
$EndComp
Wire Wire Line
	7400 2850 7800 2850
NoConn ~ 7400 3150
NoConn ~ 7400 3550
NoConn ~ 7400 3650
NoConn ~ 7400 3750
NoConn ~ 7400 3850
NoConn ~ 7400 3950
NoConn ~ 7400 4050
$Comp
L Conn_01x19 J5
U 1 1 5B61BC48
P 7200 3150
F 0 "J5" H 7200 4150 50  0000 C CNN
F 1 "Conn_01x19" H 7200 2150 50  0000 C CNN
F 2 "Pin_Headers:Pin_Header_Straight_1x19_Pitch2.54mm" H 7200 3150 50  0001 C CNN
F 3 "" H 7200 3150 50  0001 C CNN
	1    7200 3150
	-1   0    0    1   
$EndComp
Wire Wire Line
	4100 2300 5550 2300
NoConn ~ 5550 2400
$Comp
L Conn_01x02 J6
U 1 1 5B7F2264
P 7800 1300
F 0 "J6" H 7800 1400 50  0000 C CNN
F 1 "Conn_01x02" H 7800 1100 50  0000 C CNN
F 2 "TerminalBlock_Phoenix:TerminalBlock_Phoenix_MPT-2.54mm_2pol" H 7800 1300 50  0001 C CNN
F 3 "" H 7800 1300 50  0001 C CNN
	1    7800 1300
	0    -1   -1   0   
$EndComp
$Comp
L Conn_01x02 J7
U 1 1 5B7F22C7
P 8200 1300
F 0 "J7" H 8200 1400 50  0000 C CNN
F 1 "Conn_01x02" H 8200 1100 50  0000 C CNN
F 2 "TerminalBlock_Phoenix:TerminalBlock_Phoenix_MPT-2.54mm_2pol" H 8200 1300 50  0001 C CNN
F 3 "" H 8200 1300 50  0001 C CNN
	1    8200 1300
	0    -1   -1   0   
$EndComp
NoConn ~ 7400 2450
NoConn ~ 7400 2750
$Comp
L +5V #PWR023
U 1 1 5B7F25B4
P 7800 1500
F 0 "#PWR023" H 7800 1350 50  0001 C CNN
F 1 "+5V" H 7800 1640 50  0000 C CNN
F 2 "" H 7800 1500 50  0001 C CNN
F 3 "" H 7800 1500 50  0001 C CNN
	1    7800 1500
	-1   0    0    1   
$EndComp
Text GLabel 7400 2550 2    60   Input ~ 0
ESP_TXD
Text GLabel 7400 2650 2    60   Input ~ 0
ESP_RXD
Text GLabel 7900 1500 3    60   Input ~ 0
ESP_RXD
Text GLabel 8200 1500 3    60   Input ~ 0
ESP_TXD
$Comp
L Conn_01x01 J8
U 1 1 5B7F2EED
P 2100 4000
F 0 "J8" H 2100 4100 50  0000 C CNN
F 1 "Conn_01x01" H 2100 3900 50  0000 C CNN
F 2 "MPPT_Library:padhole" H 2100 4000 50  0001 C CNN
F 3 "" H 2100 4000 50  0001 C CNN
	1    2100 4000
	1    0    0    -1  
$EndComp
$Comp
L Conn_01x01 J9
U 1 1 5B7F2FEE
P 2100 4400
F 0 "J9" H 2100 4500 50  0000 C CNN
F 1 "Conn_01x01" H 2100 4300 50  0000 C CNN
F 2 "MPPT_Library:padhole" H 2100 4400 50  0001 C CNN
F 3 "" H 2100 4400 50  0001 C CNN
	1    2100 4400
	1    0    0    -1  
$EndComp
$Comp
L Conn_01x01 J10
U 1 1 5B7F304F
P 2100 4800
F 0 "J10" H 2100 4900 50  0000 C CNN
F 1 "Conn_01x01" H 2100 4700 50  0000 C CNN
F 2 "MPPT_Library:padhole" H 2100 4800 50  0001 C CNN
F 3 "" H 2100 4800 50  0001 C CNN
	1    2100 4800
	1    0    0    -1  
$EndComp
$Comp
L Conn_01x01 J11
U 1 1 5B7F30A0
P 2100 5200
F 0 "J11" H 2100 5300 50  0000 C CNN
F 1 "Conn_01x01" H 2100 5100 50  0000 C CNN
F 2 "MPPT_Library:padhole" H 2100 5200 50  0001 C CNN
F 3 "" H 2100 5200 50  0001 C CNN
	1    2100 5200
	1    0    0    -1  
$EndComp
NoConn ~ 1900 4000
NoConn ~ 1900 4400
NoConn ~ 1900 4800
NoConn ~ 1900 5200
Text Notes 1700 3800 0    60   ~ 0
Suportes IHM
$Comp
L Conn_01x01 J12
U 1 1 5B7F32AC
P 3000 4000
F 0 "J12" H 3000 4100 50  0000 C CNN
F 1 "Conn_01x01" H 3000 3900 50  0000 C CNN
F 2 "MPPT_Library:padhole" H 3000 4000 50  0001 C CNN
F 3 "" H 3000 4000 50  0001 C CNN
	1    3000 4000
	1    0    0    -1  
$EndComp
$Comp
L Conn_01x01 J13
U 1 1 5B7F330D
P 3000 4400
F 0 "J13" H 3000 4500 50  0000 C CNN
F 1 "Conn_01x01" H 3000 4300 50  0000 C CNN
F 2 "MPPT_Library:padhole" H 3000 4400 50  0001 C CNN
F 3 "" H 3000 4400 50  0001 C CNN
	1    3000 4400
	1    0    0    -1  
$EndComp
$Comp
L Conn_01x01 J14
U 1 1 5B7F3362
P 3000 4800
F 0 "J14" H 3000 4900 50  0000 C CNN
F 1 "Conn_01x01" H 3000 4700 50  0000 C CNN
F 2 "MPPT_Library:padhole" H 3000 4800 50  0001 C CNN
F 3 "" H 3000 4800 50  0001 C CNN
	1    3000 4800
	1    0    0    -1  
$EndComp
$Comp
L Conn_01x01 J15
U 1 1 5B7F33ED
P 3000 5200
F 0 "J15" H 3000 5300 50  0000 C CNN
F 1 "Conn_01x01" H 3000 5100 50  0000 C CNN
F 2 "MPPT_Library:padhole" H 3000 5200 50  0001 C CNN
F 3 "" H 3000 5200 50  0001 C CNN
	1    3000 5200
	1    0    0    -1  
$EndComp
Text Notes 2700 3750 0    60   ~ 0
Suportes PCB
NoConn ~ 2800 4000
NoConn ~ 2800 4400
NoConn ~ 2800 4800
NoConn ~ 2800 5200
$EndSCHEMATC
