G04 #@! TF.FileFunction,Copper,L2,Bot,Signal*
%FSLAX46Y46*%
G04 Gerber Fmt 4.6, Leading zero omitted, Abs format (unit mm)*
G04 Created by KiCad (PCBNEW 4.0.7) date 02/01/19 11:06:06*
%MOMM*%
%LPD*%
G01*
G04 APERTURE LIST*
%ADD10C,0.100000*%
%ADD11C,4.000000*%
%ADD12O,1.998980X1.998980*%
%ADD13R,1.998980X1.998980*%
%ADD14C,2.400000*%
%ADD15R,2.400000X2.400000*%
%ADD16R,1.700000X1.700000*%
%ADD17O,1.700000X1.700000*%
%ADD18C,2.000000*%
%ADD19R,1.397000X1.397000*%
%ADD20C,1.397000*%
%ADD21C,0.685800*%
%ADD22C,0.700000*%
%ADD23C,0.750000*%
%ADD24C,0.600000*%
%ADD25C,0.250000*%
%ADD26C,0.406400*%
%ADD27C,0.500000*%
%ADD28C,0.200000*%
%ADD29C,0.254000*%
G04 APERTURE END LIST*
D10*
D11*
X108500000Y-64200000D03*
X176500000Y-64200000D03*
X111000000Y-100940000D03*
X176500000Y-100940000D03*
D12*
X104000000Y-83250000D03*
D13*
X104000000Y-85790000D03*
D12*
X104000000Y-76250000D03*
D13*
X104000000Y-78790000D03*
D12*
X148330000Y-111250000D03*
D13*
X143250000Y-111250000D03*
D12*
X145790000Y-111250000D03*
D11*
X104000000Y-111750000D03*
X186000000Y-111750000D03*
X104000000Y-54000000D03*
X186000000Y-54000000D03*
D12*
X121790000Y-111250000D03*
D13*
X119250000Y-111250000D03*
D12*
X133790000Y-111250000D03*
D13*
X131250000Y-111250000D03*
D14*
X166000000Y-110250000D03*
D15*
X162500000Y-110250000D03*
D16*
X170580000Y-52250000D03*
D17*
X168040000Y-52250000D03*
X165500000Y-52250000D03*
X162960000Y-52250000D03*
D18*
X119500000Y-52250000D03*
X124000000Y-52250000D03*
X119500000Y-58750000D03*
X124000000Y-58750000D03*
D19*
X181040000Y-52250000D03*
D20*
X178500000Y-52250000D03*
X175960000Y-52250000D03*
D21*
X151250000Y-67250000D03*
X150000000Y-67250000D03*
D22*
X170250000Y-83500000D03*
X170250000Y-82500000D03*
X171250000Y-82500000D03*
X172250000Y-82500000D03*
X172250000Y-83500000D03*
X171250000Y-83500000D03*
X129750000Y-56000000D03*
X115500000Y-56250000D03*
D23*
X139500000Y-53500000D03*
D22*
X147861570Y-77284263D03*
X163250000Y-68750000D03*
X163250000Y-63750000D03*
X148750000Y-86250000D03*
X147750000Y-86250000D03*
X147750000Y-85250000D03*
X148750000Y-85250000D03*
D21*
X133500000Y-56000000D03*
X125000000Y-62500000D03*
X133500000Y-57250000D03*
X126500000Y-62500000D03*
X133500000Y-58500000D03*
X131250000Y-65000000D03*
X132500000Y-65000000D03*
X133500000Y-60000000D03*
D24*
X143500000Y-52500000D03*
X144500000Y-52500000D03*
X145500000Y-52500000D03*
X146500000Y-52500000D03*
X134000000Y-53000000D03*
X133000000Y-53000000D03*
X133000000Y-52250000D03*
X134000000Y-52250000D03*
D25*
X104000000Y-83250000D02*
X135250000Y-83250000D01*
X135250000Y-83250000D02*
X151250000Y-67250000D01*
X104000000Y-78790000D02*
X138460000Y-78790000D01*
X138460000Y-78790000D02*
X150000000Y-67250000D01*
D26*
X170250000Y-82500000D02*
X170250000Y-83500000D01*
X172250000Y-82500000D02*
X171250000Y-82500000D01*
X171250000Y-83500000D02*
X172250000Y-83500000D01*
X168040000Y-52250000D02*
X168040000Y-56710000D01*
X129750000Y-56000000D02*
X130750000Y-55000000D01*
X130750000Y-55000000D02*
X135957764Y-55000000D01*
X135957764Y-55000000D02*
X138207764Y-57250000D01*
X138207764Y-57250000D02*
X141250000Y-57250000D01*
X115500000Y-56250000D02*
X127250000Y-56250000D01*
X138750000Y-56250000D02*
X140500000Y-56250000D01*
X127250000Y-56250000D02*
X129173744Y-54326256D01*
X129173744Y-54326256D02*
X136826256Y-54326256D01*
X136826256Y-54326256D02*
X138750000Y-56250000D01*
D27*
X141250000Y-55250000D02*
X141250000Y-57250000D01*
X139500000Y-53500000D02*
X141250000Y-55250000D01*
D26*
X148356544Y-77284263D02*
X147861570Y-77284263D01*
X170715737Y-77284263D02*
X148356544Y-77284263D01*
X170750000Y-77250000D02*
X170715737Y-77284263D01*
X163250000Y-68750000D02*
X171250000Y-68750000D01*
X163250000Y-63750000D02*
X163250000Y-57500000D01*
X147750000Y-86250000D02*
X148750000Y-86250000D01*
X148750000Y-85250000D02*
X147750000Y-85250000D01*
D25*
X125000000Y-62500000D02*
X131500000Y-56000000D01*
X131500000Y-56000000D02*
X133500000Y-56000000D01*
X126500000Y-62500000D02*
X131750000Y-57250000D01*
X131750000Y-57250000D02*
X133500000Y-57250000D01*
X131250000Y-65000000D02*
X131250000Y-60750000D01*
X131250000Y-60750000D02*
X133500000Y-58500000D01*
X132500000Y-61250000D02*
X132500000Y-61000000D01*
X132500000Y-65000000D02*
X132500000Y-61250000D01*
X132500000Y-61000000D02*
X133500000Y-60000000D01*
D28*
X144500000Y-52500000D02*
X143500000Y-52500000D01*
X146500000Y-52500000D02*
X145500000Y-52500000D01*
X133000000Y-53000000D02*
X134000000Y-53000000D01*
X134000000Y-52250000D02*
X133000000Y-52250000D01*
D29*
G36*
X149123000Y-86623000D02*
X102877000Y-86623000D01*
X102877000Y-84877000D01*
X149123000Y-84877000D01*
X149123000Y-86623000D01*
X149123000Y-86623000D01*
G37*
X149123000Y-86623000D02*
X102877000Y-86623000D01*
X102877000Y-84877000D01*
X149123000Y-84877000D01*
X149123000Y-86623000D01*
G36*
X172873000Y-83873000D02*
X169627000Y-83873000D01*
X169627000Y-59000000D01*
X169616994Y-58950590D01*
X169588553Y-58908965D01*
X169546159Y-58881685D01*
X169500000Y-58873000D01*
X139627000Y-58873000D01*
X139627000Y-55627000D01*
X172873000Y-55627000D01*
X172873000Y-83873000D01*
X172873000Y-83873000D01*
G37*
X172873000Y-83873000D02*
X169627000Y-83873000D01*
X169627000Y-59000000D01*
X169616994Y-58950590D01*
X169588553Y-58908965D01*
X169546159Y-58881685D01*
X169500000Y-58873000D01*
X139627000Y-58873000D01*
X139627000Y-55627000D01*
X172873000Y-55627000D01*
X172873000Y-83873000D01*
G36*
X169123000Y-58873000D02*
X166877000Y-58873000D01*
X166877000Y-50877000D01*
X169123000Y-50877000D01*
X169123000Y-58873000D01*
X169123000Y-58873000D01*
G37*
X169123000Y-58873000D02*
X166877000Y-58873000D01*
X166877000Y-50877000D01*
X169123000Y-50877000D01*
X169123000Y-58873000D01*
G36*
X166487129Y-50479763D02*
X166402702Y-50603326D01*
X166373000Y-50750000D01*
X166373000Y-51366394D01*
X166367620Y-51358342D01*
X165969553Y-51092362D01*
X165500000Y-50998962D01*
X165030447Y-51092362D01*
X164632380Y-51358342D01*
X164366400Y-51756409D01*
X164273000Y-52225962D01*
X164273000Y-52274038D01*
X164366400Y-52743591D01*
X164632380Y-53141658D01*
X165030447Y-53407638D01*
X165500000Y-53501038D01*
X165969553Y-53407638D01*
X166367620Y-53141658D01*
X166373000Y-53133606D01*
X166373000Y-55123000D01*
X141851738Y-55123000D01*
X141829273Y-55010058D01*
X141693356Y-54806644D01*
X140252118Y-53365406D01*
X140252131Y-53351074D01*
X140137887Y-53074582D01*
X139926530Y-52862857D01*
X139650238Y-52748130D01*
X139351074Y-52747869D01*
X139074582Y-52862113D01*
X138862857Y-53073470D01*
X138748130Y-53349762D01*
X138747869Y-53648926D01*
X138862113Y-53925418D01*
X139073470Y-54137143D01*
X139349762Y-54251870D01*
X139365171Y-54251883D01*
X140236288Y-55123000D01*
X139500000Y-55123000D01*
X139362977Y-55148783D01*
X139237129Y-55229763D01*
X139152702Y-55353326D01*
X139123000Y-55500000D01*
X139123000Y-55669800D01*
X138990326Y-55669800D01*
X137236519Y-53915993D01*
X137048289Y-53790221D01*
X136826256Y-53746056D01*
X129173744Y-53746056D01*
X128951711Y-53790221D01*
X128763481Y-53915993D01*
X127009674Y-55669800D01*
X115948049Y-55669800D01*
X115912350Y-55634039D01*
X115645244Y-55523126D01*
X115356025Y-55522874D01*
X115088725Y-55633320D01*
X114884039Y-55837650D01*
X114773126Y-56104756D01*
X114772874Y-56393975D01*
X114883320Y-56661275D01*
X115087650Y-56865961D01*
X115354756Y-56976874D01*
X115643975Y-56977126D01*
X115911275Y-56866680D01*
X115947819Y-56830200D01*
X127250000Y-56830200D01*
X127472033Y-56786035D01*
X127660263Y-56660263D01*
X129414070Y-54906456D01*
X130023017Y-54906456D01*
X129656556Y-55272918D01*
X129606025Y-55272874D01*
X129338725Y-55383320D01*
X129134039Y-55587650D01*
X129023126Y-55854756D01*
X129022874Y-56143975D01*
X129133320Y-56411275D01*
X129337650Y-56615961D01*
X129604756Y-56726874D01*
X129893975Y-56727126D01*
X130161275Y-56616680D01*
X130365961Y-56412350D01*
X130476874Y-56145244D01*
X130476919Y-56093607D01*
X130990327Y-55580200D01*
X131242060Y-55580200D01*
X131145032Y-55645032D01*
X131145030Y-55645035D01*
X125009956Y-61780108D01*
X124857431Y-61779975D01*
X124592742Y-61889342D01*
X124390054Y-62091677D01*
X124280225Y-62356175D01*
X124279975Y-62642569D01*
X124389342Y-62907258D01*
X124591677Y-63109946D01*
X124856175Y-63219775D01*
X125142569Y-63220025D01*
X125407258Y-63110658D01*
X125609946Y-62908323D01*
X125719775Y-62643825D01*
X125719909Y-62490027D01*
X125780161Y-62429775D01*
X125779975Y-62642569D01*
X125889342Y-62907258D01*
X126091677Y-63109946D01*
X126356175Y-63219775D01*
X126642569Y-63220025D01*
X126907258Y-63110658D01*
X127109946Y-62908323D01*
X127219775Y-62643825D01*
X127219909Y-62490027D01*
X131957935Y-57752000D01*
X132983919Y-57752000D01*
X133091677Y-57859946D01*
X133127692Y-57874901D01*
X133092742Y-57889342D01*
X132890054Y-58091677D01*
X132780225Y-58356175D01*
X132780091Y-58509974D01*
X130895032Y-60395032D01*
X130786212Y-60557893D01*
X130747999Y-60750000D01*
X130748000Y-60750005D01*
X130748000Y-64483919D01*
X130640054Y-64591677D01*
X130530225Y-64856175D01*
X130529975Y-65142569D01*
X130639342Y-65407258D01*
X130841677Y-65609946D01*
X131106175Y-65719775D01*
X131392569Y-65720025D01*
X131657258Y-65610658D01*
X131859946Y-65408323D01*
X131874901Y-65372308D01*
X131889342Y-65407258D01*
X132091677Y-65609946D01*
X132356175Y-65719775D01*
X132642569Y-65720025D01*
X132907258Y-65610658D01*
X133109946Y-65408323D01*
X133219775Y-65143825D01*
X133220025Y-64857431D01*
X133110658Y-64592742D01*
X133002000Y-64483894D01*
X133002000Y-61207936D01*
X133490044Y-60719892D01*
X133642569Y-60720025D01*
X133907258Y-60610658D01*
X134109946Y-60408323D01*
X134219775Y-60143825D01*
X134220025Y-59857431D01*
X134110658Y-59592742D01*
X133908323Y-59390054D01*
X133643825Y-59280225D01*
X133429897Y-59280038D01*
X133490043Y-59219892D01*
X133642569Y-59220025D01*
X133907258Y-59110658D01*
X134109946Y-58908323D01*
X134219775Y-58643825D01*
X134220025Y-58357431D01*
X134110658Y-58092742D01*
X133908323Y-57890054D01*
X133872308Y-57875099D01*
X133907258Y-57860658D01*
X134109946Y-57658323D01*
X134219775Y-57393825D01*
X134220025Y-57107431D01*
X134110658Y-56842742D01*
X133908323Y-56640054D01*
X133872308Y-56625099D01*
X133907258Y-56610658D01*
X134109946Y-56408323D01*
X134219775Y-56143825D01*
X134220025Y-55857431D01*
X134110658Y-55592742D01*
X134098138Y-55580200D01*
X135717438Y-55580200D01*
X137797501Y-57660264D01*
X137934794Y-57752000D01*
X137985731Y-57786035D01*
X138207764Y-57830200D01*
X139123000Y-57830200D01*
X139123000Y-59000000D01*
X139148783Y-59137023D01*
X139229763Y-59262871D01*
X139353326Y-59347298D01*
X139500000Y-59377000D01*
X162669800Y-59377000D01*
X162669800Y-63301951D01*
X162634039Y-63337650D01*
X162523126Y-63604756D01*
X162522874Y-63893975D01*
X162633320Y-64161275D01*
X162837650Y-64365961D01*
X163104756Y-64476874D01*
X163393975Y-64477126D01*
X163661275Y-64366680D01*
X163865961Y-64162350D01*
X163976874Y-63895244D01*
X163977126Y-63606025D01*
X163866680Y-63338725D01*
X163830200Y-63302181D01*
X163830200Y-59377000D01*
X169123000Y-59377000D01*
X169123000Y-68169800D01*
X163698049Y-68169800D01*
X163662350Y-68134039D01*
X163395244Y-68023126D01*
X163106025Y-68022874D01*
X162838725Y-68133320D01*
X162634039Y-68337650D01*
X162523126Y-68604756D01*
X162522874Y-68893975D01*
X162633320Y-69161275D01*
X162837650Y-69365961D01*
X163104756Y-69476874D01*
X163393975Y-69477126D01*
X163661275Y-69366680D01*
X163697819Y-69330200D01*
X169123000Y-69330200D01*
X169123000Y-76704063D01*
X148309619Y-76704063D01*
X148273920Y-76668302D01*
X148006814Y-76557389D01*
X147717595Y-76557137D01*
X147450295Y-76667583D01*
X147245609Y-76871913D01*
X147134696Y-77139019D01*
X147134444Y-77428238D01*
X147244890Y-77695538D01*
X147449220Y-77900224D01*
X147716326Y-78011137D01*
X148005545Y-78011389D01*
X148272845Y-77900943D01*
X148309389Y-77864463D01*
X169123000Y-77864463D01*
X169123000Y-84000000D01*
X169148783Y-84137023D01*
X169229763Y-84262871D01*
X169353326Y-84347298D01*
X169500000Y-84377000D01*
X173000000Y-84377000D01*
X173137023Y-84351217D01*
X173262871Y-84270237D01*
X173347298Y-84146674D01*
X173377000Y-84000000D01*
X173377000Y-64670740D01*
X174122588Y-64670740D01*
X174483703Y-65544703D01*
X175151780Y-66213947D01*
X176025111Y-66576586D01*
X176970740Y-66577412D01*
X177844703Y-66216297D01*
X178513947Y-65548220D01*
X178876586Y-64674889D01*
X178877412Y-63729260D01*
X178516297Y-62855297D01*
X177848220Y-62186053D01*
X176974889Y-61823414D01*
X176029260Y-61822588D01*
X175155297Y-62183703D01*
X174486053Y-62851780D01*
X174123414Y-63725111D01*
X174122588Y-64670740D01*
X173377000Y-64670740D01*
X173377000Y-55500000D01*
X173351217Y-55362977D01*
X173270237Y-55237129D01*
X173146674Y-55152702D01*
X173000000Y-55123000D01*
X169627000Y-55123000D01*
X169627000Y-54470740D01*
X183622588Y-54470740D01*
X183983703Y-55344703D01*
X184651780Y-56013947D01*
X185525111Y-56376586D01*
X186470740Y-56377412D01*
X187344703Y-56016297D01*
X188013947Y-55348220D01*
X188376586Y-54474889D01*
X188377412Y-53529260D01*
X188016297Y-52655297D01*
X187348220Y-51986053D01*
X186474889Y-51623414D01*
X185529260Y-51622588D01*
X184655297Y-51983703D01*
X183986053Y-52651780D01*
X183623414Y-53525111D01*
X183622588Y-54470740D01*
X169627000Y-54470740D01*
X169627000Y-53735000D01*
X170294250Y-53735000D01*
X170453000Y-53576250D01*
X170453000Y-52377000D01*
X170707000Y-52377000D01*
X170707000Y-53576250D01*
X170865750Y-53735000D01*
X171556310Y-53735000D01*
X171789699Y-53638327D01*
X171968327Y-53459698D01*
X172065000Y-53226309D01*
X172065000Y-53184188D01*
X175205417Y-53184188D01*
X175267071Y-53419800D01*
X175767480Y-53595927D01*
X176297199Y-53567148D01*
X176652929Y-53419800D01*
X176714583Y-53184188D01*
X175960000Y-52429605D01*
X175205417Y-53184188D01*
X172065000Y-53184188D01*
X172065000Y-52535750D01*
X171906250Y-52377000D01*
X170707000Y-52377000D01*
X170453000Y-52377000D01*
X170433000Y-52377000D01*
X170433000Y-52123000D01*
X170453000Y-52123000D01*
X170453000Y-50923750D01*
X170707000Y-50923750D01*
X170707000Y-52123000D01*
X171906250Y-52123000D01*
X171971770Y-52057480D01*
X174614073Y-52057480D01*
X174642852Y-52587199D01*
X174790200Y-52942929D01*
X175025812Y-53004583D01*
X175780395Y-52250000D01*
X176139605Y-52250000D01*
X176894188Y-53004583D01*
X177129800Y-52942929D01*
X177298721Y-52462992D01*
X177424314Y-52462992D01*
X177587704Y-52858426D01*
X177889983Y-53161233D01*
X178285131Y-53325313D01*
X178712992Y-53325686D01*
X179108426Y-53162296D01*
X179411233Y-52860017D01*
X179575313Y-52464869D01*
X179575686Y-52037008D01*
X179412296Y-51641574D01*
X179322380Y-51551500D01*
X179957115Y-51551500D01*
X179957115Y-52948500D01*
X179983403Y-53088208D01*
X180065970Y-53216520D01*
X180191953Y-53302601D01*
X180341500Y-53332885D01*
X181738500Y-53332885D01*
X181878208Y-53306597D01*
X182006520Y-53224030D01*
X182092601Y-53098047D01*
X182122885Y-52948500D01*
X182122885Y-51551500D01*
X182096597Y-51411792D01*
X182014030Y-51283480D01*
X181888047Y-51197399D01*
X181738500Y-51167115D01*
X180341500Y-51167115D01*
X180201792Y-51193403D01*
X180073480Y-51275970D01*
X179987399Y-51401953D01*
X179957115Y-51551500D01*
X179322380Y-51551500D01*
X179110017Y-51338767D01*
X178714869Y-51174687D01*
X178287008Y-51174314D01*
X177891574Y-51337704D01*
X177588767Y-51639983D01*
X177424687Y-52035131D01*
X177424314Y-52462992D01*
X177298721Y-52462992D01*
X177305927Y-52442520D01*
X177277148Y-51912801D01*
X177129800Y-51557071D01*
X176894188Y-51495417D01*
X176139605Y-52250000D01*
X175780395Y-52250000D01*
X175025812Y-51495417D01*
X174790200Y-51557071D01*
X174614073Y-52057480D01*
X171971770Y-52057480D01*
X172065000Y-51964250D01*
X172065000Y-51315812D01*
X175205417Y-51315812D01*
X175960000Y-52070395D01*
X176714583Y-51315812D01*
X176652929Y-51080200D01*
X176152520Y-50904073D01*
X175622801Y-50932852D01*
X175267071Y-51080200D01*
X175205417Y-51315812D01*
X172065000Y-51315812D01*
X172065000Y-51273691D01*
X171968327Y-51040302D01*
X171789699Y-50861673D01*
X171556310Y-50765000D01*
X170865750Y-50765000D01*
X170707000Y-50923750D01*
X170453000Y-50923750D01*
X170294250Y-50765000D01*
X169627000Y-50765000D01*
X169627000Y-50750000D01*
X169601217Y-50612977D01*
X169520237Y-50487129D01*
X169468824Y-50452000D01*
X187455482Y-50452000D01*
X188280348Y-50616076D01*
X188941893Y-51058107D01*
X189383924Y-51719652D01*
X189548000Y-52544518D01*
X189548000Y-113205482D01*
X189383924Y-114030348D01*
X188941893Y-114691893D01*
X188280348Y-115133924D01*
X187455482Y-115298000D01*
X102544518Y-115298000D01*
X101719652Y-115133924D01*
X101058107Y-114691893D01*
X100616076Y-114030348D01*
X100452000Y-113205482D01*
X100452000Y-112220740D01*
X101622588Y-112220740D01*
X101983703Y-113094703D01*
X102651780Y-113763947D01*
X103525111Y-114126586D01*
X104470740Y-114127412D01*
X104843033Y-113973583D01*
X118322839Y-113973583D01*
X118463669Y-114314417D01*
X118724211Y-114575414D01*
X119064799Y-114716839D01*
X119433583Y-114717161D01*
X119774417Y-114576331D01*
X120035414Y-114315789D01*
X120176839Y-113975201D01*
X120176840Y-113973583D01*
X120862839Y-113973583D01*
X121003669Y-114314417D01*
X121264211Y-114575414D01*
X121604799Y-114716839D01*
X121973583Y-114717161D01*
X122314417Y-114576331D01*
X122575414Y-114315789D01*
X122716839Y-113975201D01*
X122716840Y-113973583D01*
X130322839Y-113973583D01*
X130463669Y-114314417D01*
X130724211Y-114575414D01*
X131064799Y-114716839D01*
X131433583Y-114717161D01*
X131774417Y-114576331D01*
X132035414Y-114315789D01*
X132176839Y-113975201D01*
X132176840Y-113973583D01*
X132862839Y-113973583D01*
X133003669Y-114314417D01*
X133264211Y-114575414D01*
X133604799Y-114716839D01*
X133973583Y-114717161D01*
X134314417Y-114576331D01*
X134575414Y-114315789D01*
X134716839Y-113975201D01*
X134717161Y-113606417D01*
X134576331Y-113265583D01*
X134315789Y-113004586D01*
X133975201Y-112863161D01*
X133606417Y-112862839D01*
X133265583Y-113003669D01*
X133004586Y-113264211D01*
X132863161Y-113604799D01*
X132862839Y-113973583D01*
X132176840Y-113973583D01*
X132177161Y-113606417D01*
X132036331Y-113265583D01*
X131775789Y-113004586D01*
X131435201Y-112863161D01*
X131066417Y-112862839D01*
X130725583Y-113003669D01*
X130464586Y-113264211D01*
X130323161Y-113604799D01*
X130322839Y-113973583D01*
X122716840Y-113973583D01*
X122717161Y-113606417D01*
X122576331Y-113265583D01*
X122315789Y-113004586D01*
X121975201Y-112863161D01*
X121606417Y-112862839D01*
X121265583Y-113003669D01*
X121004586Y-113264211D01*
X120863161Y-113604799D01*
X120862839Y-113973583D01*
X120176840Y-113973583D01*
X120177161Y-113606417D01*
X120036331Y-113265583D01*
X119775789Y-113004586D01*
X119435201Y-112863161D01*
X119066417Y-112862839D01*
X118725583Y-113003669D01*
X118464586Y-113264211D01*
X118323161Y-113604799D01*
X118322839Y-113973583D01*
X104843033Y-113973583D01*
X105344703Y-113766297D01*
X106013947Y-113098220D01*
X106376586Y-112224889D01*
X106377412Y-111279260D01*
X106016297Y-110405297D01*
X105861780Y-110250510D01*
X117866125Y-110250510D01*
X117866125Y-112249490D01*
X117892413Y-112389198D01*
X117974980Y-112517510D01*
X118100963Y-112603591D01*
X118250510Y-112633875D01*
X120249490Y-112633875D01*
X120389198Y-112607587D01*
X120517510Y-112525020D01*
X120603591Y-112399037D01*
X120633875Y-112249490D01*
X120633875Y-111990105D01*
X120789708Y-112223325D01*
X121236273Y-112521711D01*
X121763033Y-112626490D01*
X121816967Y-112626490D01*
X122343727Y-112521711D01*
X122790292Y-112223325D01*
X123088678Y-111776760D01*
X123193457Y-111250000D01*
X123088678Y-110723240D01*
X122790292Y-110276675D01*
X122751134Y-110250510D01*
X129866125Y-110250510D01*
X129866125Y-112249490D01*
X129892413Y-112389198D01*
X129974980Y-112517510D01*
X130100963Y-112603591D01*
X130250510Y-112633875D01*
X132249490Y-112633875D01*
X132389198Y-112607587D01*
X132517510Y-112525020D01*
X132603591Y-112399037D01*
X132633875Y-112249490D01*
X132633875Y-111990105D01*
X132789708Y-112223325D01*
X133236273Y-112521711D01*
X133763033Y-112626490D01*
X133816967Y-112626490D01*
X134343727Y-112521711D01*
X134790292Y-112223325D01*
X135088678Y-111776760D01*
X135136617Y-111535750D01*
X141615510Y-111535750D01*
X141615510Y-112375800D01*
X141712183Y-112609189D01*
X141890812Y-112787817D01*
X142124201Y-112884490D01*
X142964250Y-112884490D01*
X143122998Y-112725742D01*
X143122998Y-112862888D01*
X143066417Y-112862839D01*
X142725583Y-113003669D01*
X142464586Y-113264211D01*
X142323161Y-113604799D01*
X142322839Y-113973583D01*
X142463669Y-114314417D01*
X142724211Y-114575414D01*
X143064799Y-114716839D01*
X143433583Y-114717161D01*
X143774417Y-114576331D01*
X144035414Y-114315789D01*
X144176839Y-113975201D01*
X144176840Y-113973583D01*
X144862839Y-113973583D01*
X145003669Y-114314417D01*
X145264211Y-114575414D01*
X145604799Y-114716839D01*
X145973583Y-114717161D01*
X146314417Y-114576331D01*
X146575414Y-114315789D01*
X146716839Y-113975201D01*
X146716840Y-113973583D01*
X147402839Y-113973583D01*
X147543669Y-114314417D01*
X147804211Y-114575414D01*
X148144799Y-114716839D01*
X148513583Y-114717161D01*
X148854417Y-114576331D01*
X149115414Y-114315789D01*
X149256839Y-113975201D01*
X149257161Y-113606417D01*
X149116331Y-113265583D01*
X148855789Y-113004586D01*
X148515201Y-112863161D01*
X148146417Y-112862839D01*
X147805583Y-113003669D01*
X147544586Y-113264211D01*
X147403161Y-113604799D01*
X147402839Y-113973583D01*
X146716840Y-113973583D01*
X146717161Y-113606417D01*
X146576331Y-113265583D01*
X146315789Y-113004586D01*
X145975201Y-112863161D01*
X145606417Y-112862839D01*
X145265583Y-113003669D01*
X145004586Y-113264211D01*
X144863161Y-113604799D01*
X144862839Y-113973583D01*
X144176840Y-113973583D01*
X144177161Y-113606417D01*
X144036331Y-113265583D01*
X143775789Y-113004586D01*
X143435201Y-112863161D01*
X143377002Y-112863110D01*
X143377002Y-112725742D01*
X143535750Y-112884490D01*
X144375799Y-112884490D01*
X144609188Y-112787817D01*
X144787817Y-112609189D01*
X144884490Y-112375800D01*
X144884490Y-112286656D01*
X145236273Y-112521711D01*
X145763033Y-112626490D01*
X145816967Y-112626490D01*
X146343727Y-112521711D01*
X146790292Y-112223325D01*
X147060000Y-111819680D01*
X147329708Y-112223325D01*
X147776273Y-112521711D01*
X148303033Y-112626490D01*
X148356967Y-112626490D01*
X148883727Y-112521711D01*
X149330292Y-112223325D01*
X149332019Y-112220740D01*
X183622588Y-112220740D01*
X183983703Y-113094703D01*
X184651780Y-113763947D01*
X185525111Y-114126586D01*
X186470740Y-114127412D01*
X187344703Y-113766297D01*
X188013947Y-113098220D01*
X188376586Y-112224889D01*
X188377412Y-111279260D01*
X188016297Y-110405297D01*
X187348220Y-109736053D01*
X186474889Y-109373414D01*
X185529260Y-109372588D01*
X184655297Y-109733703D01*
X183986053Y-110401780D01*
X183623414Y-111275111D01*
X183622588Y-112220740D01*
X149332019Y-112220740D01*
X149628678Y-111776760D01*
X149733457Y-111250000D01*
X149628678Y-110723240D01*
X149503401Y-110535750D01*
X160665000Y-110535750D01*
X160665000Y-111576310D01*
X160761673Y-111809699D01*
X160940302Y-111988327D01*
X161173691Y-112085000D01*
X162214250Y-112085000D01*
X162373000Y-111926250D01*
X162373000Y-110377000D01*
X162627000Y-110377000D01*
X162627000Y-111926250D01*
X162785750Y-112085000D01*
X163826309Y-112085000D01*
X164059698Y-111988327D01*
X164238327Y-111809699D01*
X164335000Y-111576310D01*
X164335000Y-110562308D01*
X164422727Y-110562308D01*
X164662305Y-111142132D01*
X165105535Y-111586136D01*
X165684939Y-111826725D01*
X166312308Y-111827273D01*
X166892132Y-111587695D01*
X167336136Y-111144465D01*
X167576725Y-110565061D01*
X167577273Y-109937692D01*
X167337695Y-109357868D01*
X166894465Y-108913864D01*
X166315061Y-108673275D01*
X165687692Y-108672727D01*
X165107868Y-108912305D01*
X164663864Y-109355535D01*
X164423275Y-109934939D01*
X164422727Y-110562308D01*
X164335000Y-110562308D01*
X164335000Y-110535750D01*
X164176250Y-110377000D01*
X162627000Y-110377000D01*
X162373000Y-110377000D01*
X160823750Y-110377000D01*
X160665000Y-110535750D01*
X149503401Y-110535750D01*
X149330292Y-110276675D01*
X148883727Y-109978289D01*
X148356967Y-109873510D01*
X148303033Y-109873510D01*
X147776273Y-109978289D01*
X147329708Y-110276675D01*
X147060000Y-110680320D01*
X146790292Y-110276675D01*
X146343727Y-109978289D01*
X145816967Y-109873510D01*
X145763033Y-109873510D01*
X145236273Y-109978289D01*
X144884490Y-110213344D01*
X144884490Y-110124200D01*
X144787817Y-109890811D01*
X144609188Y-109712183D01*
X144375799Y-109615510D01*
X143535750Y-109615510D01*
X143377000Y-109774260D01*
X143377000Y-111123000D01*
X143397000Y-111123000D01*
X143397000Y-111377000D01*
X143377000Y-111377000D01*
X143377000Y-111397000D01*
X143123000Y-111397000D01*
X143123000Y-111377000D01*
X141774260Y-111377000D01*
X141615510Y-111535750D01*
X135136617Y-111535750D01*
X135193457Y-111250000D01*
X135088678Y-110723240D01*
X134790292Y-110276675D01*
X134562098Y-110124200D01*
X141615510Y-110124200D01*
X141615510Y-110964250D01*
X141774260Y-111123000D01*
X143123000Y-111123000D01*
X143123000Y-109774260D01*
X142964250Y-109615510D01*
X142124201Y-109615510D01*
X141890812Y-109712183D01*
X141712183Y-109890811D01*
X141615510Y-110124200D01*
X134562098Y-110124200D01*
X134343727Y-109978289D01*
X133816967Y-109873510D01*
X133763033Y-109873510D01*
X133236273Y-109978289D01*
X132789708Y-110276675D01*
X132633875Y-110509895D01*
X132633875Y-110250510D01*
X132607587Y-110110802D01*
X132525020Y-109982490D01*
X132399037Y-109896409D01*
X132249490Y-109866125D01*
X130250510Y-109866125D01*
X130110802Y-109892413D01*
X129982490Y-109974980D01*
X129896409Y-110100963D01*
X129866125Y-110250510D01*
X122751134Y-110250510D01*
X122343727Y-109978289D01*
X121816967Y-109873510D01*
X121763033Y-109873510D01*
X121236273Y-109978289D01*
X120789708Y-110276675D01*
X120633875Y-110509895D01*
X120633875Y-110250510D01*
X120607587Y-110110802D01*
X120525020Y-109982490D01*
X120399037Y-109896409D01*
X120249490Y-109866125D01*
X118250510Y-109866125D01*
X118110802Y-109892413D01*
X117982490Y-109974980D01*
X117896409Y-110100963D01*
X117866125Y-110250510D01*
X105861780Y-110250510D01*
X105348220Y-109736053D01*
X104474889Y-109373414D01*
X103529260Y-109372588D01*
X102655297Y-109733703D01*
X101986053Y-110401780D01*
X101623414Y-111275111D01*
X101622588Y-112220740D01*
X100452000Y-112220740D01*
X100452000Y-108923690D01*
X160665000Y-108923690D01*
X160665000Y-109964250D01*
X160823750Y-110123000D01*
X162373000Y-110123000D01*
X162373000Y-108573750D01*
X162627000Y-108573750D01*
X162627000Y-110123000D01*
X164176250Y-110123000D01*
X164335000Y-109964250D01*
X164335000Y-108923690D01*
X164238327Y-108690301D01*
X164059698Y-108511673D01*
X163826309Y-108415000D01*
X162785750Y-108415000D01*
X162627000Y-108573750D01*
X162373000Y-108573750D01*
X162214250Y-108415000D01*
X161173691Y-108415000D01*
X160940302Y-108511673D01*
X160761673Y-108690301D01*
X160665000Y-108923690D01*
X100452000Y-108923690D01*
X100452000Y-101410740D01*
X108622588Y-101410740D01*
X108983703Y-102284703D01*
X109651780Y-102953947D01*
X110525111Y-103316586D01*
X111470740Y-103317412D01*
X112344703Y-102956297D01*
X113013947Y-102288220D01*
X113376586Y-101414889D01*
X113376589Y-101410740D01*
X174122588Y-101410740D01*
X174483703Y-102284703D01*
X175151780Y-102953947D01*
X176025111Y-103316586D01*
X176970740Y-103317412D01*
X177844703Y-102956297D01*
X178513947Y-102288220D01*
X178876586Y-101414889D01*
X178877412Y-100469260D01*
X178516297Y-99595297D01*
X177848220Y-98926053D01*
X176974889Y-98563414D01*
X176029260Y-98562588D01*
X175155297Y-98923703D01*
X174486053Y-99591780D01*
X174123414Y-100465111D01*
X174122588Y-101410740D01*
X113376589Y-101410740D01*
X113377412Y-100469260D01*
X113016297Y-99595297D01*
X112348220Y-98926053D01*
X111474889Y-98563414D01*
X110529260Y-98562588D01*
X109655297Y-98923703D01*
X108986053Y-99591780D01*
X108623414Y-100465111D01*
X108622588Y-101410740D01*
X100452000Y-101410740D01*
X100452000Y-83433583D01*
X100532839Y-83433583D01*
X100673669Y-83774417D01*
X100934211Y-84035414D01*
X101274799Y-84176839D01*
X101643583Y-84177161D01*
X101984417Y-84036331D01*
X102245414Y-83775789D01*
X102386839Y-83435201D01*
X102387161Y-83066417D01*
X102246331Y-82725583D01*
X101985789Y-82464586D01*
X101645201Y-82323161D01*
X101276417Y-82322839D01*
X100935583Y-82463669D01*
X100674586Y-82724211D01*
X100533161Y-83064799D01*
X100532839Y-83433583D01*
X100452000Y-83433583D01*
X100452000Y-78973583D01*
X100532839Y-78973583D01*
X100673669Y-79314417D01*
X100934211Y-79575414D01*
X101274799Y-79716839D01*
X101643583Y-79717161D01*
X101984417Y-79576331D01*
X102245414Y-79315789D01*
X102386839Y-78975201D01*
X102387161Y-78606417D01*
X102246331Y-78265583D01*
X101985789Y-78004586D01*
X101645201Y-77863161D01*
X101276417Y-77862839D01*
X100935583Y-78003669D01*
X100674586Y-78264211D01*
X100533161Y-78604799D01*
X100532839Y-78973583D01*
X100452000Y-78973583D01*
X100452000Y-76433583D01*
X100532839Y-76433583D01*
X100673669Y-76774417D01*
X100934211Y-77035414D01*
X101274799Y-77176839D01*
X101643583Y-77177161D01*
X101984417Y-77036331D01*
X102245414Y-76775789D01*
X102386839Y-76435201D01*
X102386890Y-76377002D01*
X102529192Y-76377002D01*
X102410373Y-76630355D01*
X102676932Y-77209726D01*
X102907895Y-77423552D01*
X102860802Y-77432413D01*
X102732490Y-77514980D01*
X102646409Y-77640963D01*
X102616125Y-77790510D01*
X102616125Y-79789490D01*
X102642413Y-79929198D01*
X102724980Y-80057510D01*
X102850963Y-80143591D01*
X103000510Y-80173875D01*
X104999490Y-80173875D01*
X105139198Y-80147587D01*
X105267510Y-80065020D01*
X105353591Y-79939037D01*
X105383875Y-79789490D01*
X105383875Y-79292000D01*
X138459995Y-79292000D01*
X138460000Y-79292001D01*
X138507514Y-79282550D01*
X135042064Y-82748000D01*
X105282000Y-82748000D01*
X105271711Y-82696273D01*
X104973325Y-82249708D01*
X104526760Y-81951322D01*
X104000000Y-81846543D01*
X103473240Y-81951322D01*
X103026675Y-82249708D01*
X102728289Y-82696273D01*
X102623510Y-83223033D01*
X102623510Y-83276967D01*
X102728289Y-83803727D01*
X103026675Y-84250292D01*
X103210320Y-84373000D01*
X102750000Y-84373000D01*
X102612977Y-84398783D01*
X102487129Y-84479763D01*
X102402702Y-84603326D01*
X102373000Y-84750000D01*
X102373000Y-85572145D01*
X102246331Y-85265583D01*
X101985789Y-85004586D01*
X101645201Y-84863161D01*
X101276417Y-84862839D01*
X100935583Y-85003669D01*
X100674586Y-85264211D01*
X100533161Y-85604799D01*
X100532839Y-85973583D01*
X100673669Y-86314417D01*
X100934211Y-86575414D01*
X101274799Y-86716839D01*
X101643583Y-86717161D01*
X101984417Y-86576331D01*
X102245414Y-86315789D01*
X102373000Y-86008529D01*
X102373000Y-86750000D01*
X102398783Y-86887023D01*
X102479763Y-87012871D01*
X102603326Y-87097298D01*
X102750000Y-87127000D01*
X102826681Y-87127000D01*
X102850963Y-87143591D01*
X103000510Y-87173875D01*
X104999490Y-87173875D01*
X105139198Y-87147587D01*
X105171191Y-87127000D01*
X149250000Y-87127000D01*
X149387023Y-87101217D01*
X149512871Y-87020237D01*
X149597298Y-86896674D01*
X149627000Y-86750000D01*
X149627000Y-84750000D01*
X149601217Y-84612977D01*
X149520237Y-84487129D01*
X149396674Y-84402702D01*
X149250000Y-84373000D01*
X104789680Y-84373000D01*
X104973325Y-84250292D01*
X105271711Y-83803727D01*
X105282000Y-83752000D01*
X135249995Y-83752000D01*
X135250000Y-83752001D01*
X135442107Y-83713788D01*
X135604968Y-83604968D01*
X151240044Y-67969892D01*
X151392569Y-67970025D01*
X151657258Y-67860658D01*
X151859946Y-67658323D01*
X151969775Y-67393825D01*
X151970025Y-67107431D01*
X151860658Y-66842742D01*
X151658323Y-66640054D01*
X151393825Y-66530225D01*
X151107431Y-66529975D01*
X150842742Y-66639342D01*
X150640054Y-66841677D01*
X150625099Y-66877692D01*
X150610658Y-66842742D01*
X150408323Y-66640054D01*
X150143825Y-66530225D01*
X149857431Y-66529975D01*
X149592742Y-66639342D01*
X149390054Y-66841677D01*
X149280225Y-67106175D01*
X149280091Y-67259974D01*
X138252064Y-78288000D01*
X105383875Y-78288000D01*
X105383875Y-77790510D01*
X105357587Y-77650802D01*
X105275020Y-77522490D01*
X105149037Y-77436409D01*
X105090928Y-77424642D01*
X105323068Y-77209726D01*
X105589627Y-76630355D01*
X105470807Y-76377000D01*
X104127000Y-76377000D01*
X104127000Y-76397000D01*
X103873000Y-76397000D01*
X103873000Y-76377000D01*
X103853000Y-76377000D01*
X103853000Y-76123000D01*
X103873000Y-76123000D01*
X103873000Y-74779735D01*
X104127000Y-74779735D01*
X104127000Y-76123000D01*
X105470807Y-76123000D01*
X105589627Y-75869645D01*
X105323068Y-75290274D01*
X104855084Y-74857013D01*
X104380354Y-74660381D01*
X104127000Y-74779735D01*
X103873000Y-74779735D01*
X103619646Y-74660381D01*
X103144916Y-74857013D01*
X102676932Y-75290274D01*
X102410373Y-75869645D01*
X102529192Y-76122998D01*
X102387112Y-76122998D01*
X102387161Y-76066417D01*
X102246331Y-75725583D01*
X101985789Y-75464586D01*
X101645201Y-75323161D01*
X101276417Y-75322839D01*
X100935583Y-75463669D01*
X100674586Y-75724211D01*
X100533161Y-76064799D01*
X100532839Y-76433583D01*
X100452000Y-76433583D01*
X100452000Y-64670740D01*
X106122588Y-64670740D01*
X106483703Y-65544703D01*
X107151780Y-66213947D01*
X108025111Y-66576586D01*
X108970740Y-66577412D01*
X109844703Y-66216297D01*
X110513947Y-65548220D01*
X110876586Y-64674889D01*
X110877412Y-63729260D01*
X110516297Y-62855297D01*
X109848220Y-62186053D01*
X108974889Y-61823414D01*
X108029260Y-61822588D01*
X107155297Y-62183703D01*
X106486053Y-62851780D01*
X106123414Y-63725111D01*
X106122588Y-64670740D01*
X100452000Y-64670740D01*
X100452000Y-59902532D01*
X118527073Y-59902532D01*
X118625736Y-60169387D01*
X119235461Y-60395908D01*
X119885460Y-60371856D01*
X120374264Y-60169387D01*
X120472927Y-59902532D01*
X119500000Y-58929605D01*
X118527073Y-59902532D01*
X100452000Y-59902532D01*
X100452000Y-58485461D01*
X117854092Y-58485461D01*
X117878144Y-59135460D01*
X118080613Y-59624264D01*
X118347468Y-59722927D01*
X119320395Y-58750000D01*
X119679605Y-58750000D01*
X120652532Y-59722927D01*
X120919387Y-59624264D01*
X121142875Y-59022701D01*
X122622762Y-59022701D01*
X122831956Y-59528989D01*
X123218974Y-59916683D01*
X123724896Y-60126760D01*
X124272701Y-60127238D01*
X124778989Y-59918044D01*
X125166683Y-59531026D01*
X125376760Y-59025104D01*
X125377238Y-58477299D01*
X125168044Y-57971011D01*
X124781026Y-57583317D01*
X124275104Y-57373240D01*
X123727299Y-57372762D01*
X123221011Y-57581956D01*
X122833317Y-57968974D01*
X122623240Y-58474896D01*
X122622762Y-59022701D01*
X121142875Y-59022701D01*
X121145908Y-59014539D01*
X121121856Y-58364540D01*
X120919387Y-57875736D01*
X120652532Y-57777073D01*
X119679605Y-58750000D01*
X119320395Y-58750000D01*
X118347468Y-57777073D01*
X118080613Y-57875736D01*
X117854092Y-58485461D01*
X100452000Y-58485461D01*
X100452000Y-57597468D01*
X118527073Y-57597468D01*
X119500000Y-58570395D01*
X120472927Y-57597468D01*
X120374264Y-57330613D01*
X119764539Y-57104092D01*
X119114540Y-57128144D01*
X118625736Y-57330613D01*
X118527073Y-57597468D01*
X100452000Y-57597468D01*
X100452000Y-54470740D01*
X101622588Y-54470740D01*
X101983703Y-55344703D01*
X102651780Y-56013947D01*
X103525111Y-56376586D01*
X104470740Y-56377412D01*
X105344703Y-56016297D01*
X106013947Y-55348220D01*
X106376586Y-54474889D01*
X106377412Y-53529260D01*
X106325049Y-53402532D01*
X118527073Y-53402532D01*
X118625736Y-53669387D01*
X119235461Y-53895908D01*
X119885460Y-53871856D01*
X120374264Y-53669387D01*
X120472927Y-53402532D01*
X119500000Y-52429605D01*
X118527073Y-53402532D01*
X106325049Y-53402532D01*
X106016297Y-52655297D01*
X105348220Y-51986053D01*
X105346795Y-51985461D01*
X117854092Y-51985461D01*
X117878144Y-52635460D01*
X118080613Y-53124264D01*
X118347468Y-53222927D01*
X119320395Y-52250000D01*
X119679605Y-52250000D01*
X120652532Y-53222927D01*
X120919387Y-53124264D01*
X121142875Y-52522701D01*
X122622762Y-52522701D01*
X122831956Y-53028989D01*
X123218974Y-53416683D01*
X123724896Y-53626760D01*
X124272701Y-53627238D01*
X124778989Y-53418044D01*
X125166683Y-53031026D01*
X125376760Y-52525104D01*
X125377021Y-52225962D01*
X161733000Y-52225962D01*
X161733000Y-52274038D01*
X161826400Y-52743591D01*
X162092380Y-53141658D01*
X162490447Y-53407638D01*
X162960000Y-53501038D01*
X163429553Y-53407638D01*
X163827620Y-53141658D01*
X164093600Y-52743591D01*
X164187000Y-52274038D01*
X164187000Y-52225962D01*
X164093600Y-51756409D01*
X163827620Y-51358342D01*
X163429553Y-51092362D01*
X162960000Y-50998962D01*
X162490447Y-51092362D01*
X162092380Y-51358342D01*
X161826400Y-51756409D01*
X161733000Y-52225962D01*
X125377021Y-52225962D01*
X125377238Y-51977299D01*
X125168044Y-51471011D01*
X124781026Y-51083317D01*
X124275104Y-50873240D01*
X123727299Y-50872762D01*
X123221011Y-51081956D01*
X122833317Y-51468974D01*
X122623240Y-51974896D01*
X122622762Y-52522701D01*
X121142875Y-52522701D01*
X121145908Y-52514539D01*
X121121856Y-51864540D01*
X120919387Y-51375736D01*
X120652532Y-51277073D01*
X119679605Y-52250000D01*
X119320395Y-52250000D01*
X118347468Y-51277073D01*
X118080613Y-51375736D01*
X117854092Y-51985461D01*
X105346795Y-51985461D01*
X104474889Y-51623414D01*
X103529260Y-51622588D01*
X102655297Y-51983703D01*
X101986053Y-52651780D01*
X101623414Y-53525111D01*
X101622588Y-54470740D01*
X100452000Y-54470740D01*
X100452000Y-52544518D01*
X100616076Y-51719652D01*
X101031806Y-51097468D01*
X118527073Y-51097468D01*
X119500000Y-52070395D01*
X120472927Y-51097468D01*
X120374264Y-50830613D01*
X119764539Y-50604092D01*
X119114540Y-50628144D01*
X118625736Y-50830613D01*
X118527073Y-51097468D01*
X101031806Y-51097468D01*
X101058107Y-51058107D01*
X101719652Y-50616076D01*
X102544518Y-50452000D01*
X166530274Y-50452000D01*
X166487129Y-50479763D01*
X166487129Y-50479763D01*
G37*
X166487129Y-50479763D02*
X166402702Y-50603326D01*
X166373000Y-50750000D01*
X166373000Y-51366394D01*
X166367620Y-51358342D01*
X165969553Y-51092362D01*
X165500000Y-50998962D01*
X165030447Y-51092362D01*
X164632380Y-51358342D01*
X164366400Y-51756409D01*
X164273000Y-52225962D01*
X164273000Y-52274038D01*
X164366400Y-52743591D01*
X164632380Y-53141658D01*
X165030447Y-53407638D01*
X165500000Y-53501038D01*
X165969553Y-53407638D01*
X166367620Y-53141658D01*
X166373000Y-53133606D01*
X166373000Y-55123000D01*
X141851738Y-55123000D01*
X141829273Y-55010058D01*
X141693356Y-54806644D01*
X140252118Y-53365406D01*
X140252131Y-53351074D01*
X140137887Y-53074582D01*
X139926530Y-52862857D01*
X139650238Y-52748130D01*
X139351074Y-52747869D01*
X139074582Y-52862113D01*
X138862857Y-53073470D01*
X138748130Y-53349762D01*
X138747869Y-53648926D01*
X138862113Y-53925418D01*
X139073470Y-54137143D01*
X139349762Y-54251870D01*
X139365171Y-54251883D01*
X140236288Y-55123000D01*
X139500000Y-55123000D01*
X139362977Y-55148783D01*
X139237129Y-55229763D01*
X139152702Y-55353326D01*
X139123000Y-55500000D01*
X139123000Y-55669800D01*
X138990326Y-55669800D01*
X137236519Y-53915993D01*
X137048289Y-53790221D01*
X136826256Y-53746056D01*
X129173744Y-53746056D01*
X128951711Y-53790221D01*
X128763481Y-53915993D01*
X127009674Y-55669800D01*
X115948049Y-55669800D01*
X115912350Y-55634039D01*
X115645244Y-55523126D01*
X115356025Y-55522874D01*
X115088725Y-55633320D01*
X114884039Y-55837650D01*
X114773126Y-56104756D01*
X114772874Y-56393975D01*
X114883320Y-56661275D01*
X115087650Y-56865961D01*
X115354756Y-56976874D01*
X115643975Y-56977126D01*
X115911275Y-56866680D01*
X115947819Y-56830200D01*
X127250000Y-56830200D01*
X127472033Y-56786035D01*
X127660263Y-56660263D01*
X129414070Y-54906456D01*
X130023017Y-54906456D01*
X129656556Y-55272918D01*
X129606025Y-55272874D01*
X129338725Y-55383320D01*
X129134039Y-55587650D01*
X129023126Y-55854756D01*
X129022874Y-56143975D01*
X129133320Y-56411275D01*
X129337650Y-56615961D01*
X129604756Y-56726874D01*
X129893975Y-56727126D01*
X130161275Y-56616680D01*
X130365961Y-56412350D01*
X130476874Y-56145244D01*
X130476919Y-56093607D01*
X130990327Y-55580200D01*
X131242060Y-55580200D01*
X131145032Y-55645032D01*
X131145030Y-55645035D01*
X125009956Y-61780108D01*
X124857431Y-61779975D01*
X124592742Y-61889342D01*
X124390054Y-62091677D01*
X124280225Y-62356175D01*
X124279975Y-62642569D01*
X124389342Y-62907258D01*
X124591677Y-63109946D01*
X124856175Y-63219775D01*
X125142569Y-63220025D01*
X125407258Y-63110658D01*
X125609946Y-62908323D01*
X125719775Y-62643825D01*
X125719909Y-62490027D01*
X125780161Y-62429775D01*
X125779975Y-62642569D01*
X125889342Y-62907258D01*
X126091677Y-63109946D01*
X126356175Y-63219775D01*
X126642569Y-63220025D01*
X126907258Y-63110658D01*
X127109946Y-62908323D01*
X127219775Y-62643825D01*
X127219909Y-62490027D01*
X131957935Y-57752000D01*
X132983919Y-57752000D01*
X133091677Y-57859946D01*
X133127692Y-57874901D01*
X133092742Y-57889342D01*
X132890054Y-58091677D01*
X132780225Y-58356175D01*
X132780091Y-58509974D01*
X130895032Y-60395032D01*
X130786212Y-60557893D01*
X130747999Y-60750000D01*
X130748000Y-60750005D01*
X130748000Y-64483919D01*
X130640054Y-64591677D01*
X130530225Y-64856175D01*
X130529975Y-65142569D01*
X130639342Y-65407258D01*
X130841677Y-65609946D01*
X131106175Y-65719775D01*
X131392569Y-65720025D01*
X131657258Y-65610658D01*
X131859946Y-65408323D01*
X131874901Y-65372308D01*
X131889342Y-65407258D01*
X132091677Y-65609946D01*
X132356175Y-65719775D01*
X132642569Y-65720025D01*
X132907258Y-65610658D01*
X133109946Y-65408323D01*
X133219775Y-65143825D01*
X133220025Y-64857431D01*
X133110658Y-64592742D01*
X133002000Y-64483894D01*
X133002000Y-61207936D01*
X133490044Y-60719892D01*
X133642569Y-60720025D01*
X133907258Y-60610658D01*
X134109946Y-60408323D01*
X134219775Y-60143825D01*
X134220025Y-59857431D01*
X134110658Y-59592742D01*
X133908323Y-59390054D01*
X133643825Y-59280225D01*
X133429897Y-59280038D01*
X133490043Y-59219892D01*
X133642569Y-59220025D01*
X133907258Y-59110658D01*
X134109946Y-58908323D01*
X134219775Y-58643825D01*
X134220025Y-58357431D01*
X134110658Y-58092742D01*
X133908323Y-57890054D01*
X133872308Y-57875099D01*
X133907258Y-57860658D01*
X134109946Y-57658323D01*
X134219775Y-57393825D01*
X134220025Y-57107431D01*
X134110658Y-56842742D01*
X133908323Y-56640054D01*
X133872308Y-56625099D01*
X133907258Y-56610658D01*
X134109946Y-56408323D01*
X134219775Y-56143825D01*
X134220025Y-55857431D01*
X134110658Y-55592742D01*
X134098138Y-55580200D01*
X135717438Y-55580200D01*
X137797501Y-57660264D01*
X137934794Y-57752000D01*
X137985731Y-57786035D01*
X138207764Y-57830200D01*
X139123000Y-57830200D01*
X139123000Y-59000000D01*
X139148783Y-59137023D01*
X139229763Y-59262871D01*
X139353326Y-59347298D01*
X139500000Y-59377000D01*
X162669800Y-59377000D01*
X162669800Y-63301951D01*
X162634039Y-63337650D01*
X162523126Y-63604756D01*
X162522874Y-63893975D01*
X162633320Y-64161275D01*
X162837650Y-64365961D01*
X163104756Y-64476874D01*
X163393975Y-64477126D01*
X163661275Y-64366680D01*
X163865961Y-64162350D01*
X163976874Y-63895244D01*
X163977126Y-63606025D01*
X163866680Y-63338725D01*
X163830200Y-63302181D01*
X163830200Y-59377000D01*
X169123000Y-59377000D01*
X169123000Y-68169800D01*
X163698049Y-68169800D01*
X163662350Y-68134039D01*
X163395244Y-68023126D01*
X163106025Y-68022874D01*
X162838725Y-68133320D01*
X162634039Y-68337650D01*
X162523126Y-68604756D01*
X162522874Y-68893975D01*
X162633320Y-69161275D01*
X162837650Y-69365961D01*
X163104756Y-69476874D01*
X163393975Y-69477126D01*
X163661275Y-69366680D01*
X163697819Y-69330200D01*
X169123000Y-69330200D01*
X169123000Y-76704063D01*
X148309619Y-76704063D01*
X148273920Y-76668302D01*
X148006814Y-76557389D01*
X147717595Y-76557137D01*
X147450295Y-76667583D01*
X147245609Y-76871913D01*
X147134696Y-77139019D01*
X147134444Y-77428238D01*
X147244890Y-77695538D01*
X147449220Y-77900224D01*
X147716326Y-78011137D01*
X148005545Y-78011389D01*
X148272845Y-77900943D01*
X148309389Y-77864463D01*
X169123000Y-77864463D01*
X169123000Y-84000000D01*
X169148783Y-84137023D01*
X169229763Y-84262871D01*
X169353326Y-84347298D01*
X169500000Y-84377000D01*
X173000000Y-84377000D01*
X173137023Y-84351217D01*
X173262871Y-84270237D01*
X173347298Y-84146674D01*
X173377000Y-84000000D01*
X173377000Y-64670740D01*
X174122588Y-64670740D01*
X174483703Y-65544703D01*
X175151780Y-66213947D01*
X176025111Y-66576586D01*
X176970740Y-66577412D01*
X177844703Y-66216297D01*
X178513947Y-65548220D01*
X178876586Y-64674889D01*
X178877412Y-63729260D01*
X178516297Y-62855297D01*
X177848220Y-62186053D01*
X176974889Y-61823414D01*
X176029260Y-61822588D01*
X175155297Y-62183703D01*
X174486053Y-62851780D01*
X174123414Y-63725111D01*
X174122588Y-64670740D01*
X173377000Y-64670740D01*
X173377000Y-55500000D01*
X173351217Y-55362977D01*
X173270237Y-55237129D01*
X173146674Y-55152702D01*
X173000000Y-55123000D01*
X169627000Y-55123000D01*
X169627000Y-54470740D01*
X183622588Y-54470740D01*
X183983703Y-55344703D01*
X184651780Y-56013947D01*
X185525111Y-56376586D01*
X186470740Y-56377412D01*
X187344703Y-56016297D01*
X188013947Y-55348220D01*
X188376586Y-54474889D01*
X188377412Y-53529260D01*
X188016297Y-52655297D01*
X187348220Y-51986053D01*
X186474889Y-51623414D01*
X185529260Y-51622588D01*
X184655297Y-51983703D01*
X183986053Y-52651780D01*
X183623414Y-53525111D01*
X183622588Y-54470740D01*
X169627000Y-54470740D01*
X169627000Y-53735000D01*
X170294250Y-53735000D01*
X170453000Y-53576250D01*
X170453000Y-52377000D01*
X170707000Y-52377000D01*
X170707000Y-53576250D01*
X170865750Y-53735000D01*
X171556310Y-53735000D01*
X171789699Y-53638327D01*
X171968327Y-53459698D01*
X172065000Y-53226309D01*
X172065000Y-53184188D01*
X175205417Y-53184188D01*
X175267071Y-53419800D01*
X175767480Y-53595927D01*
X176297199Y-53567148D01*
X176652929Y-53419800D01*
X176714583Y-53184188D01*
X175960000Y-52429605D01*
X175205417Y-53184188D01*
X172065000Y-53184188D01*
X172065000Y-52535750D01*
X171906250Y-52377000D01*
X170707000Y-52377000D01*
X170453000Y-52377000D01*
X170433000Y-52377000D01*
X170433000Y-52123000D01*
X170453000Y-52123000D01*
X170453000Y-50923750D01*
X170707000Y-50923750D01*
X170707000Y-52123000D01*
X171906250Y-52123000D01*
X171971770Y-52057480D01*
X174614073Y-52057480D01*
X174642852Y-52587199D01*
X174790200Y-52942929D01*
X175025812Y-53004583D01*
X175780395Y-52250000D01*
X176139605Y-52250000D01*
X176894188Y-53004583D01*
X177129800Y-52942929D01*
X177298721Y-52462992D01*
X177424314Y-52462992D01*
X177587704Y-52858426D01*
X177889983Y-53161233D01*
X178285131Y-53325313D01*
X178712992Y-53325686D01*
X179108426Y-53162296D01*
X179411233Y-52860017D01*
X179575313Y-52464869D01*
X179575686Y-52037008D01*
X179412296Y-51641574D01*
X179322380Y-51551500D01*
X179957115Y-51551500D01*
X179957115Y-52948500D01*
X179983403Y-53088208D01*
X180065970Y-53216520D01*
X180191953Y-53302601D01*
X180341500Y-53332885D01*
X181738500Y-53332885D01*
X181878208Y-53306597D01*
X182006520Y-53224030D01*
X182092601Y-53098047D01*
X182122885Y-52948500D01*
X182122885Y-51551500D01*
X182096597Y-51411792D01*
X182014030Y-51283480D01*
X181888047Y-51197399D01*
X181738500Y-51167115D01*
X180341500Y-51167115D01*
X180201792Y-51193403D01*
X180073480Y-51275970D01*
X179987399Y-51401953D01*
X179957115Y-51551500D01*
X179322380Y-51551500D01*
X179110017Y-51338767D01*
X178714869Y-51174687D01*
X178287008Y-51174314D01*
X177891574Y-51337704D01*
X177588767Y-51639983D01*
X177424687Y-52035131D01*
X177424314Y-52462992D01*
X177298721Y-52462992D01*
X177305927Y-52442520D01*
X177277148Y-51912801D01*
X177129800Y-51557071D01*
X176894188Y-51495417D01*
X176139605Y-52250000D01*
X175780395Y-52250000D01*
X175025812Y-51495417D01*
X174790200Y-51557071D01*
X174614073Y-52057480D01*
X171971770Y-52057480D01*
X172065000Y-51964250D01*
X172065000Y-51315812D01*
X175205417Y-51315812D01*
X175960000Y-52070395D01*
X176714583Y-51315812D01*
X176652929Y-51080200D01*
X176152520Y-50904073D01*
X175622801Y-50932852D01*
X175267071Y-51080200D01*
X175205417Y-51315812D01*
X172065000Y-51315812D01*
X172065000Y-51273691D01*
X171968327Y-51040302D01*
X171789699Y-50861673D01*
X171556310Y-50765000D01*
X170865750Y-50765000D01*
X170707000Y-50923750D01*
X170453000Y-50923750D01*
X170294250Y-50765000D01*
X169627000Y-50765000D01*
X169627000Y-50750000D01*
X169601217Y-50612977D01*
X169520237Y-50487129D01*
X169468824Y-50452000D01*
X187455482Y-50452000D01*
X188280348Y-50616076D01*
X188941893Y-51058107D01*
X189383924Y-51719652D01*
X189548000Y-52544518D01*
X189548000Y-113205482D01*
X189383924Y-114030348D01*
X188941893Y-114691893D01*
X188280348Y-115133924D01*
X187455482Y-115298000D01*
X102544518Y-115298000D01*
X101719652Y-115133924D01*
X101058107Y-114691893D01*
X100616076Y-114030348D01*
X100452000Y-113205482D01*
X100452000Y-112220740D01*
X101622588Y-112220740D01*
X101983703Y-113094703D01*
X102651780Y-113763947D01*
X103525111Y-114126586D01*
X104470740Y-114127412D01*
X104843033Y-113973583D01*
X118322839Y-113973583D01*
X118463669Y-114314417D01*
X118724211Y-114575414D01*
X119064799Y-114716839D01*
X119433583Y-114717161D01*
X119774417Y-114576331D01*
X120035414Y-114315789D01*
X120176839Y-113975201D01*
X120176840Y-113973583D01*
X120862839Y-113973583D01*
X121003669Y-114314417D01*
X121264211Y-114575414D01*
X121604799Y-114716839D01*
X121973583Y-114717161D01*
X122314417Y-114576331D01*
X122575414Y-114315789D01*
X122716839Y-113975201D01*
X122716840Y-113973583D01*
X130322839Y-113973583D01*
X130463669Y-114314417D01*
X130724211Y-114575414D01*
X131064799Y-114716839D01*
X131433583Y-114717161D01*
X131774417Y-114576331D01*
X132035414Y-114315789D01*
X132176839Y-113975201D01*
X132176840Y-113973583D01*
X132862839Y-113973583D01*
X133003669Y-114314417D01*
X133264211Y-114575414D01*
X133604799Y-114716839D01*
X133973583Y-114717161D01*
X134314417Y-114576331D01*
X134575414Y-114315789D01*
X134716839Y-113975201D01*
X134717161Y-113606417D01*
X134576331Y-113265583D01*
X134315789Y-113004586D01*
X133975201Y-112863161D01*
X133606417Y-112862839D01*
X133265583Y-113003669D01*
X133004586Y-113264211D01*
X132863161Y-113604799D01*
X132862839Y-113973583D01*
X132176840Y-113973583D01*
X132177161Y-113606417D01*
X132036331Y-113265583D01*
X131775789Y-113004586D01*
X131435201Y-112863161D01*
X131066417Y-112862839D01*
X130725583Y-113003669D01*
X130464586Y-113264211D01*
X130323161Y-113604799D01*
X130322839Y-113973583D01*
X122716840Y-113973583D01*
X122717161Y-113606417D01*
X122576331Y-113265583D01*
X122315789Y-113004586D01*
X121975201Y-112863161D01*
X121606417Y-112862839D01*
X121265583Y-113003669D01*
X121004586Y-113264211D01*
X120863161Y-113604799D01*
X120862839Y-113973583D01*
X120176840Y-113973583D01*
X120177161Y-113606417D01*
X120036331Y-113265583D01*
X119775789Y-113004586D01*
X119435201Y-112863161D01*
X119066417Y-112862839D01*
X118725583Y-113003669D01*
X118464586Y-113264211D01*
X118323161Y-113604799D01*
X118322839Y-113973583D01*
X104843033Y-113973583D01*
X105344703Y-113766297D01*
X106013947Y-113098220D01*
X106376586Y-112224889D01*
X106377412Y-111279260D01*
X106016297Y-110405297D01*
X105861780Y-110250510D01*
X117866125Y-110250510D01*
X117866125Y-112249490D01*
X117892413Y-112389198D01*
X117974980Y-112517510D01*
X118100963Y-112603591D01*
X118250510Y-112633875D01*
X120249490Y-112633875D01*
X120389198Y-112607587D01*
X120517510Y-112525020D01*
X120603591Y-112399037D01*
X120633875Y-112249490D01*
X120633875Y-111990105D01*
X120789708Y-112223325D01*
X121236273Y-112521711D01*
X121763033Y-112626490D01*
X121816967Y-112626490D01*
X122343727Y-112521711D01*
X122790292Y-112223325D01*
X123088678Y-111776760D01*
X123193457Y-111250000D01*
X123088678Y-110723240D01*
X122790292Y-110276675D01*
X122751134Y-110250510D01*
X129866125Y-110250510D01*
X129866125Y-112249490D01*
X129892413Y-112389198D01*
X129974980Y-112517510D01*
X130100963Y-112603591D01*
X130250510Y-112633875D01*
X132249490Y-112633875D01*
X132389198Y-112607587D01*
X132517510Y-112525020D01*
X132603591Y-112399037D01*
X132633875Y-112249490D01*
X132633875Y-111990105D01*
X132789708Y-112223325D01*
X133236273Y-112521711D01*
X133763033Y-112626490D01*
X133816967Y-112626490D01*
X134343727Y-112521711D01*
X134790292Y-112223325D01*
X135088678Y-111776760D01*
X135136617Y-111535750D01*
X141615510Y-111535750D01*
X141615510Y-112375800D01*
X141712183Y-112609189D01*
X141890812Y-112787817D01*
X142124201Y-112884490D01*
X142964250Y-112884490D01*
X143122998Y-112725742D01*
X143122998Y-112862888D01*
X143066417Y-112862839D01*
X142725583Y-113003669D01*
X142464586Y-113264211D01*
X142323161Y-113604799D01*
X142322839Y-113973583D01*
X142463669Y-114314417D01*
X142724211Y-114575414D01*
X143064799Y-114716839D01*
X143433583Y-114717161D01*
X143774417Y-114576331D01*
X144035414Y-114315789D01*
X144176839Y-113975201D01*
X144176840Y-113973583D01*
X144862839Y-113973583D01*
X145003669Y-114314417D01*
X145264211Y-114575414D01*
X145604799Y-114716839D01*
X145973583Y-114717161D01*
X146314417Y-114576331D01*
X146575414Y-114315789D01*
X146716839Y-113975201D01*
X146716840Y-113973583D01*
X147402839Y-113973583D01*
X147543669Y-114314417D01*
X147804211Y-114575414D01*
X148144799Y-114716839D01*
X148513583Y-114717161D01*
X148854417Y-114576331D01*
X149115414Y-114315789D01*
X149256839Y-113975201D01*
X149257161Y-113606417D01*
X149116331Y-113265583D01*
X148855789Y-113004586D01*
X148515201Y-112863161D01*
X148146417Y-112862839D01*
X147805583Y-113003669D01*
X147544586Y-113264211D01*
X147403161Y-113604799D01*
X147402839Y-113973583D01*
X146716840Y-113973583D01*
X146717161Y-113606417D01*
X146576331Y-113265583D01*
X146315789Y-113004586D01*
X145975201Y-112863161D01*
X145606417Y-112862839D01*
X145265583Y-113003669D01*
X145004586Y-113264211D01*
X144863161Y-113604799D01*
X144862839Y-113973583D01*
X144176840Y-113973583D01*
X144177161Y-113606417D01*
X144036331Y-113265583D01*
X143775789Y-113004586D01*
X143435201Y-112863161D01*
X143377002Y-112863110D01*
X143377002Y-112725742D01*
X143535750Y-112884490D01*
X144375799Y-112884490D01*
X144609188Y-112787817D01*
X144787817Y-112609189D01*
X144884490Y-112375800D01*
X144884490Y-112286656D01*
X145236273Y-112521711D01*
X145763033Y-112626490D01*
X145816967Y-112626490D01*
X146343727Y-112521711D01*
X146790292Y-112223325D01*
X147060000Y-111819680D01*
X147329708Y-112223325D01*
X147776273Y-112521711D01*
X148303033Y-112626490D01*
X148356967Y-112626490D01*
X148883727Y-112521711D01*
X149330292Y-112223325D01*
X149332019Y-112220740D01*
X183622588Y-112220740D01*
X183983703Y-113094703D01*
X184651780Y-113763947D01*
X185525111Y-114126586D01*
X186470740Y-114127412D01*
X187344703Y-113766297D01*
X188013947Y-113098220D01*
X188376586Y-112224889D01*
X188377412Y-111279260D01*
X188016297Y-110405297D01*
X187348220Y-109736053D01*
X186474889Y-109373414D01*
X185529260Y-109372588D01*
X184655297Y-109733703D01*
X183986053Y-110401780D01*
X183623414Y-111275111D01*
X183622588Y-112220740D01*
X149332019Y-112220740D01*
X149628678Y-111776760D01*
X149733457Y-111250000D01*
X149628678Y-110723240D01*
X149503401Y-110535750D01*
X160665000Y-110535750D01*
X160665000Y-111576310D01*
X160761673Y-111809699D01*
X160940302Y-111988327D01*
X161173691Y-112085000D01*
X162214250Y-112085000D01*
X162373000Y-111926250D01*
X162373000Y-110377000D01*
X162627000Y-110377000D01*
X162627000Y-111926250D01*
X162785750Y-112085000D01*
X163826309Y-112085000D01*
X164059698Y-111988327D01*
X164238327Y-111809699D01*
X164335000Y-111576310D01*
X164335000Y-110562308D01*
X164422727Y-110562308D01*
X164662305Y-111142132D01*
X165105535Y-111586136D01*
X165684939Y-111826725D01*
X166312308Y-111827273D01*
X166892132Y-111587695D01*
X167336136Y-111144465D01*
X167576725Y-110565061D01*
X167577273Y-109937692D01*
X167337695Y-109357868D01*
X166894465Y-108913864D01*
X166315061Y-108673275D01*
X165687692Y-108672727D01*
X165107868Y-108912305D01*
X164663864Y-109355535D01*
X164423275Y-109934939D01*
X164422727Y-110562308D01*
X164335000Y-110562308D01*
X164335000Y-110535750D01*
X164176250Y-110377000D01*
X162627000Y-110377000D01*
X162373000Y-110377000D01*
X160823750Y-110377000D01*
X160665000Y-110535750D01*
X149503401Y-110535750D01*
X149330292Y-110276675D01*
X148883727Y-109978289D01*
X148356967Y-109873510D01*
X148303033Y-109873510D01*
X147776273Y-109978289D01*
X147329708Y-110276675D01*
X147060000Y-110680320D01*
X146790292Y-110276675D01*
X146343727Y-109978289D01*
X145816967Y-109873510D01*
X145763033Y-109873510D01*
X145236273Y-109978289D01*
X144884490Y-110213344D01*
X144884490Y-110124200D01*
X144787817Y-109890811D01*
X144609188Y-109712183D01*
X144375799Y-109615510D01*
X143535750Y-109615510D01*
X143377000Y-109774260D01*
X143377000Y-111123000D01*
X143397000Y-111123000D01*
X143397000Y-111377000D01*
X143377000Y-111377000D01*
X143377000Y-111397000D01*
X143123000Y-111397000D01*
X143123000Y-111377000D01*
X141774260Y-111377000D01*
X141615510Y-111535750D01*
X135136617Y-111535750D01*
X135193457Y-111250000D01*
X135088678Y-110723240D01*
X134790292Y-110276675D01*
X134562098Y-110124200D01*
X141615510Y-110124200D01*
X141615510Y-110964250D01*
X141774260Y-111123000D01*
X143123000Y-111123000D01*
X143123000Y-109774260D01*
X142964250Y-109615510D01*
X142124201Y-109615510D01*
X141890812Y-109712183D01*
X141712183Y-109890811D01*
X141615510Y-110124200D01*
X134562098Y-110124200D01*
X134343727Y-109978289D01*
X133816967Y-109873510D01*
X133763033Y-109873510D01*
X133236273Y-109978289D01*
X132789708Y-110276675D01*
X132633875Y-110509895D01*
X132633875Y-110250510D01*
X132607587Y-110110802D01*
X132525020Y-109982490D01*
X132399037Y-109896409D01*
X132249490Y-109866125D01*
X130250510Y-109866125D01*
X130110802Y-109892413D01*
X129982490Y-109974980D01*
X129896409Y-110100963D01*
X129866125Y-110250510D01*
X122751134Y-110250510D01*
X122343727Y-109978289D01*
X121816967Y-109873510D01*
X121763033Y-109873510D01*
X121236273Y-109978289D01*
X120789708Y-110276675D01*
X120633875Y-110509895D01*
X120633875Y-110250510D01*
X120607587Y-110110802D01*
X120525020Y-109982490D01*
X120399037Y-109896409D01*
X120249490Y-109866125D01*
X118250510Y-109866125D01*
X118110802Y-109892413D01*
X117982490Y-109974980D01*
X117896409Y-110100963D01*
X117866125Y-110250510D01*
X105861780Y-110250510D01*
X105348220Y-109736053D01*
X104474889Y-109373414D01*
X103529260Y-109372588D01*
X102655297Y-109733703D01*
X101986053Y-110401780D01*
X101623414Y-111275111D01*
X101622588Y-112220740D01*
X100452000Y-112220740D01*
X100452000Y-108923690D01*
X160665000Y-108923690D01*
X160665000Y-109964250D01*
X160823750Y-110123000D01*
X162373000Y-110123000D01*
X162373000Y-108573750D01*
X162627000Y-108573750D01*
X162627000Y-110123000D01*
X164176250Y-110123000D01*
X164335000Y-109964250D01*
X164335000Y-108923690D01*
X164238327Y-108690301D01*
X164059698Y-108511673D01*
X163826309Y-108415000D01*
X162785750Y-108415000D01*
X162627000Y-108573750D01*
X162373000Y-108573750D01*
X162214250Y-108415000D01*
X161173691Y-108415000D01*
X160940302Y-108511673D01*
X160761673Y-108690301D01*
X160665000Y-108923690D01*
X100452000Y-108923690D01*
X100452000Y-101410740D01*
X108622588Y-101410740D01*
X108983703Y-102284703D01*
X109651780Y-102953947D01*
X110525111Y-103316586D01*
X111470740Y-103317412D01*
X112344703Y-102956297D01*
X113013947Y-102288220D01*
X113376586Y-101414889D01*
X113376589Y-101410740D01*
X174122588Y-101410740D01*
X174483703Y-102284703D01*
X175151780Y-102953947D01*
X176025111Y-103316586D01*
X176970740Y-103317412D01*
X177844703Y-102956297D01*
X178513947Y-102288220D01*
X178876586Y-101414889D01*
X178877412Y-100469260D01*
X178516297Y-99595297D01*
X177848220Y-98926053D01*
X176974889Y-98563414D01*
X176029260Y-98562588D01*
X175155297Y-98923703D01*
X174486053Y-99591780D01*
X174123414Y-100465111D01*
X174122588Y-101410740D01*
X113376589Y-101410740D01*
X113377412Y-100469260D01*
X113016297Y-99595297D01*
X112348220Y-98926053D01*
X111474889Y-98563414D01*
X110529260Y-98562588D01*
X109655297Y-98923703D01*
X108986053Y-99591780D01*
X108623414Y-100465111D01*
X108622588Y-101410740D01*
X100452000Y-101410740D01*
X100452000Y-83433583D01*
X100532839Y-83433583D01*
X100673669Y-83774417D01*
X100934211Y-84035414D01*
X101274799Y-84176839D01*
X101643583Y-84177161D01*
X101984417Y-84036331D01*
X102245414Y-83775789D01*
X102386839Y-83435201D01*
X102387161Y-83066417D01*
X102246331Y-82725583D01*
X101985789Y-82464586D01*
X101645201Y-82323161D01*
X101276417Y-82322839D01*
X100935583Y-82463669D01*
X100674586Y-82724211D01*
X100533161Y-83064799D01*
X100532839Y-83433583D01*
X100452000Y-83433583D01*
X100452000Y-78973583D01*
X100532839Y-78973583D01*
X100673669Y-79314417D01*
X100934211Y-79575414D01*
X101274799Y-79716839D01*
X101643583Y-79717161D01*
X101984417Y-79576331D01*
X102245414Y-79315789D01*
X102386839Y-78975201D01*
X102387161Y-78606417D01*
X102246331Y-78265583D01*
X101985789Y-78004586D01*
X101645201Y-77863161D01*
X101276417Y-77862839D01*
X100935583Y-78003669D01*
X100674586Y-78264211D01*
X100533161Y-78604799D01*
X100532839Y-78973583D01*
X100452000Y-78973583D01*
X100452000Y-76433583D01*
X100532839Y-76433583D01*
X100673669Y-76774417D01*
X100934211Y-77035414D01*
X101274799Y-77176839D01*
X101643583Y-77177161D01*
X101984417Y-77036331D01*
X102245414Y-76775789D01*
X102386839Y-76435201D01*
X102386890Y-76377002D01*
X102529192Y-76377002D01*
X102410373Y-76630355D01*
X102676932Y-77209726D01*
X102907895Y-77423552D01*
X102860802Y-77432413D01*
X102732490Y-77514980D01*
X102646409Y-77640963D01*
X102616125Y-77790510D01*
X102616125Y-79789490D01*
X102642413Y-79929198D01*
X102724980Y-80057510D01*
X102850963Y-80143591D01*
X103000510Y-80173875D01*
X104999490Y-80173875D01*
X105139198Y-80147587D01*
X105267510Y-80065020D01*
X105353591Y-79939037D01*
X105383875Y-79789490D01*
X105383875Y-79292000D01*
X138459995Y-79292000D01*
X138460000Y-79292001D01*
X138507514Y-79282550D01*
X135042064Y-82748000D01*
X105282000Y-82748000D01*
X105271711Y-82696273D01*
X104973325Y-82249708D01*
X104526760Y-81951322D01*
X104000000Y-81846543D01*
X103473240Y-81951322D01*
X103026675Y-82249708D01*
X102728289Y-82696273D01*
X102623510Y-83223033D01*
X102623510Y-83276967D01*
X102728289Y-83803727D01*
X103026675Y-84250292D01*
X103210320Y-84373000D01*
X102750000Y-84373000D01*
X102612977Y-84398783D01*
X102487129Y-84479763D01*
X102402702Y-84603326D01*
X102373000Y-84750000D01*
X102373000Y-85572145D01*
X102246331Y-85265583D01*
X101985789Y-85004586D01*
X101645201Y-84863161D01*
X101276417Y-84862839D01*
X100935583Y-85003669D01*
X100674586Y-85264211D01*
X100533161Y-85604799D01*
X100532839Y-85973583D01*
X100673669Y-86314417D01*
X100934211Y-86575414D01*
X101274799Y-86716839D01*
X101643583Y-86717161D01*
X101984417Y-86576331D01*
X102245414Y-86315789D01*
X102373000Y-86008529D01*
X102373000Y-86750000D01*
X102398783Y-86887023D01*
X102479763Y-87012871D01*
X102603326Y-87097298D01*
X102750000Y-87127000D01*
X102826681Y-87127000D01*
X102850963Y-87143591D01*
X103000510Y-87173875D01*
X104999490Y-87173875D01*
X105139198Y-87147587D01*
X105171191Y-87127000D01*
X149250000Y-87127000D01*
X149387023Y-87101217D01*
X149512871Y-87020237D01*
X149597298Y-86896674D01*
X149627000Y-86750000D01*
X149627000Y-84750000D01*
X149601217Y-84612977D01*
X149520237Y-84487129D01*
X149396674Y-84402702D01*
X149250000Y-84373000D01*
X104789680Y-84373000D01*
X104973325Y-84250292D01*
X105271711Y-83803727D01*
X105282000Y-83752000D01*
X135249995Y-83752000D01*
X135250000Y-83752001D01*
X135442107Y-83713788D01*
X135604968Y-83604968D01*
X151240044Y-67969892D01*
X151392569Y-67970025D01*
X151657258Y-67860658D01*
X151859946Y-67658323D01*
X151969775Y-67393825D01*
X151970025Y-67107431D01*
X151860658Y-66842742D01*
X151658323Y-66640054D01*
X151393825Y-66530225D01*
X151107431Y-66529975D01*
X150842742Y-66639342D01*
X150640054Y-66841677D01*
X150625099Y-66877692D01*
X150610658Y-66842742D01*
X150408323Y-66640054D01*
X150143825Y-66530225D01*
X149857431Y-66529975D01*
X149592742Y-66639342D01*
X149390054Y-66841677D01*
X149280225Y-67106175D01*
X149280091Y-67259974D01*
X138252064Y-78288000D01*
X105383875Y-78288000D01*
X105383875Y-77790510D01*
X105357587Y-77650802D01*
X105275020Y-77522490D01*
X105149037Y-77436409D01*
X105090928Y-77424642D01*
X105323068Y-77209726D01*
X105589627Y-76630355D01*
X105470807Y-76377000D01*
X104127000Y-76377000D01*
X104127000Y-76397000D01*
X103873000Y-76397000D01*
X103873000Y-76377000D01*
X103853000Y-76377000D01*
X103853000Y-76123000D01*
X103873000Y-76123000D01*
X103873000Y-74779735D01*
X104127000Y-74779735D01*
X104127000Y-76123000D01*
X105470807Y-76123000D01*
X105589627Y-75869645D01*
X105323068Y-75290274D01*
X104855084Y-74857013D01*
X104380354Y-74660381D01*
X104127000Y-74779735D01*
X103873000Y-74779735D01*
X103619646Y-74660381D01*
X103144916Y-74857013D01*
X102676932Y-75290274D01*
X102410373Y-75869645D01*
X102529192Y-76122998D01*
X102387112Y-76122998D01*
X102387161Y-76066417D01*
X102246331Y-75725583D01*
X101985789Y-75464586D01*
X101645201Y-75323161D01*
X101276417Y-75322839D01*
X100935583Y-75463669D01*
X100674586Y-75724211D01*
X100533161Y-76064799D01*
X100532839Y-76433583D01*
X100452000Y-76433583D01*
X100452000Y-64670740D01*
X106122588Y-64670740D01*
X106483703Y-65544703D01*
X107151780Y-66213947D01*
X108025111Y-66576586D01*
X108970740Y-66577412D01*
X109844703Y-66216297D01*
X110513947Y-65548220D01*
X110876586Y-64674889D01*
X110877412Y-63729260D01*
X110516297Y-62855297D01*
X109848220Y-62186053D01*
X108974889Y-61823414D01*
X108029260Y-61822588D01*
X107155297Y-62183703D01*
X106486053Y-62851780D01*
X106123414Y-63725111D01*
X106122588Y-64670740D01*
X100452000Y-64670740D01*
X100452000Y-59902532D01*
X118527073Y-59902532D01*
X118625736Y-60169387D01*
X119235461Y-60395908D01*
X119885460Y-60371856D01*
X120374264Y-60169387D01*
X120472927Y-59902532D01*
X119500000Y-58929605D01*
X118527073Y-59902532D01*
X100452000Y-59902532D01*
X100452000Y-58485461D01*
X117854092Y-58485461D01*
X117878144Y-59135460D01*
X118080613Y-59624264D01*
X118347468Y-59722927D01*
X119320395Y-58750000D01*
X119679605Y-58750000D01*
X120652532Y-59722927D01*
X120919387Y-59624264D01*
X121142875Y-59022701D01*
X122622762Y-59022701D01*
X122831956Y-59528989D01*
X123218974Y-59916683D01*
X123724896Y-60126760D01*
X124272701Y-60127238D01*
X124778989Y-59918044D01*
X125166683Y-59531026D01*
X125376760Y-59025104D01*
X125377238Y-58477299D01*
X125168044Y-57971011D01*
X124781026Y-57583317D01*
X124275104Y-57373240D01*
X123727299Y-57372762D01*
X123221011Y-57581956D01*
X122833317Y-57968974D01*
X122623240Y-58474896D01*
X122622762Y-59022701D01*
X121142875Y-59022701D01*
X121145908Y-59014539D01*
X121121856Y-58364540D01*
X120919387Y-57875736D01*
X120652532Y-57777073D01*
X119679605Y-58750000D01*
X119320395Y-58750000D01*
X118347468Y-57777073D01*
X118080613Y-57875736D01*
X117854092Y-58485461D01*
X100452000Y-58485461D01*
X100452000Y-57597468D01*
X118527073Y-57597468D01*
X119500000Y-58570395D01*
X120472927Y-57597468D01*
X120374264Y-57330613D01*
X119764539Y-57104092D01*
X119114540Y-57128144D01*
X118625736Y-57330613D01*
X118527073Y-57597468D01*
X100452000Y-57597468D01*
X100452000Y-54470740D01*
X101622588Y-54470740D01*
X101983703Y-55344703D01*
X102651780Y-56013947D01*
X103525111Y-56376586D01*
X104470740Y-56377412D01*
X105344703Y-56016297D01*
X106013947Y-55348220D01*
X106376586Y-54474889D01*
X106377412Y-53529260D01*
X106325049Y-53402532D01*
X118527073Y-53402532D01*
X118625736Y-53669387D01*
X119235461Y-53895908D01*
X119885460Y-53871856D01*
X120374264Y-53669387D01*
X120472927Y-53402532D01*
X119500000Y-52429605D01*
X118527073Y-53402532D01*
X106325049Y-53402532D01*
X106016297Y-52655297D01*
X105348220Y-51986053D01*
X105346795Y-51985461D01*
X117854092Y-51985461D01*
X117878144Y-52635460D01*
X118080613Y-53124264D01*
X118347468Y-53222927D01*
X119320395Y-52250000D01*
X119679605Y-52250000D01*
X120652532Y-53222927D01*
X120919387Y-53124264D01*
X121142875Y-52522701D01*
X122622762Y-52522701D01*
X122831956Y-53028989D01*
X123218974Y-53416683D01*
X123724896Y-53626760D01*
X124272701Y-53627238D01*
X124778989Y-53418044D01*
X125166683Y-53031026D01*
X125376760Y-52525104D01*
X125377021Y-52225962D01*
X161733000Y-52225962D01*
X161733000Y-52274038D01*
X161826400Y-52743591D01*
X162092380Y-53141658D01*
X162490447Y-53407638D01*
X162960000Y-53501038D01*
X163429553Y-53407638D01*
X163827620Y-53141658D01*
X164093600Y-52743591D01*
X164187000Y-52274038D01*
X164187000Y-52225962D01*
X164093600Y-51756409D01*
X163827620Y-51358342D01*
X163429553Y-51092362D01*
X162960000Y-50998962D01*
X162490447Y-51092362D01*
X162092380Y-51358342D01*
X161826400Y-51756409D01*
X161733000Y-52225962D01*
X125377021Y-52225962D01*
X125377238Y-51977299D01*
X125168044Y-51471011D01*
X124781026Y-51083317D01*
X124275104Y-50873240D01*
X123727299Y-50872762D01*
X123221011Y-51081956D01*
X122833317Y-51468974D01*
X122623240Y-51974896D01*
X122622762Y-52522701D01*
X121142875Y-52522701D01*
X121145908Y-52514539D01*
X121121856Y-51864540D01*
X120919387Y-51375736D01*
X120652532Y-51277073D01*
X119679605Y-52250000D01*
X119320395Y-52250000D01*
X118347468Y-51277073D01*
X118080613Y-51375736D01*
X117854092Y-51985461D01*
X105346795Y-51985461D01*
X104474889Y-51623414D01*
X103529260Y-51622588D01*
X102655297Y-51983703D01*
X101986053Y-52651780D01*
X101623414Y-53525111D01*
X101622588Y-54470740D01*
X100452000Y-54470740D01*
X100452000Y-52544518D01*
X100616076Y-51719652D01*
X101031806Y-51097468D01*
X118527073Y-51097468D01*
X119500000Y-52070395D01*
X120472927Y-51097468D01*
X120374264Y-50830613D01*
X119764539Y-50604092D01*
X119114540Y-50628144D01*
X118625736Y-50830613D01*
X118527073Y-51097468D01*
X101031806Y-51097468D01*
X101058107Y-51058107D01*
X101719652Y-50616076D01*
X102544518Y-50452000D01*
X166530274Y-50452000D01*
X166487129Y-50479763D01*
M02*
