"Id";"Designator";"Package";"Quantity";"Designation";"Supplier and ref";
1;"C1,C2,C5,C6";"CP_Elec_5x5.3";4;"22μF";;;
2;"C7";"C_1206";1;"100nF";;;
3;"D1";"LED_0805";1;"LED";;;
4;"D3,D4,D5,D6";"D_SOD-123";4;"DIODE";;;
5;"J2";"TerminalBlock_Phoenix_MPT-2.54mm_2pol";1;"SENSOR1";;;
6;"J3";"TerminalBlock_Phoenix_MPT-2.54mm_2pol";1;"SENSOR2";;;
7;"J4";"TerminalBlock_Phoenix_MPT-2.54mm_3pol";1;"TEMP";;;
8;"P1";"TerminalBlock_Phoenix_MPT-2.54mm_2pol";1;"PWR";;;
9;"P2";"Pin_Header_Straight_1x04_Pitch2.54mm";1;"FTDI";;;
10;"P3";"oled-096-i2c-4pin";1;"OLED";;;
11;"R1,R3,R4,R5,R7,R12";"R_0805";6;"10K";;;
12;"R2";"R_0805";1;"330";;;
13;"R6,R8,R10,R11";"R_0805";4;"1.5K";;;
14;"R9";"R_0805";1;"4.7K";;;
15;"SW1";"SW_PUSH_6mm_h4.3mm";1;"SW_PUSH";;;
16;"SW2,SW3";"SW_Micro_SPST";2;"SPDT";;;
17;"U1,U3";"SOT-223";2;"AMS1117";;;
18;"U2";"ESP-32S";1;"ESP-32S";;;
19;",,";"padhole";3;"padhole";;;
